<?xml version="1.0" encoding="UTF-8"?>
<glyph name="asciitilde" format="1">
  <advance width="379"/>
  <unicode hex="007E"/>
  <outline>
    <contour>
      <point x="56" y="140"/>
      <point x="68" y="153"/>
      <point x="101" y="153" type="curve" smooth="yes"/>
      <point x="142" y="153"/>
      <point x="207" y="126"/>
      <point x="244" y="126" type="curve" smooth="yes"/>
      <point x="281" y="126"/>
      <point x="305" y="145"/>
      <point x="349" y="203" type="curve" smooth="yes"/>
      <point x="351" y="206"/>
      <point x="345" y="211"/>
      <point x="343" y="209" type="curve" smooth="yes"/>
      <point x="329" y="194"/>
      <point x="308" y="178"/>
      <point x="274" y="178" type="curve" smooth="yes"/>
      <point x="239" y="178"/>
      <point x="169" y="205"/>
      <point x="131" y="205" type="curve" smooth="yes"/>
      <point x="98" y="205"/>
      <point x="78" y="191"/>
      <point x="31" y="128" type="curve" smooth="yes"/>
      <point x="29" y="125"/>
      <point x="35" y="120"/>
      <point x="37" y="122" type="curve" smooth="yes"/>
    </contour>
  </outline>
  <lib>
    <dict>
      <key>com.typemytype.robofont.layerData</key>
      <dict>
        <key>Bold Italic May 30 15, 14:53</key>
        <dict>
          <key>anchors</key>
          <array>
          </array>
          <key>components</key>
          <array>
          </array>
          <key>contours</key>
          <array>
            <dict>
              <key>points</key>
              <array>
                <dict>
                  <key>smooth</key>
                  <false/>
                  <key>x</key>
                  <integer>68</integer>
                  <key>y</key>
                  <integer>152</integer>
                </dict>
                <dict>
                  <key>smooth</key>
                  <false/>
                  <key>x</key>
                  <integer>77</integer>
                  <key>y</key>
                  <integer>165</integer>
                </dict>
                <dict>
                  <key>segmentType</key>
                  <string>curve</string>
                  <key>smooth</key>
                  <true/>
                  <key>x</key>
                  <integer>111</integer>
                  <key>y</key>
                  <integer>165</integer>
                </dict>
                <dict>
                  <key>smooth</key>
                  <false/>
                  <key>x</key>
                  <integer>163</integer>
                  <key>y</key>
                  <integer>165</integer>
                </dict>
                <dict>
                  <key>smooth</key>
                  <false/>
                  <key>x</key>
                  <integer>200</integer>
                  <key>y</key>
                  <integer>134</integer>
                </dict>
                <dict>
                  <key>segmentType</key>
                  <string>curve</string>
                  <key>smooth</key>
                  <true/>
                  <key>x</key>
                  <integer>250</integer>
                  <key>y</key>
                  <integer>134</integer>
                </dict>
                <dict>
                  <key>smooth</key>
                  <false/>
                  <key>x</key>
                  <integer>279</integer>
                  <key>y</key>
                  <integer>134</integer>
                </dict>
                <dict>
                  <key>smooth</key>
                  <false/>
                  <key>x</key>
                  <integer>298</integer>
                  <key>y</key>
                  <integer>145</integer>
                </dict>
                <dict>
                  <key>segmentType</key>
                  <string>curve</string>
                  <key>smooth</key>
                  <true/>
                  <key>x</key>
                  <integer>339</integer>
                  <key>y</key>
                  <integer>193</integer>
                </dict>
                <dict>
                  <key>smooth</key>
                  <false/>
                  <key>x</key>
                  <integer>341</integer>
                  <key>y</key>
                  <integer>196</integer>
                </dict>
                <dict>
                  <key>smooth</key>
                  <false/>
                  <key>x</key>
                  <integer>335</integer>
                  <key>y</key>
                  <integer>201</integer>
                </dict>
                <dict>
                  <key>segmentType</key>
                  <string>curve</string>
                  <key>smooth</key>
                  <true/>
                  <key>x</key>
                  <integer>333</integer>
                  <key>y</key>
                  <integer>199</integer>
                </dict>
                <dict>
                  <key>smooth</key>
                  <false/>
                  <key>x</key>
                  <integer>319</integer>
                  <key>y</key>
                  <integer>183</integer>
                </dict>
                <dict>
                  <key>smooth</key>
                  <false/>
                  <key>x</key>
                  <integer>304</integer>
                  <key>y</key>
                  <integer>166</integer>
                </dict>
                <dict>
                  <key>segmentType</key>
                  <string>curve</string>
                  <key>smooth</key>
                  <true/>
                  <key>x</key>
                  <integer>268</integer>
                  <key>y</key>
                  <integer>166</integer>
                </dict>
                <dict>
                  <key>smooth</key>
                  <false/>
                  <key>x</key>
                  <integer>219</integer>
                  <key>y</key>
                  <integer>166</integer>
                </dict>
                <dict>
                  <key>smooth</key>
                  <false/>
                  <key>x</key>
                  <integer>174</integer>
                  <key>y</key>
                  <integer>197</integer>
                </dict>
                <dict>
                  <key>segmentType</key>
                  <string>curve</string>
                  <key>smooth</key>
                  <true/>
                  <key>x</key>
                  <integer>136</integer>
                  <key>y</key>
                  <integer>197</integer>
                </dict>
                <dict>
                  <key>smooth</key>
                  <false/>
                  <key>x</key>
                  <integer>94</integer>
                  <key>y</key>
                  <integer>197</integer>
                </dict>
                <dict>
                  <key>smooth</key>
                  <false/>
                  <key>x</key>
                  <integer>59</integer>
                  <key>y</key>
                  <integer>160</integer>
                </dict>
                <dict>
                  <key>segmentType</key>
                  <string>curve</string>
                  <key>smooth</key>
                  <true/>
                  <key>x</key>
                  <integer>41</integer>
                  <key>y</key>
                  <integer>138</integer>
                </dict>
                <dict>
                  <key>smooth</key>
                  <false/>
                  <key>x</key>
                  <integer>39</integer>
                  <key>y</key>
                  <integer>135</integer>
                </dict>
                <dict>
                  <key>smooth</key>
                  <false/>
                  <key>x</key>
                  <integer>45</integer>
                  <key>y</key>
                  <integer>130</integer>
                </dict>
                <dict>
                  <key>segmentType</key>
                  <string>curve</string>
                  <key>smooth</key>
                  <true/>
                  <key>x</key>
                  <integer>47</integer>
                  <key>y</key>
                  <integer>132</integer>
                </dict>
              </array>
            </dict>
          </array>
          <key>lib</key>
          <dict>
          </dict>
          <key>name</key>
          <string>asciitilde</string>
          <key>unicodes</key>
          <array>
          </array>
          <key>width</key>
          <integer>379</integer>
        </dict>
      </dict>
    </dict>
  </lib>
</glyph>
