<?xml version="1.0" encoding="UTF-8"?>
<glyph name="Gcaron" format="1">
  <advance width="541"/>
  <unicode hex="01E6"/>
  <outline>
    <component base="G"/>
    <component base="caron.case" xOffset="239" yOffset="204"/>
  </outline>
  <lib>
    <dict>
      <key>com.schriftgestaltung.Glyphs.ColorIndex</key>
      <integer>9</integer>
      <key>public.markColor</key>
      <string>0.98,0.36,0.67,1</string>
    </dict>
  </lib>
</glyph>
