<?xml version="1.0" encoding="UTF-8"?>
<glyph name="g_ucaron.ss03" format="1">
  <advance width="770"/>
  <outline>
    <component base="g_u.ss03"/>
    <component base="caron" xOffset="453"/>
  </outline>
</glyph>
