<?xml version="1.0" encoding="UTF-8"?>
<glyph name="g_ugrave" format="1">
  <advance width="707"/>
  <outline>
    <component base="g_u"/>
    <component base="grave" xOffset="395"/>
  </outline>
</glyph>
