<?xml version="1.0" encoding="UTF-8"?>
<glyph name="g_y.liga.ss03" format="1">
  <advance width="748"/>
  <outline>
    <component base="g.ss03"/>
    <component base="y.ss03" xOffset="363"/>
    <contour>
      <point x="563" y="330" type="move" name="top"/>
    </contour>
    <contour>
      <point x="331" y="0" type="move" name="bottom"/>
    </contour>
  </outline>
  <lib>
    <dict>
      <key>com.schriftgestaltung.Glyphs.leftMetricsKey</key>
      <string>g</string>
      <key>com.schriftgestaltung.Glyphs.rightMetricsKey</key>
      <string>y</string>
      <key>com.typemytype.robofont.layerData</key>
      <dict>
        <key>background</key>
        <dict>
          <key>anchors</key>
          <array>
          </array>
          <key>components</key>
          <array>
          </array>
          <key>contours</key>
          <array>
            <dict>
              <key>points</key>
              <array>
                <dict>
                  <key>smooth</key>
                  <false/>
                  <key>x</key>
                  <integer>334</integer>
                  <key>y</key>
                  <integer>296</integer>
                </dict>
                <dict>
                  <key>smooth</key>
                  <false/>
                  <key>x</key>
                  <integer>343</integer>
                  <key>y</key>
                  <integer>336</integer>
                </dict>
                <dict>
                  <key>segmentType</key>
                  <string>curve</string>
                  <key>smooth</key>
                  <true/>
                  <key>x</key>
                  <integer>338</integer>
                  <key>y</key>
                  <integer>336</integer>
                </dict>
                <dict>
                  <key>smooth</key>
                  <false/>
                  <key>x</key>
                  <integer>305</integer>
                  <key>y</key>
                  <integer>336</integer>
                </dict>
                <dict>
                  <key>smooth</key>
                  <false/>
                  <key>x</key>
                  <integer>264</integer>
                  <key>y</key>
                  <integer>322</integer>
                </dict>
                <dict>
                  <key>segmentType</key>
                  <string>curve</string>
                  <key>smooth</key>
                  <false/>
                  <key>x</key>
                  <integer>230</integer>
                  <key>y</key>
                  <integer>302</integer>
                </dict>
                <dict>
                  <key>segmentType</key>
                  <string>line</string>
                  <key>smooth</key>
                  <false/>
                  <key>x</key>
                  <integer>231</integer>
                  <key>y</key>
                  <integer>296</integer>
                </dict>
                <dict>
                  <key>smooth</key>
                  <false/>
                  <key>x</key>
                  <integer>264</integer>
                  <key>y</key>
                  <integer>307</integer>
                </dict>
                <dict>
                  <key>smooth</key>
                  <false/>
                  <key>x</key>
                  <integer>304</integer>
                  <key>y</key>
                  <integer>311</integer>
                </dict>
                <dict>
                  <key>segmentType</key>
                  <string>curve</string>
                  <key>smooth</key>
                  <true/>
                  <key>x</key>
                  <integer>331</integer>
                  <key>y</key>
                  <integer>298</integer>
                </dict>
              </array>
            </dict>
          </array>
          <key>lib</key>
          <dict>
          </dict>
          <key>name</key>
          <string>g_y.liga.ss03</string>
          <key>unicodes</key>
          <array>
          </array>
          <key>width</key>
          <integer>748</integer>
        </dict>
      </dict>
    </dict>
  </lib>
</glyph>
