<?xml version="1.0" encoding="UTF-8"?>
<glyph name="gbreve_u.ss03" format="1">
  <advance width="770"/>
  <outline>
    <component base="gbreve.ss03"/>
    <component base="u" xOffset="363"/>
    <contour>
      <point x="568" y="10" type="move" name="ogonek"/>
    </contour>
    <contour>
      <point x="522" y="330" type="move" name="top"/>
    </contour>
    <contour>
      <point x="745" y="330" type="move" name="topright"/>
    </contour>
    <contour>
      <point x="141" y="0" type="move" name="bottom"/>
    </contour>
  </outline>
  <lib>
    <dict>
      <key>com.schriftgestaltung.Glyphs.rightMetricsKey</key>
      <string>u</string>
      <key>com.typemytype.robofont.layerData</key>
      <dict>
        <key>background</key>
        <dict>
          <key>anchors</key>
          <array>
          </array>
          <key>components</key>
          <array>
            <dict>
              <key>baseGlyph</key>
              <string>u</string>
              <key>transformation</key>
              <array>
                <integer>1</integer>
                <integer>0</integer>
                <integer>0</integer>
                <integer>1</integer>
                <integer>0</integer>
                <integer>0</integer>
              </array>
            </dict>
          </array>
          <key>contours</key>
          <array>
          </array>
          <key>lib</key>
          <dict>
          </dict>
          <key>name</key>
          <string>gbreve_u.ss03</string>
          <key>unicodes</key>
          <array>
          </array>
          <key>width</key>
          <integer>770</integer>
        </dict>
      </dict>
    </dict>
  </lib>
</glyph>
