<?xml version="1.0" encoding="UTF-8"?>
<glyph name="k" format="1">
  <advance width="352"/>
  <unicode hex="006B"/>
  <outline>
    <contour>
      <point x="81" y="-7"/>
      <point x="97" y="0"/>
      <point x="99" y="10" type="curve" smooth="yes"/>
      <point x="128" y="175" type="line"/>
      <point x="206" y="613" type="line" smooth="yes"/>
      <point x="207" y="617"/>
      <point x="200" y="622"/>
      <point x="196" y="620" type="curve" smooth="yes"/>
      <point x="63" y="555" type="line" smooth="yes"/>
      <point x="58" y="553"/>
      <point x="62" y="543"/>
      <point x="67" y="545" type="curve" smooth="yes"/>
      <point x="114" y="567"/>
      <point x="126" y="558"/>
      <point x="116" y="504" type="curve" smooth="yes"/>
      <point x="36" y="63" type="line" smooth="yes"/>
      <point x="31" y="33"/>
      <point x="23" y="4"/>
      <point x="23" y="0" type="curve" smooth="yes"/>
      <point x="23" y="-3"/>
      <point x="29" y="-7"/>
      <point x="51" y="-7" type="curve" smooth="yes"/>
    </contour>
    <contour>
      <point x="294" y="-8"/>
      <point x="323" y="14"/>
      <point x="361" y="57" type="curve" smooth="yes"/>
      <point x="365" y="61"/>
      <point x="358" y="68"/>
      <point x="354" y="64" type="curve" smooth="yes"/>
      <point x="335" y="49"/>
      <point x="319" y="42"/>
      <point x="308" y="42" type="curve" smooth="yes"/>
      <point x="292" y="42"/>
      <point x="279" y="49"/>
      <point x="255" y="87" type="curve" smooth="yes"/>
      <point x="195" y="183" type="line"/>
      <point x="105" y="148" type="line"/>
      <point x="128" y="155"/>
      <point x="133" y="152"/>
      <point x="145" y="132" type="curve" smooth="yes"/>
      <point x="195" y="50" type="line" smooth="yes"/>
      <point x="222" y="6"/>
      <point x="241" y="-8"/>
      <point x="271" y="-8" type="curve" smooth="yes"/>
    </contour>
    <contour>
      <point x="246" y="175"/>
      <point x="331" y="234"/>
      <point x="340" y="290" type="curve" smooth="yes"/>
      <point x="343" y="310"/>
      <point x="337" y="341"/>
      <point x="283" y="341" type="curve" smooth="yes"/>
      <point x="209" y="341"/>
      <point x="130" y="282"/>
      <point x="89" y="208" type="curve"/>
      <point x="128" y="175" type="line"/>
      <point x="143" y="252"/>
      <point x="182" y="304"/>
      <point x="228" y="304" type="curve" smooth="yes"/>
      <point x="247" y="304"/>
      <point x="254" y="290"/>
      <point x="252" y="266" type="curve" smooth="yes"/>
      <point x="249" y="215"/>
      <point x="204" y="183"/>
      <point x="105" y="163" type="curve"/>
      <point x="105" y="148" type="line"/>
    </contour>
    <contour>
      <point x="161" y="574" type="move" name="top"/>
    </contour>
    <contour>
      <point x="148" y="0" type="move" name="bottom"/>
    </contour>
  </outline>
  <lib>
    <dict>
      <key>com.schriftgestaltung.Glyphs.leftMetricsKey</key>
      <string>h</string>
      <key>com.typemytype.robofont.layerData</key>
      <dict>
        <key>Bold Italic Apr 26 15, 19:29</key>
        <dict>
          <key>anchors</key>
          <array>
            <dict>
              <key>name</key>
              <string>top</string>
              <key>x</key>
              <integer>161</integer>
              <key>y</key>
              <integer>574</integer>
            </dict>
            <dict>
              <key>name</key>
              <string>bottom</string>
              <key>x</key>
              <integer>148</integer>
              <key>y</key>
              <integer>0</integer>
            </dict>
          </array>
          <key>components</key>
          <array>
          </array>
          <key>contours</key>
          <array>
            <dict>
              <key>points</key>
              <array>
                <dict>
                  <key>segmentType</key>
                  <string>line</string>
                  <key>smooth</key>
                  <false/>
                  <key>x</key>
                  <integer>108</integer>
                  <key>y</key>
                  <integer>178</integer>
                </dict>
                <dict>
                  <key>segmentType</key>
                  <string>line</string>
                  <key>smooth</key>
                  <true/>
                  <key>x</key>
                  <integer>187</integer>
                  <key>y</key>
                  <integer>613</integer>
                </dict>
                <dict>
                  <key>smooth</key>
                  <false/>
                  <key>x</key>
                  <integer>188</integer>
                  <key>y</key>
                  <integer>616</integer>
                </dict>
                <dict>
                  <key>smooth</key>
                  <false/>
                  <key>x</key>
                  <integer>182</integer>
                  <key>y</key>
                  <integer>622</integer>
                </dict>
                <dict>
                  <key>segmentType</key>
                  <string>curve</string>
                  <key>smooth</key>
                  <true/>
                  <key>x</key>
                  <integer>178</integer>
                  <key>y</key>
                  <integer>620</integer>
                </dict>
                <dict>
                  <key>segmentType</key>
                  <string>line</string>
                  <key>smooth</key>
                  <true/>
                  <key>x</key>
                  <integer>73</integer>
                  <key>y</key>
                  <integer>569</integer>
                </dict>
                <dict>
                  <key>smooth</key>
                  <false/>
                  <key>x</key>
                  <integer>68</integer>
                  <key>y</key>
                  <integer>567</integer>
                </dict>
                <dict>
                  <key>smooth</key>
                  <false/>
                  <key>x</key>
                  <integer>72</integer>
                  <key>y</key>
                  <integer>557</integer>
                </dict>
                <dict>
                  <key>segmentType</key>
                  <string>curve</string>
                  <key>smooth</key>
                  <true/>
                  <key>x</key>
                  <integer>77</integer>
                  <key>y</key>
                  <integer>559</integer>
                </dict>
                <dict>
                  <key>smooth</key>
                  <false/>
                  <key>x</key>
                  <integer>130</integer>
                  <key>y</key>
                  <integer>585</integer>
                </dict>
                <dict>
                  <key>smooth</key>
                  <false/>
                  <key>x</key>
                  <integer>145</integer>
                  <key>y</key>
                  <integer>573</integer>
                </dict>
                <dict>
                  <key>segmentType</key>
                  <string>curve</string>
                  <key>smooth</key>
                  <true/>
                  <key>x</key>
                  <integer>138</integer>
                  <key>y</key>
                  <integer>536</integer>
                </dict>
                <dict>
                  <key>segmentType</key>
                  <string>line</string>
                  <key>smooth</key>
                  <true/>
                  <key>x</key>
                  <integer>49</integer>
                  <key>y</key>
                  <integer>63</integer>
                </dict>
                <dict>
                  <key>smooth</key>
                  <false/>
                  <key>x</key>
                  <integer>44</integer>
                  <key>y</key>
                  <integer>33</integer>
                </dict>
                <dict>
                  <key>smooth</key>
                  <false/>
                  <key>x</key>
                  <integer>36</integer>
                  <key>y</key>
                  <integer>2</integer>
                </dict>
                <dict>
                  <key>segmentType</key>
                  <string>curve</string>
                  <key>smooth</key>
                  <true/>
                  <key>x</key>
                  <integer>36</integer>
                  <key>y</key>
                  <integer>-2</integer>
                </dict>
                <dict>
                  <key>smooth</key>
                  <false/>
                  <key>x</key>
                  <integer>36</integer>
                  <key>y</key>
                  <integer>-5</integer>
                </dict>
                <dict>
                  <key>smooth</key>
                  <false/>
                  <key>x</key>
                  <integer>39</integer>
                  <key>y</key>
                  <integer>-7</integer>
                </dict>
                <dict>
                  <key>segmentType</key>
                  <string>curve</string>
                  <key>smooth</key>
                  <true/>
                  <key>x</key>
                  <integer>54</integer>
                  <key>y</key>
                  <integer>-7</integer>
                </dict>
                <dict>
                  <key>smooth</key>
                  <false/>
                  <key>x</key>
                  <integer>67</integer>
                  <key>y</key>
                  <integer>-7</integer>
                </dict>
                <dict>
                  <key>smooth</key>
                  <false/>
                  <key>x</key>
                  <integer>75</integer>
                  <key>y</key>
                  <integer>-2</integer>
                </dict>
                <dict>
                  <key>segmentType</key>
                  <string>curve</string>
                  <key>smooth</key>
                  <true/>
                  <key>x</key>
                  <integer>76</integer>
                  <key>y</key>
                  <integer>5</integer>
                </dict>
              </array>
            </dict>
            <dict>
              <key>points</key>
              <array>
                <dict>
                  <key>smooth</key>
                  <false/>
                  <key>x</key>
                  <integer>220</integer>
                  <key>y</key>
                  <integer>6</integer>
                </dict>
                <dict>
                  <key>smooth</key>
                  <false/>
                  <key>x</key>
                  <integer>235</integer>
                  <key>y</key>
                  <integer>-8</integer>
                </dict>
                <dict>
                  <key>segmentType</key>
                  <string>curve</string>
                  <key>smooth</key>
                  <true/>
                  <key>x</key>
                  <integer>261</integer>
                  <key>y</key>
                  <integer>-8</integer>
                </dict>
                <dict>
                  <key>smooth</key>
                  <false/>
                  <key>x</key>
                  <integer>284</integer>
                  <key>y</key>
                  <integer>-8</integer>
                </dict>
                <dict>
                  <key>smooth</key>
                  <false/>
                  <key>x</key>
                  <integer>313</integer>
                  <key>y</key>
                  <integer>14</integer>
                </dict>
                <dict>
                  <key>segmentType</key>
                  <string>curve</string>
                  <key>smooth</key>
                  <true/>
                  <key>x</key>
                  <integer>351</integer>
                  <key>y</key>
                  <integer>57</integer>
                </dict>
                <dict>
                  <key>smooth</key>
                  <false/>
                  <key>x</key>
                  <integer>355</integer>
                  <key>y</key>
                  <integer>61</integer>
                </dict>
                <dict>
                  <key>smooth</key>
                  <false/>
                  <key>x</key>
                  <integer>348</integer>
                  <key>y</key>
                  <integer>68</integer>
                </dict>
                <dict>
                  <key>segmentType</key>
                  <string>curve</string>
                  <key>smooth</key>
                  <true/>
                  <key>x</key>
                  <integer>344</integer>
                  <key>y</key>
                  <integer>64</integer>
                </dict>
                <dict>
                  <key>smooth</key>
                  <false/>
                  <key>x</key>
                  <integer>319</integer>
                  <key>y</key>
                  <integer>38</integer>
                </dict>
                <dict>
                  <key>smooth</key>
                  <false/>
                  <key>x</key>
                  <integer>298</integer>
                  <key>y</key>
                  <integer>26</integer>
                </dict>
                <dict>
                  <key>segmentType</key>
                  <string>curve</string>
                  <key>smooth</key>
                  <true/>
                  <key>x</key>
                  <integer>284</integer>
                  <key>y</key>
                  <integer>26</integer>
                </dict>
                <dict>
                  <key>smooth</key>
                  <false/>
                  <key>x</key>
                  <integer>267</integer>
                  <key>y</key>
                  <integer>26</integer>
                </dict>
                <dict>
                  <key>smooth</key>
                  <false/>
                  <key>x</key>
                  <integer>252</integer>
                  <key>y</key>
                  <integer>34</integer>
                </dict>
                <dict>
                  <key>segmentType</key>
                  <string>curve</string>
                  <key>smooth</key>
                  <true/>
                  <key>x</key>
                  <integer>228</integer>
                  <key>y</key>
                  <integer>77</integer>
                </dict>
                <dict>
                  <key>segmentType</key>
                  <string>line</string>
                  <key>smooth</key>
                  <false/>
                  <key>x</key>
                  <integer>169</integer>
                  <key>y</key>
                  <integer>181</integer>
                </dict>
                <dict>
                  <key>segmentType</key>
                  <string>line</string>
                  <key>smooth</key>
                  <false/>
                  <key>x</key>
                  <integer>95</integer>
                  <key>y</key>
                  <integer>157</integer>
                </dict>
                <dict>
                  <key>smooth</key>
                  <false/>
                  <key>x</key>
                  <integer>124</integer>
                  <key>y</key>
                  <integer>164</integer>
                </dict>
                <dict>
                  <key>smooth</key>
                  <false/>
                  <key>x</key>
                  <integer>132</integer>
                  <key>y</key>
                  <integer>160</integer>
                </dict>
                <dict>
                  <key>segmentType</key>
                  <string>curve</string>
                  <key>smooth</key>
                  <true/>
                  <key>x</key>
                  <integer>145</integer>
                  <key>y</key>
                  <integer>137</integer>
                </dict>
                <dict>
                  <key>segmentType</key>
                  <string>line</string>
                  <key>smooth</key>
                  <true/>
                  <key>x</key>
                  <integer>195</integer>
                  <key>y</key>
                  <integer>50</integer>
                </dict>
              </array>
            </dict>
            <dict>
              <key>points</key>
              <array>
                <dict>
                  <key>smooth</key>
                  <false/>
                  <key>x</key>
                  <integer>128</integer>
                  <key>y</key>
                  <integer>264</integer>
                </dict>
                <dict>
                  <key>smooth</key>
                  <false/>
                  <key>x</key>
                  <integer>182</integer>
                  <key>y</key>
                  <integer>318</integer>
                </dict>
                <dict>
                  <key>segmentType</key>
                  <string>curve</string>
                  <key>smooth</key>
                  <true/>
                  <key>x</key>
                  <integer>243</integer>
                  <key>y</key>
                  <integer>318</integer>
                </dict>
                <dict>
                  <key>smooth</key>
                  <false/>
                  <key>x</key>
                  <integer>262</integer>
                  <key>y</key>
                  <integer>318</integer>
                </dict>
                <dict>
                  <key>smooth</key>
                  <false/>
                  <key>x</key>
                  <integer>274</integer>
                  <key>y</key>
                  <integer>303</integer>
                </dict>
                <dict>
                  <key>segmentType</key>
                  <string>curve</string>
                  <key>smooth</key>
                  <true/>
                  <key>x</key>
                  <integer>268</integer>
                  <key>y</key>
                  <integer>277</integer>
                </dict>
                <dict>
                  <key>smooth</key>
                  <false/>
                  <key>x</key>
                  <integer>256</integer>
                  <key>y</key>
                  <integer>219</integer>
                </dict>
                <dict>
                  <key>smooth</key>
                  <false/>
                  <key>x</key>
                  <integer>210</integer>
                  <key>y</key>
                  <integer>194</integer>
                </dict>
                <dict>
                  <key>segmentType</key>
                  <string>curve</string>
                  <key>smooth</key>
                  <false/>
                  <key>x</key>
                  <integer>95</integer>
                  <key>y</key>
                  <integer>168</integer>
                </dict>
                <dict>
                  <key>segmentType</key>
                  <string>line</string>
                  <key>smooth</key>
                  <false/>
                  <key>x</key>
                  <integer>95</integer>
                  <key>y</key>
                  <integer>157</integer>
                </dict>
                <dict>
                  <key>smooth</key>
                  <false/>
                  <key>x</key>
                  <integer>220</integer>
                  <key>y</key>
                  <integer>186</integer>
                </dict>
                <dict>
                  <key>smooth</key>
                  <false/>
                  <key>x</key>
                  <integer>310</integer>
                  <key>y</key>
                  <integer>238</integer>
                </dict>
                <dict>
                  <key>segmentType</key>
                  <string>curve</string>
                  <key>smooth</key>
                  <true/>
                  <key>x</key>
                  <integer>320</integer>
                  <key>y</key>
                  <integer>290</integer>
                </dict>
                <dict>
                  <key>smooth</key>
                  <false/>
                  <key>x</key>
                  <integer>324</integer>
                  <key>y</key>
                  <integer>306</integer>
                </dict>
                <dict>
                  <key>smooth</key>
                  <false/>
                  <key>x</key>
                  <integer>319</integer>
                  <key>y</key>
                  <integer>341</integer>
                </dict>
                <dict>
                  <key>segmentType</key>
                  <string>curve</string>
                  <key>smooth</key>
                  <true/>
                  <key>x</key>
                  <integer>276</integer>
                  <key>y</key>
                  <integer>341</integer>
                </dict>
                <dict>
                  <key>smooth</key>
                  <false/>
                  <key>x</key>
                  <integer>202</integer>
                  <key>y</key>
                  <integer>341</integer>
                </dict>
                <dict>
                  <key>smooth</key>
                  <false/>
                  <key>x</key>
                  <integer>130</integer>
                  <key>y</key>
                  <integer>284</integer>
                </dict>
                <dict>
                  <key>segmentType</key>
                  <string>curve</string>
                  <key>smooth</key>
                  <false/>
                  <key>x</key>
                  <integer>89</integer>
                  <key>y</key>
                  <integer>208</integer>
                </dict>
                <dict>
                  <key>segmentType</key>
                  <string>line</string>
                  <key>smooth</key>
                  <false/>
                  <key>x</key>
                  <integer>108</integer>
                  <key>y</key>
                  <integer>178</integer>
                </dict>
              </array>
            </dict>
          </array>
          <key>lib</key>
          <dict>
          </dict>
          <key>name</key>
          <string>k</string>
          <key>unicodes</key>
          <array>
          </array>
          <key>width</key>
          <integer>347</integer>
        </dict>
        <key>Bold Italic Apr 26 15, 19:34</key>
        <dict>
          <key>anchors</key>
          <array>
            <dict>
              <key>name</key>
              <string>top</string>
              <key>x</key>
              <integer>161</integer>
              <key>y</key>
              <integer>574</integer>
            </dict>
            <dict>
              <key>name</key>
              <string>bottom</string>
              <key>x</key>
              <integer>148</integer>
              <key>y</key>
              <integer>0</integer>
            </dict>
          </array>
          <key>components</key>
          <array>
          </array>
          <key>contours</key>
          <array>
            <dict>
              <key>points</key>
              <array>
                <dict>
                  <key>smooth</key>
                  <false/>
                  <key>x</key>
                  <integer>246</integer>
                  <key>y</key>
                  <integer>175</integer>
                </dict>
                <dict>
                  <key>smooth</key>
                  <false/>
                  <key>x</key>
                  <integer>331</integer>
                  <key>y</key>
                  <integer>234</integer>
                </dict>
                <dict>
                  <key>segmentType</key>
                  <string>curve</string>
                  <key>smooth</key>
                  <true/>
                  <key>x</key>
                  <integer>340</integer>
                  <key>y</key>
                  <integer>290</integer>
                </dict>
                <dict>
                  <key>smooth</key>
                  <false/>
                  <key>x</key>
                  <integer>343</integer>
                  <key>y</key>
                  <integer>310</integer>
                </dict>
                <dict>
                  <key>smooth</key>
                  <false/>
                  <key>x</key>
                  <integer>337</integer>
                  <key>y</key>
                  <integer>341</integer>
                </dict>
                <dict>
                  <key>segmentType</key>
                  <string>curve</string>
                  <key>smooth</key>
                  <true/>
                  <key>x</key>
                  <integer>283</integer>
                  <key>y</key>
                  <integer>341</integer>
                </dict>
                <dict>
                  <key>smooth</key>
                  <false/>
                  <key>x</key>
                  <integer>209</integer>
                  <key>y</key>
                  <integer>341</integer>
                </dict>
                <dict>
                  <key>smooth</key>
                  <false/>
                  <key>x</key>
                  <integer>130</integer>
                  <key>y</key>
                  <integer>282</integer>
                </dict>
                <dict>
                  <key>segmentType</key>
                  <string>curve</string>
                  <key>smooth</key>
                  <false/>
                  <key>x</key>
                  <integer>89</integer>
                  <key>y</key>
                  <integer>208</integer>
                </dict>
                <dict>
                  <key>segmentType</key>
                  <string>line</string>
                  <key>smooth</key>
                  <false/>
                  <key>x</key>
                  <integer>128</integer>
                  <key>y</key>
                  <integer>178</integer>
                </dict>
                <dict>
                  <key>smooth</key>
                  <false/>
                  <key>x</key>
                  <integer>143</integer>
                  <key>y</key>
                  <integer>255</integer>
                </dict>
                <dict>
                  <key>smooth</key>
                  <false/>
                  <key>x</key>
                  <integer>182</integer>
                  <key>y</key>
                  <integer>304</integer>
                </dict>
                <dict>
                  <key>segmentType</key>
                  <string>curve</string>
                  <key>smooth</key>
                  <true/>
                  <key>x</key>
                  <integer>228</integer>
                  <key>y</key>
                  <integer>304</integer>
                </dict>
                <dict>
                  <key>smooth</key>
                  <false/>
                  <key>x</key>
                  <integer>247</integer>
                  <key>y</key>
                  <integer>304</integer>
                </dict>
                <dict>
                  <key>smooth</key>
                  <false/>
                  <key>x</key>
                  <integer>254</integer>
                  <key>y</key>
                  <integer>290</integer>
                </dict>
                <dict>
                  <key>segmentType</key>
                  <string>curve</string>
                  <key>smooth</key>
                  <true/>
                  <key>x</key>
                  <integer>253</integer>
                  <key>y</key>
                  <integer>277</integer>
                </dict>
                <dict>
                  <key>smooth</key>
                  <false/>
                  <key>x</key>
                  <integer>249</integer>
                  <key>y</key>
                  <integer>215</integer>
                </dict>
                <dict>
                  <key>smooth</key>
                  <false/>
                  <key>x</key>
                  <integer>204</integer>
                  <key>y</key>
                  <integer>183</integer>
                </dict>
                <dict>
                  <key>segmentType</key>
                  <string>curve</string>
                  <key>smooth</key>
                  <false/>
                  <key>x</key>
                  <integer>105</integer>
                  <key>y</key>
                  <integer>163</integer>
                </dict>
                <dict>
                  <key>segmentType</key>
                  <string>line</string>
                  <key>smooth</key>
                  <false/>
                  <key>x</key>
                  <integer>105</integer>
                  <key>y</key>
                  <integer>148</integer>
                </dict>
              </array>
            </dict>
            <dict>
              <key>points</key>
              <array>
                <dict>
                  <key>smooth</key>
                  <false/>
                  <key>x</key>
                  <integer>294</integer>
                  <key>y</key>
                  <integer>-8</integer>
                </dict>
                <dict>
                  <key>smooth</key>
                  <false/>
                  <key>x</key>
                  <integer>323</integer>
                  <key>y</key>
                  <integer>14</integer>
                </dict>
                <dict>
                  <key>segmentType</key>
                  <string>curve</string>
                  <key>smooth</key>
                  <true/>
                  <key>x</key>
                  <integer>361</integer>
                  <key>y</key>
                  <integer>57</integer>
                </dict>
                <dict>
                  <key>smooth</key>
                  <false/>
                  <key>x</key>
                  <integer>365</integer>
                  <key>y</key>
                  <integer>61</integer>
                </dict>
                <dict>
                  <key>smooth</key>
                  <false/>
                  <key>x</key>
                  <integer>358</integer>
                  <key>y</key>
                  <integer>68</integer>
                </dict>
                <dict>
                  <key>segmentType</key>
                  <string>curve</string>
                  <key>smooth</key>
                  <true/>
                  <key>x</key>
                  <integer>354</integer>
                  <key>y</key>
                  <integer>64</integer>
                </dict>
                <dict>
                  <key>smooth</key>
                  <false/>
                  <key>x</key>
                  <integer>335</integer>
                  <key>y</key>
                  <integer>49</integer>
                </dict>
                <dict>
                  <key>smooth</key>
                  <false/>
                  <key>x</key>
                  <integer>319</integer>
                  <key>y</key>
                  <integer>42</integer>
                </dict>
                <dict>
                  <key>segmentType</key>
                  <string>curve</string>
                  <key>smooth</key>
                  <true/>
                  <key>x</key>
                  <integer>308</integer>
                  <key>y</key>
                  <integer>42</integer>
                </dict>
                <dict>
                  <key>smooth</key>
                  <false/>
                  <key>x</key>
                  <integer>292</integer>
                  <key>y</key>
                  <integer>42</integer>
                </dict>
                <dict>
                  <key>smooth</key>
                  <false/>
                  <key>x</key>
                  <integer>279</integer>
                  <key>y</key>
                  <integer>49</integer>
                </dict>
                <dict>
                  <key>segmentType</key>
                  <string>curve</string>
                  <key>smooth</key>
                  <true/>
                  <key>x</key>
                  <integer>255</integer>
                  <key>y</key>
                  <integer>87</integer>
                </dict>
                <dict>
                  <key>segmentType</key>
                  <string>line</string>
                  <key>smooth</key>
                  <false/>
                  <key>x</key>
                  <integer>195</integer>
                  <key>y</key>
                  <integer>183</integer>
                </dict>
                <dict>
                  <key>segmentType</key>
                  <string>line</string>
                  <key>smooth</key>
                  <false/>
                  <key>x</key>
                  <integer>105</integer>
                  <key>y</key>
                  <integer>148</integer>
                </dict>
                <dict>
                  <key>smooth</key>
                  <false/>
                  <key>x</key>
                  <integer>128</integer>
                  <key>y</key>
                  <integer>155</integer>
                </dict>
                <dict>
                  <key>smooth</key>
                  <false/>
                  <key>x</key>
                  <integer>133</integer>
                  <key>y</key>
                  <integer>152</integer>
                </dict>
                <dict>
                  <key>segmentType</key>
                  <string>curve</string>
                  <key>smooth</key>
                  <true/>
                  <key>x</key>
                  <integer>145</integer>
                  <key>y</key>
                  <integer>132</integer>
                </dict>
                <dict>
                  <key>segmentType</key>
                  <string>line</string>
                  <key>smooth</key>
                  <true/>
                  <key>x</key>
                  <integer>195</integer>
                  <key>y</key>
                  <integer>50</integer>
                </dict>
                <dict>
                  <key>smooth</key>
                  <false/>
                  <key>x</key>
                  <integer>222</integer>
                  <key>y</key>
                  <integer>6</integer>
                </dict>
                <dict>
                  <key>smooth</key>
                  <false/>
                  <key>x</key>
                  <integer>241</integer>
                  <key>y</key>
                  <integer>-8</integer>
                </dict>
                <dict>
                  <key>segmentType</key>
                  <string>curve</string>
                  <key>smooth</key>
                  <true/>
                  <key>x</key>
                  <integer>271</integer>
                  <key>y</key>
                  <integer>-8</integer>
                </dict>
              </array>
            </dict>
            <dict>
              <key>points</key>
              <array>
                <dict>
                  <key>smooth</key>
                  <false/>
                  <key>x</key>
                  <integer>81</integer>
                  <key>y</key>
                  <integer>-7</integer>
                </dict>
                <dict>
                  <key>smooth</key>
                  <false/>
                  <key>x</key>
                  <integer>97</integer>
                  <key>y</key>
                  <integer>0</integer>
                </dict>
                <dict>
                  <key>segmentType</key>
                  <string>curve</string>
                  <key>smooth</key>
                  <true/>
                  <key>x</key>
                  <integer>99</integer>
                  <key>y</key>
                  <integer>10</integer>
                </dict>
                <dict>
                  <key>segmentType</key>
                  <string>line</string>
                  <key>smooth</key>
                  <true/>
                  <key>x</key>
                  <integer>206</integer>
                  <key>y</key>
                  <integer>613</integer>
                </dict>
                <dict>
                  <key>smooth</key>
                  <false/>
                  <key>x</key>
                  <integer>206</integer>
                  <key>y</key>
                  <integer>616</integer>
                </dict>
                <dict>
                  <key>smooth</key>
                  <false/>
                  <key>x</key>
                  <integer>201</integer>
                  <key>y</key>
                  <integer>622</integer>
                </dict>
                <dict>
                  <key>segmentType</key>
                  <string>curve</string>
                  <key>smooth</key>
                  <true/>
                  <key>x</key>
                  <integer>196</integer>
                  <key>y</key>
                  <integer>620</integer>
                </dict>
                <dict>
                  <key>segmentType</key>
                  <string>line</string>
                  <key>smooth</key>
                  <true/>
                  <key>x</key>
                  <integer>63</integer>
                  <key>y</key>
                  <integer>555</integer>
                </dict>
                <dict>
                  <key>smooth</key>
                  <false/>
                  <key>x</key>
                  <integer>58</integer>
                  <key>y</key>
                  <integer>553</integer>
                </dict>
                <dict>
                  <key>smooth</key>
                  <false/>
                  <key>x</key>
                  <integer>62</integer>
                  <key>y</key>
                  <integer>543</integer>
                </dict>
                <dict>
                  <key>segmentType</key>
                  <string>curve</string>
                  <key>smooth</key>
                  <true/>
                  <key>x</key>
                  <integer>67</integer>
                  <key>y</key>
                  <integer>545</integer>
                </dict>
                <dict>
                  <key>smooth</key>
                  <false/>
                  <key>x</key>
                  <integer>114</integer>
                  <key>y</key>
                  <integer>567</integer>
                </dict>
                <dict>
                  <key>smooth</key>
                  <false/>
                  <key>x</key>
                  <integer>126</integer>
                  <key>y</key>
                  <integer>558</integer>
                </dict>
                <dict>
                  <key>segmentType</key>
                  <string>curve</string>
                  <key>smooth</key>
                  <true/>
                  <key>x</key>
                  <integer>116</integer>
                  <key>y</key>
                  <integer>504</integer>
                </dict>
                <dict>
                  <key>segmentType</key>
                  <string>line</string>
                  <key>smooth</key>
                  <true/>
                  <key>x</key>
                  <integer>36</integer>
                  <key>y</key>
                  <integer>63</integer>
                </dict>
                <dict>
                  <key>smooth</key>
                  <false/>
                  <key>x</key>
                  <integer>31</integer>
                  <key>y</key>
                  <integer>33</integer>
                </dict>
                <dict>
                  <key>smooth</key>
                  <false/>
                  <key>x</key>
                  <integer>23</integer>
                  <key>y</key>
                  <integer>4</integer>
                </dict>
                <dict>
                  <key>segmentType</key>
                  <string>curve</string>
                  <key>smooth</key>
                  <true/>
                  <key>x</key>
                  <integer>23</integer>
                  <key>y</key>
                  <integer>0</integer>
                </dict>
                <dict>
                  <key>smooth</key>
                  <false/>
                  <key>x</key>
                  <integer>23</integer>
                  <key>y</key>
                  <integer>-3</integer>
                </dict>
                <dict>
                  <key>smooth</key>
                  <false/>
                  <key>x</key>
                  <integer>29</integer>
                  <key>y</key>
                  <integer>-7</integer>
                </dict>
                <dict>
                  <key>segmentType</key>
                  <string>curve</string>
                  <key>smooth</key>
                  <true/>
                  <key>x</key>
                  <integer>51</integer>
                  <key>y</key>
                  <integer>-7</integer>
                </dict>
              </array>
            </dict>
          </array>
          <key>lib</key>
          <dict>
          </dict>
          <key>name</key>
          <string>k</string>
          <key>unicodes</key>
          <array>
          </array>
          <key>width</key>
          <integer>352</integer>
        </dict>
        <key>background</key>
        <dict>
          <key>anchors</key>
          <array>
          </array>
          <key>components</key>
          <array>
          </array>
          <key>contours</key>
          <array>
            <dict>
              <key>points</key>
              <array>
                <dict>
                  <key>segmentType</key>
                  <string>line</string>
                  <key>smooth</key>
                  <false/>
                  <key>x</key>
                  <integer>112</integer>
                  <key>y</key>
                  <integer>178</integer>
                </dict>
                <dict>
                  <key>segmentType</key>
                  <string>line</string>
                  <key>smooth</key>
                  <true/>
                  <key>x</key>
                  <integer>191</integer>
                  <key>y</key>
                  <integer>613</integer>
                </dict>
                <dict>
                  <key>smooth</key>
                  <false/>
                  <key>x</key>
                  <integer>192</integer>
                  <key>y</key>
                  <integer>616</integer>
                </dict>
                <dict>
                  <key>smooth</key>
                  <false/>
                  <key>x</key>
                  <integer>186</integer>
                  <key>y</key>
                  <integer>622</integer>
                </dict>
                <dict>
                  <key>segmentType</key>
                  <string>curve</string>
                  <key>smooth</key>
                  <true/>
                  <key>x</key>
                  <integer>182</integer>
                  <key>y</key>
                  <integer>620</integer>
                </dict>
                <dict>
                  <key>segmentType</key>
                  <string>line</string>
                  <key>smooth</key>
                  <true/>
                  <key>x</key>
                  <integer>77</integer>
                  <key>y</key>
                  <integer>569</integer>
                </dict>
                <dict>
                  <key>smooth</key>
                  <false/>
                  <key>x</key>
                  <integer>72</integer>
                  <key>y</key>
                  <integer>567</integer>
                </dict>
                <dict>
                  <key>smooth</key>
                  <false/>
                  <key>x</key>
                  <integer>76</integer>
                  <key>y</key>
                  <integer>557</integer>
                </dict>
                <dict>
                  <key>segmentType</key>
                  <string>curve</string>
                  <key>smooth</key>
                  <true/>
                  <key>x</key>
                  <integer>81</integer>
                  <key>y</key>
                  <integer>559</integer>
                </dict>
                <dict>
                  <key>smooth</key>
                  <false/>
                  <key>x</key>
                  <integer>134</integer>
                  <key>y</key>
                  <integer>585</integer>
                </dict>
                <dict>
                  <key>smooth</key>
                  <false/>
                  <key>x</key>
                  <integer>149</integer>
                  <key>y</key>
                  <integer>573</integer>
                </dict>
                <dict>
                  <key>segmentType</key>
                  <string>curve</string>
                  <key>smooth</key>
                  <true/>
                  <key>x</key>
                  <integer>142</integer>
                  <key>y</key>
                  <integer>536</integer>
                </dict>
                <dict>
                  <key>segmentType</key>
                  <string>line</string>
                  <key>smooth</key>
                  <true/>
                  <key>x</key>
                  <integer>53</integer>
                  <key>y</key>
                  <integer>63</integer>
                </dict>
                <dict>
                  <key>smooth</key>
                  <false/>
                  <key>x</key>
                  <integer>48</integer>
                  <key>y</key>
                  <integer>33</integer>
                </dict>
                <dict>
                  <key>smooth</key>
                  <false/>
                  <key>x</key>
                  <integer>40</integer>
                  <key>y</key>
                  <integer>2</integer>
                </dict>
                <dict>
                  <key>segmentType</key>
                  <string>curve</string>
                  <key>smooth</key>
                  <true/>
                  <key>x</key>
                  <integer>40</integer>
                  <key>y</key>
                  <integer>-2</integer>
                </dict>
                <dict>
                  <key>smooth</key>
                  <false/>
                  <key>x</key>
                  <integer>40</integer>
                  <key>y</key>
                  <integer>-5</integer>
                </dict>
                <dict>
                  <key>smooth</key>
                  <false/>
                  <key>x</key>
                  <integer>43</integer>
                  <key>y</key>
                  <integer>-7</integer>
                </dict>
                <dict>
                  <key>segmentType</key>
                  <string>curve</string>
                  <key>smooth</key>
                  <true/>
                  <key>x</key>
                  <integer>58</integer>
                  <key>y</key>
                  <integer>-7</integer>
                </dict>
                <dict>
                  <key>smooth</key>
                  <false/>
                  <key>x</key>
                  <integer>71</integer>
                  <key>y</key>
                  <integer>-7</integer>
                </dict>
                <dict>
                  <key>smooth</key>
                  <false/>
                  <key>x</key>
                  <integer>79</integer>
                  <key>y</key>
                  <integer>-2</integer>
                </dict>
                <dict>
                  <key>segmentType</key>
                  <string>curve</string>
                  <key>smooth</key>
                  <true/>
                  <key>x</key>
                  <integer>80</integer>
                  <key>y</key>
                  <integer>5</integer>
                </dict>
              </array>
            </dict>
            <dict>
              <key>points</key>
              <array>
                <dict>
                  <key>smooth</key>
                  <false/>
                  <key>x</key>
                  <integer>224</integer>
                  <key>y</key>
                  <integer>6</integer>
                </dict>
                <dict>
                  <key>smooth</key>
                  <false/>
                  <key>x</key>
                  <integer>239</integer>
                  <key>y</key>
                  <integer>-8</integer>
                </dict>
                <dict>
                  <key>segmentType</key>
                  <string>curve</string>
                  <key>smooth</key>
                  <true/>
                  <key>x</key>
                  <integer>265</integer>
                  <key>y</key>
                  <integer>-8</integer>
                </dict>
                <dict>
                  <key>smooth</key>
                  <false/>
                  <key>x</key>
                  <integer>288</integer>
                  <key>y</key>
                  <integer>-8</integer>
                </dict>
                <dict>
                  <key>smooth</key>
                  <false/>
                  <key>x</key>
                  <integer>317</integer>
                  <key>y</key>
                  <integer>14</integer>
                </dict>
                <dict>
                  <key>segmentType</key>
                  <string>curve</string>
                  <key>smooth</key>
                  <true/>
                  <key>x</key>
                  <integer>355</integer>
                  <key>y</key>
                  <integer>57</integer>
                </dict>
                <dict>
                  <key>smooth</key>
                  <false/>
                  <key>x</key>
                  <integer>359</integer>
                  <key>y</key>
                  <integer>61</integer>
                </dict>
                <dict>
                  <key>smooth</key>
                  <false/>
                  <key>x</key>
                  <integer>352</integer>
                  <key>y</key>
                  <integer>68</integer>
                </dict>
                <dict>
                  <key>segmentType</key>
                  <string>curve</string>
                  <key>smooth</key>
                  <true/>
                  <key>x</key>
                  <integer>348</integer>
                  <key>y</key>
                  <integer>64</integer>
                </dict>
                <dict>
                  <key>smooth</key>
                  <false/>
                  <key>x</key>
                  <integer>323</integer>
                  <key>y</key>
                  <integer>38</integer>
                </dict>
                <dict>
                  <key>smooth</key>
                  <false/>
                  <key>x</key>
                  <integer>302</integer>
                  <key>y</key>
                  <integer>26</integer>
                </dict>
                <dict>
                  <key>segmentType</key>
                  <string>curve</string>
                  <key>smooth</key>
                  <true/>
                  <key>x</key>
                  <integer>288</integer>
                  <key>y</key>
                  <integer>26</integer>
                </dict>
                <dict>
                  <key>smooth</key>
                  <false/>
                  <key>x</key>
                  <integer>271</integer>
                  <key>y</key>
                  <integer>26</integer>
                </dict>
                <dict>
                  <key>smooth</key>
                  <false/>
                  <key>x</key>
                  <integer>256</integer>
                  <key>y</key>
                  <integer>34</integer>
                </dict>
                <dict>
                  <key>segmentType</key>
                  <string>curve</string>
                  <key>smooth</key>
                  <true/>
                  <key>x</key>
                  <integer>232</integer>
                  <key>y</key>
                  <integer>77</integer>
                </dict>
                <dict>
                  <key>segmentType</key>
                  <string>line</string>
                  <key>smooth</key>
                  <false/>
                  <key>x</key>
                  <integer>173</integer>
                  <key>y</key>
                  <integer>181</integer>
                </dict>
                <dict>
                  <key>segmentType</key>
                  <string>line</string>
                  <key>smooth</key>
                  <false/>
                  <key>x</key>
                  <integer>99</integer>
                  <key>y</key>
                  <integer>157</integer>
                </dict>
                <dict>
                  <key>smooth</key>
                  <false/>
                  <key>x</key>
                  <integer>128</integer>
                  <key>y</key>
                  <integer>164</integer>
                </dict>
                <dict>
                  <key>smooth</key>
                  <false/>
                  <key>x</key>
                  <integer>136</integer>
                  <key>y</key>
                  <integer>160</integer>
                </dict>
                <dict>
                  <key>segmentType</key>
                  <string>curve</string>
                  <key>smooth</key>
                  <true/>
                  <key>x</key>
                  <integer>149</integer>
                  <key>y</key>
                  <integer>137</integer>
                </dict>
                <dict>
                  <key>segmentType</key>
                  <string>line</string>
                  <key>smooth</key>
                  <true/>
                  <key>x</key>
                  <integer>199</integer>
                  <key>y</key>
                  <integer>50</integer>
                </dict>
              </array>
            </dict>
            <dict>
              <key>points</key>
              <array>
                <dict>
                  <key>smooth</key>
                  <false/>
                  <key>x</key>
                  <integer>132</integer>
                  <key>y</key>
                  <integer>264</integer>
                </dict>
                <dict>
                  <key>smooth</key>
                  <false/>
                  <key>x</key>
                  <integer>186</integer>
                  <key>y</key>
                  <integer>318</integer>
                </dict>
                <dict>
                  <key>segmentType</key>
                  <string>curve</string>
                  <key>smooth</key>
                  <true/>
                  <key>x</key>
                  <integer>247</integer>
                  <key>y</key>
                  <integer>318</integer>
                </dict>
                <dict>
                  <key>smooth</key>
                  <false/>
                  <key>x</key>
                  <integer>266</integer>
                  <key>y</key>
                  <integer>318</integer>
                </dict>
                <dict>
                  <key>smooth</key>
                  <false/>
                  <key>x</key>
                  <integer>278</integer>
                  <key>y</key>
                  <integer>303</integer>
                </dict>
                <dict>
                  <key>segmentType</key>
                  <string>curve</string>
                  <key>smooth</key>
                  <true/>
                  <key>x</key>
                  <integer>272</integer>
                  <key>y</key>
                  <integer>277</integer>
                </dict>
                <dict>
                  <key>smooth</key>
                  <false/>
                  <key>x</key>
                  <integer>260</integer>
                  <key>y</key>
                  <integer>219</integer>
                </dict>
                <dict>
                  <key>smooth</key>
                  <false/>
                  <key>x</key>
                  <integer>214</integer>
                  <key>y</key>
                  <integer>194</integer>
                </dict>
                <dict>
                  <key>segmentType</key>
                  <string>curve</string>
                  <key>smooth</key>
                  <false/>
                  <key>x</key>
                  <integer>99</integer>
                  <key>y</key>
                  <integer>168</integer>
                </dict>
                <dict>
                  <key>segmentType</key>
                  <string>line</string>
                  <key>smooth</key>
                  <false/>
                  <key>x</key>
                  <integer>99</integer>
                  <key>y</key>
                  <integer>157</integer>
                </dict>
                <dict>
                  <key>smooth</key>
                  <false/>
                  <key>x</key>
                  <integer>224</integer>
                  <key>y</key>
                  <integer>186</integer>
                </dict>
                <dict>
                  <key>smooth</key>
                  <false/>
                  <key>x</key>
                  <integer>314</integer>
                  <key>y</key>
                  <integer>238</integer>
                </dict>
                <dict>
                  <key>segmentType</key>
                  <string>curve</string>
                  <key>smooth</key>
                  <true/>
                  <key>x</key>
                  <integer>324</integer>
                  <key>y</key>
                  <integer>290</integer>
                </dict>
                <dict>
                  <key>smooth</key>
                  <false/>
                  <key>x</key>
                  <integer>328</integer>
                  <key>y</key>
                  <integer>306</integer>
                </dict>
                <dict>
                  <key>smooth</key>
                  <false/>
                  <key>x</key>
                  <integer>323</integer>
                  <key>y</key>
                  <integer>341</integer>
                </dict>
                <dict>
                  <key>segmentType</key>
                  <string>curve</string>
                  <key>smooth</key>
                  <true/>
                  <key>x</key>
                  <integer>280</integer>
                  <key>y</key>
                  <integer>341</integer>
                </dict>
                <dict>
                  <key>smooth</key>
                  <false/>
                  <key>x</key>
                  <integer>206</integer>
                  <key>y</key>
                  <integer>341</integer>
                </dict>
                <dict>
                  <key>smooth</key>
                  <false/>
                  <key>x</key>
                  <integer>134</integer>
                  <key>y</key>
                  <integer>284</integer>
                </dict>
                <dict>
                  <key>segmentType</key>
                  <string>curve</string>
                  <key>smooth</key>
                  <false/>
                  <key>x</key>
                  <integer>93</integer>
                  <key>y</key>
                  <integer>208</integer>
                </dict>
                <dict>
                  <key>segmentType</key>
                  <string>line</string>
                  <key>smooth</key>
                  <false/>
                  <key>x</key>
                  <integer>112</integer>
                  <key>y</key>
                  <integer>178</integer>
                </dict>
              </array>
            </dict>
          </array>
          <key>lib</key>
          <dict>
          </dict>
          <key>name</key>
          <string>k</string>
          <key>unicodes</key>
          <array>
          </array>
          <key>width</key>
          <integer>352</integer>
        </dict>
      </dict>
    </dict>
  </lib>
</glyph>
