<?xml version="1.0" encoding="UTF-8"?>
<glyph name="longs_longs.liga" format="1">
  <advance width="445"/>
  <outline>
    <component base="ssxmaker"/>
    <component base="longs" xOffset="238"/>
  </outline>
  <lib>
    <dict>
      <key>com.schriftgestaltung.Glyphs.layer.leftMetricsKey</key>
      <string>==longs</string>
      <key>com.schriftgestaltung.Glyphs.layer.rightMetricsKey</key>
      <string>==longs</string>
      <key>com.schriftgestaltung.Glyphs.leftMetricsKey</key>
      <string>longs</string>
      <key>com.schriftgestaltung.Glyphs.rightMetricsKey</key>
      <string>longs</string>
      <key>com.typemytype.robofont.layerData</key>
      <dict>
        <key>background</key>
        <dict>
          <key>anchors</key>
          <array>
          </array>
          <key>components</key>
          <array>
            <dict>
              <key>baseGlyph</key>
              <string>ssxmaker</string>
              <key>transformation</key>
              <array>
                <integer>1</integer>
                <integer>0</integer>
                <integer>0</integer>
                <integer>1</integer>
                <integer>0</integer>
                <integer>0</integer>
              </array>
            </dict>
            <dict>
              <key>baseGlyph</key>
              <string>longs_b.liga</string>
              <key>transformation</key>
              <array>
                <integer>1</integer>
                <integer>0</integer>
                <integer>0</integer>
                <integer>1</integer>
                <integer>196</integer>
                <integer>0</integer>
              </array>
            </dict>
          </array>
          <key>contours</key>
          <array>
          </array>
          <key>lib</key>
          <dict>
          </dict>
          <key>name</key>
          <string>longs_longs.liga</string>
          <key>unicodes</key>
          <array>
          </array>
          <key>width</key>
          <integer>445</integer>
        </dict>
      </dict>
    </dict>
  </lib>
</glyph>
