<?xml version="1.0" encoding="UTF-8"?>
<glyph name="numbersign.tf" format="1">
  <advance width="420"/>
  <outline>
    <component base="numbersign" xOffset="29" yOffset="84"/>
  </outline>
  <lib>
    <dict>
      <key>com.typemytype.robofont.layerData</key>
      <dict>
        <key>background</key>
        <dict>
          <key>anchors</key>
          <array>
          </array>
          <key>components</key>
          <array>
          </array>
          <key>contours</key>
          <array>
            <dict>
              <key>points</key>
              <array>
                <dict>
                  <key>segmentType</key>
                  <string>line</string>
                  <key>smooth</key>
                  <true/>
                  <key>x</key>
                  <integer>189</integer>
                  <key>y</key>
                  <integer>407</integer>
                </dict>
                <dict>
                  <key>smooth</key>
                  <false/>
                  <key>x</key>
                  <integer>190</integer>
                  <key>y</key>
                  <integer>412</integer>
                </dict>
                <dict>
                  <key>smooth</key>
                  <false/>
                  <key>x</key>
                  <integer>161</integer>
                  <key>y</key>
                  <integer>417</integer>
                </dict>
                <dict>
                  <key>segmentType</key>
                  <string>curve</string>
                  <key>smooth</key>
                  <true/>
                  <key>x</key>
                  <integer>161</integer>
                  <key>y</key>
                  <integer>412</integer>
                </dict>
                <dict>
                  <key>segmentType</key>
                  <string>line</string>
                  <key>smooth</key>
                  <true/>
                  <key>x</key>
                  <integer>77</integer>
                  <key>y</key>
                  <integer>-64</integer>
                </dict>
                <dict>
                  <key>smooth</key>
                  <false/>
                  <key>x</key>
                  <integer>76</integer>
                  <key>y</key>
                  <integer>-68</integer>
                </dict>
                <dict>
                  <key>smooth</key>
                  <false/>
                  <key>x</key>
                  <integer>105</integer>
                  <key>y</key>
                  <integer>-72</integer>
                </dict>
                <dict>
                  <key>segmentType</key>
                  <string>curve</string>
                  <key>smooth</key>
                  <true/>
                  <key>x</key>
                  <integer>105</integer>
                  <key>y</key>
                  <integer>-67</integer>
                </dict>
              </array>
            </dict>
            <dict>
              <key>points</key>
              <array>
                <dict>
                  <key>segmentType</key>
                  <string>line</string>
                  <key>smooth</key>
                  <true/>
                  <key>x</key>
                  <integer>349</integer>
                  <key>y</key>
                  <integer>407</integer>
                </dict>
                <dict>
                  <key>smooth</key>
                  <false/>
                  <key>x</key>
                  <integer>350</integer>
                  <key>y</key>
                  <integer>412</integer>
                </dict>
                <dict>
                  <key>smooth</key>
                  <false/>
                  <key>x</key>
                  <integer>321</integer>
                  <key>y</key>
                  <integer>417</integer>
                </dict>
                <dict>
                  <key>segmentType</key>
                  <string>curve</string>
                  <key>smooth</key>
                  <true/>
                  <key>x</key>
                  <integer>321</integer>
                  <key>y</key>
                  <integer>412</integer>
                </dict>
                <dict>
                  <key>segmentType</key>
                  <string>line</string>
                  <key>smooth</key>
                  <true/>
                  <key>x</key>
                  <integer>237</integer>
                  <key>y</key>
                  <integer>-64</integer>
                </dict>
                <dict>
                  <key>smooth</key>
                  <false/>
                  <key>x</key>
                  <integer>236</integer>
                  <key>y</key>
                  <integer>-68</integer>
                </dict>
                <dict>
                  <key>smooth</key>
                  <false/>
                  <key>x</key>
                  <integer>265</integer>
                  <key>y</key>
                  <integer>-72</integer>
                </dict>
                <dict>
                  <key>segmentType</key>
                  <string>curve</string>
                  <key>smooth</key>
                  <true/>
                  <key>x</key>
                  <integer>265</integer>
                  <key>y</key>
                  <integer>-67</integer>
                </dict>
              </array>
            </dict>
            <dict>
              <key>points</key>
              <array>
                <dict>
                  <key>segmentType</key>
                  <string>line</string>
                  <key>smooth</key>
                  <true/>
                  <key>x</key>
                  <integer>353</integer>
                  <key>y</key>
                  <integer>66</integer>
                </dict>
                <dict>
                  <key>smooth</key>
                  <false/>
                  <key>x</key>
                  <integer>358</integer>
                  <key>y</key>
                  <integer>66</integer>
                </dict>
                <dict>
                  <key>smooth</key>
                  <false/>
                  <key>x</key>
                  <integer>358</integer>
                  <key>y</key>
                  <integer>98</integer>
                </dict>
                <dict>
                  <key>segmentType</key>
                  <string>curve</string>
                  <key>smooth</key>
                  <true/>
                  <key>x</key>
                  <integer>353</integer>
                  <key>y</key>
                  <integer>98</integer>
                </dict>
                <dict>
                  <key>segmentType</key>
                  <string>line</string>
                  <key>smooth</key>
                  <true/>
                  <key>x</key>
                  <integer>40</integer>
                  <key>y</key>
                  <integer>98</integer>
                </dict>
                <dict>
                  <key>smooth</key>
                  <false/>
                  <key>x</key>
                  <integer>36</integer>
                  <key>y</key>
                  <integer>98</integer>
                </dict>
                <dict>
                  <key>smooth</key>
                  <false/>
                  <key>x</key>
                  <integer>36</integer>
                  <key>y</key>
                  <integer>66</integer>
                </dict>
                <dict>
                  <key>segmentType</key>
                  <string>curve</string>
                  <key>smooth</key>
                  <true/>
                  <key>x</key>
                  <integer>41</integer>
                  <key>y</key>
                  <integer>66</integer>
                </dict>
              </array>
            </dict>
            <dict>
              <key>points</key>
              <array>
                <dict>
                  <key>segmentType</key>
                  <string>line</string>
                  <key>smooth</key>
                  <true/>
                  <key>x</key>
                  <integer>383</integer>
                  <key>y</key>
                  <integer>236</integer>
                </dict>
                <dict>
                  <key>smooth</key>
                  <false/>
                  <key>x</key>
                  <integer>388</integer>
                  <key>y</key>
                  <integer>236</integer>
                </dict>
                <dict>
                  <key>smooth</key>
                  <false/>
                  <key>x</key>
                  <integer>388</integer>
                  <key>y</key>
                  <integer>268</integer>
                </dict>
                <dict>
                  <key>segmentType</key>
                  <string>curve</string>
                  <key>smooth</key>
                  <true/>
                  <key>x</key>
                  <integer>383</integer>
                  <key>y</key>
                  <integer>268</integer>
                </dict>
                <dict>
                  <key>segmentType</key>
                  <string>line</string>
                  <key>smooth</key>
                  <true/>
                  <key>x</key>
                  <integer>70</integer>
                  <key>y</key>
                  <integer>268</integer>
                </dict>
                <dict>
                  <key>smooth</key>
                  <false/>
                  <key>x</key>
                  <integer>66</integer>
                  <key>y</key>
                  <integer>268</integer>
                </dict>
                <dict>
                  <key>smooth</key>
                  <false/>
                  <key>x</key>
                  <integer>66</integer>
                  <key>y</key>
                  <integer>236</integer>
                </dict>
                <dict>
                  <key>segmentType</key>
                  <string>curve</string>
                  <key>smooth</key>
                  <true/>
                  <key>x</key>
                  <integer>71</integer>
                  <key>y</key>
                  <integer>236</integer>
                </dict>
              </array>
            </dict>
          </array>
          <key>lib</key>
          <dict>
          </dict>
          <key>name</key>
          <string>numbersign.tf</string>
          <key>unicodes</key>
          <array>
          </array>
          <key>width</key>
          <integer>420</integer>
        </dict>
      </dict>
    </dict>
  </lib>
</glyph>
