<?xml version="1.0" encoding="UTF-8"?>
<glyph name="otilde" format="1">
  <advance width="349"/>
  <unicode hex="00F5"/>
  <outline>
    <component base="o"/>
    <component base="tilde" xOffset="56"/>
  </outline>
</glyph>
