<?xml version="1.0" encoding="UTF-8"?>
<glyph name="parenleft" format="1">
  <advance width="248"/>
  <unicode hex="0028"/>
  <outline>
    <contour>
      <point x="177" y="-102"/>
      <point x="181" y="-96"/>
      <point x="180" y="-93" type="curve" smooth="yes"/>
      <point x="140" y="11"/>
      <point x="132" y="122"/>
      <point x="156" y="260" type="curve" smooth="yes"/>
      <point x="183" y="420"/>
      <point x="231" y="531"/>
      <point x="306" y="613" type="curve" smooth="yes"/>
      <point x="308" y="616"/>
      <point x="304" y="622"/>
      <point x="301" y="620" type="curve" smooth="yes"/>
      <point x="180" y="558"/>
      <point x="89" y="420"/>
      <point x="61" y="260" type="curve" smooth="yes"/>
      <point x="33" y="99"/>
      <point x="66" y="-38"/>
      <point x="174" y="-100" type="curve" smooth="yes"/>
    </contour>
    <contour>
      <point x="253" y="330" type="move" name="top"/>
    </contour>
  </outline>
  <lib>
    <dict>
      <key>com.typemytype.robofont.layerData</key>
      <dict>
        <key>Bold Italic May 30 15, 10:13</key>
        <dict>
          <key>anchors</key>
          <array>
            <dict>
              <key>name</key>
              <string>top</string>
              <key>x</key>
              <integer>243</integer>
              <key>y</key>
              <integer>330</integer>
            </dict>
          </array>
          <key>components</key>
          <array>
          </array>
          <key>contours</key>
          <array>
            <dict>
              <key>points</key>
              <array>
                <dict>
                  <key>smooth</key>
                  <false/>
                  <key>x</key>
                  <integer>167</integer>
                  <key>y</key>
                  <integer>-102</integer>
                </dict>
                <dict>
                  <key>smooth</key>
                  <false/>
                  <key>x</key>
                  <integer>172</integer>
                  <key>y</key>
                  <integer>-96</integer>
                </dict>
                <dict>
                  <key>segmentType</key>
                  <string>curve</string>
                  <key>smooth</key>
                  <true/>
                  <key>x</key>
                  <integer>170</integer>
                  <key>y</key>
                  <integer>-93</integer>
                </dict>
                <dict>
                  <key>smooth</key>
                  <false/>
                  <key>x</key>
                  <integer>104</integer>
                  <key>y</key>
                  <integer>-11</integer>
                </dict>
                <dict>
                  <key>smooth</key>
                  <false/>
                  <key>x</key>
                  <integer>89</integer>
                  <key>y</key>
                  <integer>106</integer>
                </dict>
                <dict>
                  <key>segmentType</key>
                  <string>curve</string>
                  <key>smooth</key>
                  <true/>
                  <key>x</key>
                  <integer>116</integer>
                  <key>y</key>
                  <integer>260</integer>
                </dict>
                <dict>
                  <key>smooth</key>
                  <false/>
                  <key>x</key>
                  <integer>143</integer>
                  <key>y</key>
                  <integer>414</integer>
                </dict>
                <dict>
                  <key>smooth</key>
                  <false/>
                  <key>x</key>
                  <integer>200</integer>
                  <key>y</key>
                  <integer>531</integer>
                </dict>
                <dict>
                  <key>segmentType</key>
                  <string>curve</string>
                  <key>smooth</key>
                  <true/>
                  <key>x</key>
                  <integer>296</integer>
                  <key>y</key>
                  <integer>613</integer>
                </dict>
                <dict>
                  <key>smooth</key>
                  <false/>
                  <key>x</key>
                  <integer>299</integer>
                  <key>y</key>
                  <integer>615</integer>
                </dict>
                <dict>
                  <key>smooth</key>
                  <false/>
                  <key>x</key>
                  <integer>294</integer>
                  <key>y</key>
                  <integer>622</integer>
                </dict>
                <dict>
                  <key>segmentType</key>
                  <string>curve</string>
                  <key>smooth</key>
                  <true/>
                  <key>x</key>
                  <integer>291</integer>
                  <key>y</key>
                  <integer>620</integer>
                </dict>
                <dict>
                  <key>smooth</key>
                  <false/>
                  <key>x</key>
                  <integer>180</integer>
                  <key>y</key>
                  <integer>558</integer>
                </dict>
                <dict>
                  <key>smooth</key>
                  <false/>
                  <key>x</key>
                  <integer>99</integer>
                  <key>y</key>
                  <integer>420</integer>
                </dict>
                <dict>
                  <key>segmentType</key>
                  <string>curve</string>
                  <key>smooth</key>
                  <true/>
                  <key>x</key>
                  <integer>71</integer>
                  <key>y</key>
                  <integer>260</integer>
                </dict>
                <dict>
                  <key>smooth</key>
                  <false/>
                  <key>x</key>
                  <integer>43</integer>
                  <key>y</key>
                  <integer>100</integer>
                </dict>
                <dict>
                  <key>smooth</key>
                  <false/>
                  <key>x</key>
                  <integer>75</integer>
                  <key>y</key>
                  <integer>-38</integer>
                </dict>
                <dict>
                  <key>segmentType</key>
                  <string>curve</string>
                  <key>smooth</key>
                  <true/>
                  <key>x</key>
                  <integer>164</integer>
                  <key>y</key>
                  <integer>-100</integer>
                </dict>
              </array>
            </dict>
          </array>
          <key>lib</key>
          <dict>
          </dict>
          <key>name</key>
          <string>parenleft</string>
          <key>unicodes</key>
          <array>
          </array>
          <key>width</key>
          <integer>238</integer>
        </dict>
        <key>background</key>
        <dict>
          <key>anchors</key>
          <array>
          </array>
          <key>components</key>
          <array>
          </array>
          <key>contours</key>
          <array>
            <dict>
              <key>points</key>
              <array>
                <dict>
                  <key>smooth</key>
                  <false/>
                  <key>x</key>
                  <integer>177</integer>
                  <key>y</key>
                  <integer>-102</integer>
                </dict>
                <dict>
                  <key>smooth</key>
                  <false/>
                  <key>x</key>
                  <integer>182</integer>
                  <key>y</key>
                  <integer>-96</integer>
                </dict>
                <dict>
                  <key>segmentType</key>
                  <string>curve</string>
                  <key>smooth</key>
                  <true/>
                  <key>x</key>
                  <integer>180</integer>
                  <key>y</key>
                  <integer>-93</integer>
                </dict>
                <dict>
                  <key>smooth</key>
                  <false/>
                  <key>x</key>
                  <integer>114</integer>
                  <key>y</key>
                  <integer>-11</integer>
                </dict>
                <dict>
                  <key>smooth</key>
                  <false/>
                  <key>x</key>
                  <integer>99</integer>
                  <key>y</key>
                  <integer>106</integer>
                </dict>
                <dict>
                  <key>segmentType</key>
                  <string>curve</string>
                  <key>smooth</key>
                  <true/>
                  <key>x</key>
                  <integer>126</integer>
                  <key>y</key>
                  <integer>260</integer>
                </dict>
                <dict>
                  <key>smooth</key>
                  <false/>
                  <key>x</key>
                  <integer>153</integer>
                  <key>y</key>
                  <integer>414</integer>
                </dict>
                <dict>
                  <key>smooth</key>
                  <false/>
                  <key>x</key>
                  <integer>210</integer>
                  <key>y</key>
                  <integer>531</integer>
                </dict>
                <dict>
                  <key>segmentType</key>
                  <string>curve</string>
                  <key>smooth</key>
                  <true/>
                  <key>x</key>
                  <integer>306</integer>
                  <key>y</key>
                  <integer>613</integer>
                </dict>
                <dict>
                  <key>smooth</key>
                  <false/>
                  <key>x</key>
                  <integer>309</integer>
                  <key>y</key>
                  <integer>615</integer>
                </dict>
                <dict>
                  <key>smooth</key>
                  <false/>
                  <key>x</key>
                  <integer>304</integer>
                  <key>y</key>
                  <integer>622</integer>
                </dict>
                <dict>
                  <key>segmentType</key>
                  <string>curve</string>
                  <key>smooth</key>
                  <true/>
                  <key>x</key>
                  <integer>301</integer>
                  <key>y</key>
                  <integer>620</integer>
                </dict>
                <dict>
                  <key>smooth</key>
                  <false/>
                  <key>x</key>
                  <integer>190</integer>
                  <key>y</key>
                  <integer>558</integer>
                </dict>
                <dict>
                  <key>smooth</key>
                  <false/>
                  <key>x</key>
                  <integer>109</integer>
                  <key>y</key>
                  <integer>420</integer>
                </dict>
                <dict>
                  <key>segmentType</key>
                  <string>curve</string>
                  <key>smooth</key>
                  <true/>
                  <key>x</key>
                  <integer>81</integer>
                  <key>y</key>
                  <integer>260</integer>
                </dict>
                <dict>
                  <key>smooth</key>
                  <false/>
                  <key>x</key>
                  <integer>53</integer>
                  <key>y</key>
                  <integer>100</integer>
                </dict>
                <dict>
                  <key>smooth</key>
                  <false/>
                  <key>x</key>
                  <integer>85</integer>
                  <key>y</key>
                  <integer>-38</integer>
                </dict>
                <dict>
                  <key>segmentType</key>
                  <string>curve</string>
                  <key>smooth</key>
                  <true/>
                  <key>x</key>
                  <integer>174</integer>
                  <key>y</key>
                  <integer>-100</integer>
                </dict>
              </array>
            </dict>
          </array>
          <key>lib</key>
          <dict>
          </dict>
          <key>name</key>
          <string>parenleft</string>
          <key>unicodes</key>
          <array>
          </array>
          <key>width</key>
          <integer>248</integer>
        </dict>
      </dict>
    </dict>
  </lib>
</glyph>
