<?xml version="1.0" encoding="UTF-8"?>
<glyph name="Ugrave.ss13" format="1">
  <advance width="530"/>
  <outline>
    <component base="U"/>
    <component base="gravecomb.case.ss13" xOffset="167"/>
  </outline>
</glyph>
