<?xml version="1.0" encoding="UTF-8"?>
<glyph name="b" format="1">
  <advance width="441"/>
  <unicode hex="0062"/>
  <outline>
    <contour>
      <point x="321" y="-11"/>
      <point x="414" y="54"/>
      <point x="414" y="182" type="curve" smooth="yes"/>
      <point x="414" y="289"/>
      <point x="346" y="341"/>
      <point x="272" y="341" type="curve" smooth="yes"/>
      <point x="207" y="341"/>
      <point x="165" y="301"/>
      <point x="130" y="265" type="curve"/>
      <point x="138" y="258" type="line"/>
      <point x="164" y="279"/>
      <point x="197" y="296"/>
      <point x="232" y="296" type="curve" smooth="yes"/>
      <point x="288" y="296"/>
      <point x="326" y="251"/>
      <point x="326" y="149" type="curve" smooth="yes"/>
      <point x="326" y="58"/>
      <point x="301" y="5"/>
      <point x="250" y="5" type="curve" smooth="yes"/>
      <point x="210" y="5"/>
      <point x="168" y="37"/>
      <point x="143" y="112" type="curve"/>
      <point x="94" y="41" type="line"/>
      <point x="132" y="7"/>
      <point x="179" y="-11"/>
      <point x="232" y="-11" type="curve" smooth="yes"/>
    </contour>
    <contour>
      <point x="149" y="48" type="line" smooth="yes"/>
      <point x="149" y="609" type="line" smooth="yes"/>
      <point x="149" y="613"/>
      <point x="141" y="620"/>
      <point x="135" y="620" type="curve" smooth="yes"/>
      <point x="134" y="620"/>
      <point x="133" y="620"/>
      <point x="131" y="619" type="curve" smooth="yes"/>
      <point x="6" y="560" type="line" smooth="yes"/>
      <point x="3" y="559"/>
      <point x="8" y="548"/>
      <point x="12" y="550" type="curve" smooth="yes"/>
      <point x="25" y="556"/>
      <point x="36" y="559"/>
      <point x="44" y="559" type="curve" smooth="yes"/>
      <point x="63" y="559"/>
      <point x="69" y="542"/>
      <point x="69" y="504" type="curve" smooth="yes"/>
      <point x="69" y="88" type="line" smooth="yes"/>
      <point x="69" y="43"/>
      <point x="54" y="17"/>
      <point x="27" y="2" type="curve" smooth="yes"/>
      <point x="23" y="0"/>
      <point x="26" y="-8"/>
      <point x="31" y="-6" type="curve" smooth="yes"/>
    </contour>
  </outline>
  <lib>
    <dict>
      <key>com.schriftgestaltung.Glyphs.rightMetricsKey</key>
      <string>o</string>
      <key>com.typemytype.robofont.layerData</key>
      <dict>
        <key>Bold Jan 19 15, 01:36</key>
        <dict>
          <key>anchors</key>
          <array>
          </array>
          <key>components</key>
          <array>
          </array>
          <key>contours</key>
          <array>
            <dict>
              <key>points</key>
              <array>
                <dict>
                  <key>smooth</key>
                  <false/>
                  <key>x</key>
                  <integer>300</integer>
                  <key>y</key>
                  <integer>-11</integer>
                </dict>
                <dict>
                  <key>smooth</key>
                  <false/>
                  <key>x</key>
                  <integer>396</integer>
                  <key>y</key>
                  <integer>53</integer>
                </dict>
                <dict>
                  <key>segmentType</key>
                  <string>curve</string>
                  <key>smooth</key>
                  <true/>
                  <key>x</key>
                  <integer>397</integer>
                  <key>y</key>
                  <integer>183</integer>
                </dict>
                <dict>
                  <key>smooth</key>
                  <false/>
                  <key>x</key>
                  <integer>396</integer>
                  <key>y</key>
                  <integer>289</integer>
                </dict>
                <dict>
                  <key>smooth</key>
                  <false/>
                  <key>x</key>
                  <integer>332</integer>
                  <key>y</key>
                  <integer>341</integer>
                </dict>
                <dict>
                  <key>segmentType</key>
                  <string>curve</string>
                  <key>smooth</key>
                  <true/>
                  <key>x</key>
                  <integer>261</integer>
                  <key>y</key>
                  <integer>341</integer>
                </dict>
                <dict>
                  <key>smooth</key>
                  <false/>
                  <key>x</key>
                  <integer>187</integer>
                  <key>y</key>
                  <integer>341</integer>
                </dict>
                <dict>
                  <key>smooth</key>
                  <false/>
                  <key>x</key>
                  <integer>137</integer>
                  <key>y</key>
                  <integer>285</integer>
                </dict>
                <dict>
                  <key>segmentType</key>
                  <string>curve</string>
                  <key>smooth</key>
                  <false/>
                  <key>x</key>
                  <integer>101</integer>
                  <key>y</key>
                  <integer>244</integer>
                </dict>
                <dict>
                  <key>segmentType</key>
                  <string>line</string>
                  <key>smooth</key>
                  <false/>
                  <key>x</key>
                  <integer>108</integer>
                  <key>y</key>
                  <integer>238</integer>
                </dict>
                <dict>
                  <key>smooth</key>
                  <false/>
                  <key>x</key>
                  <integer>144</integer>
                  <key>y</key>
                  <integer>279</integer>
                </dict>
                <dict>
                  <key>smooth</key>
                  <false/>
                  <key>x</key>
                  <integer>185</integer>
                  <key>y</key>
                  <integer>317</integer>
                </dict>
                <dict>
                  <key>segmentType</key>
                  <string>curve</string>
                  <key>smooth</key>
                  <true/>
                  <key>x</key>
                  <integer>235</integer>
                  <key>y</key>
                  <integer>317</integer>
                </dict>
                <dict>
                  <key>smooth</key>
                  <false/>
                  <key>x</key>
                  <integer>300</integer>
                  <key>y</key>
                  <integer>317</integer>
                </dict>
                <dict>
                  <key>smooth</key>
                  <false/>
                  <key>x</key>
                  <integer>348</integer>
                  <key>y</key>
                  <integer>262</integer>
                </dict>
                <dict>
                  <key>segmentType</key>
                  <string>curve</string>
                  <key>smooth</key>
                  <true/>
                  <key>x</key>
                  <integer>349</integer>
                  <key>y</key>
                  <integer>156</integer>
                </dict>
                <dict>
                  <key>smooth</key>
                  <false/>
                  <key>x</key>
                  <integer>348</integer>
                  <key>y</key>
                  <integer>57</integer>
                </dict>
                <dict>
                  <key>smooth</key>
                  <false/>
                  <key>x</key>
                  <integer>306</integer>
                  <key>y</key>
                  <integer>5</integer>
                </dict>
                <dict>
                  <key>segmentType</key>
                  <string>curve</string>
                  <key>smooth</key>
                  <true/>
                  <key>x</key>
                  <integer>236</integer>
                  <key>y</key>
                  <integer>5</integer>
                </dict>
                <dict>
                  <key>smooth</key>
                  <false/>
                  <key>x</key>
                  <integer>192</integer>
                  <key>y</key>
                  <integer>5</integer>
                </dict>
                <dict>
                  <key>smooth</key>
                  <false/>
                  <key>x</key>
                  <integer>152</integer>
                  <key>y</key>
                  <integer>22</integer>
                </dict>
                <dict>
                  <key>segmentType</key>
                  <string>curve</string>
                  <key>smooth</key>
                  <false/>
                  <key>x</key>
                  <integer>112</integer>
                  <key>y</key>
                  <integer>73</integer>
                </dict>
                <dict>
                  <key>segmentType</key>
                  <string>line</string>
                  <key>smooth</key>
                  <false/>
                  <key>x</key>
                  <integer>81</integer>
                  <key>y</key>
                  <integer>31</integer>
                </dict>
                <dict>
                  <key>smooth</key>
                  <false/>
                  <key>x</key>
                  <integer>122</integer>
                  <key>y</key>
                  <integer>0</integer>
                </dict>
                <dict>
                  <key>smooth</key>
                  <false/>
                  <key>x</key>
                  <integer>164</integer>
                  <key>y</key>
                  <integer>-11</integer>
                </dict>
                <dict>
                  <key>segmentType</key>
                  <string>curve</string>
                  <key>smooth</key>
                  <true/>
                  <key>x</key>
                  <integer>208</integer>
                  <key>y</key>
                  <integer>-11</integer>
                </dict>
              </array>
            </dict>
            <dict>
              <key>points</key>
              <array>
                <dict>
                  <key>segmentType</key>
                  <string>line</string>
                  <key>smooth</key>
                  <false/>
                  <key>x</key>
                  <integer>120</integer>
                  <key>y</key>
                  <integer>38</integer>
                </dict>
                <dict>
                  <key>segmentType</key>
                  <string>line</string>
                  <key>smooth</key>
                  <true/>
                  <key>x</key>
                  <integer>121</integer>
                  <key>y</key>
                  <integer>614</integer>
                </dict>
                <dict>
                  <key>smooth</key>
                  <false/>
                  <key>x</key>
                  <integer>121</integer>
                  <key>y</key>
                  <integer>617</integer>
                </dict>
                <dict>
                  <key>smooth</key>
                  <false/>
                  <key>x</key>
                  <integer>117</integer>
                  <key>y</key>
                  <integer>622</integer>
                </dict>
                <dict>
                  <key>segmentType</key>
                  <string>curve</string>
                  <key>smooth</key>
                  <true/>
                  <key>x</key>
                  <integer>113</integer>
                  <key>y</key>
                  <integer>620</integer>
                </dict>
                <dict>
                  <key>segmentType</key>
                  <string>line</string>
                  <key>smooth</key>
                  <true/>
                  <key>x</key>
                  <integer>6</integer>
                  <key>y</key>
                  <integer>568</integer>
                </dict>
                <dict>
                  <key>smooth</key>
                  <false/>
                  <key>x</key>
                  <integer>1</integer>
                  <key>y</key>
                  <integer>566</integer>
                </dict>
                <dict>
                  <key>smooth</key>
                  <false/>
                  <key>x</key>
                  <integer>5</integer>
                  <key>y</key>
                  <integer>556</integer>
                </dict>
                <dict>
                  <key>segmentType</key>
                  <string>curve</string>
                  <key>smooth</key>
                  <true/>
                  <key>x</key>
                  <integer>10</integer>
                  <key>y</key>
                  <integer>558</integer>
                </dict>
                <dict>
                  <key>smooth</key>
                  <false/>
                  <key>x</key>
                  <integer>63</integer>
                  <key>y</key>
                  <integer>584</integer>
                </dict>
                <dict>
                  <key>smooth</key>
                  <false/>
                  <key>x</key>
                  <integer>79</integer>
                  <key>y</key>
                  <integer>573</integer>
                </dict>
                <dict>
                  <key>segmentType</key>
                  <string>curve</string>
                  <key>smooth</key>
                  <true/>
                  <key>x</key>
                  <integer>79</integer>
                  <key>y</key>
                  <integer>512</integer>
                </dict>
                <dict>
                  <key>segmentType</key>
                  <string>line</string>
                  <key>smooth</key>
                  <true/>
                  <key>x</key>
                  <integer>78</integer>
                  <key>y</key>
                  <integer>88</integer>
                </dict>
                <dict>
                  <key>smooth</key>
                  <false/>
                  <key>x</key>
                  <integer>78</integer>
                  <key>y</key>
                  <integer>43</integer>
                </dict>
                <dict>
                  <key>smooth</key>
                  <false/>
                  <key>x</key>
                  <integer>61</integer>
                  <key>y</key>
                  <integer>29</integer>
                </dict>
                <dict>
                  <key>segmentType</key>
                  <string>curve</string>
                  <key>smooth</key>
                  <true/>
                  <key>x</key>
                  <integer>27</integer>
                  <key>y</key>
                  <integer>5</integer>
                </dict>
                <dict>
                  <key>smooth</key>
                  <false/>
                  <key>x</key>
                  <integer>23</integer>
                  <key>y</key>
                  <integer>2</integer>
                </dict>
                <dict>
                  <key>smooth</key>
                  <false/>
                  <key>x</key>
                  <integer>26</integer>
                  <key>y</key>
                  <integer>-5</integer>
                </dict>
                <dict>
                  <key>segmentType</key>
                  <string>curve</string>
                  <key>smooth</key>
                  <true/>
                  <key>x</key>
                  <integer>31</integer>
                  <key>y</key>
                  <integer>-3</integer>
                </dict>
              </array>
            </dict>
          </array>
          <key>lib</key>
          <dict>
          </dict>
          <key>name</key>
          <string>b</string>
          <key>unicodes</key>
          <array>
          </array>
          <key>width</key>
          <integer>429</integer>
        </dict>
        <key>background</key>
        <dict>
          <key>anchors</key>
          <array>
          </array>
          <key>components</key>
          <array>
          </array>
          <key>contours</key>
          <array>
            <dict>
              <key>points</key>
              <array>
                <dict>
                  <key>smooth</key>
                  <false/>
                  <key>x</key>
                  <integer>305</integer>
                  <key>y</key>
                  <integer>-11</integer>
                </dict>
                <dict>
                  <key>smooth</key>
                  <false/>
                  <key>x</key>
                  <integer>401</integer>
                  <key>y</key>
                  <integer>53</integer>
                </dict>
                <dict>
                  <key>segmentType</key>
                  <string>curve</string>
                  <key>smooth</key>
                  <true/>
                  <key>x</key>
                  <integer>402</integer>
                  <key>y</key>
                  <integer>183</integer>
                </dict>
                <dict>
                  <key>smooth</key>
                  <false/>
                  <key>x</key>
                  <integer>401</integer>
                  <key>y</key>
                  <integer>289</integer>
                </dict>
                <dict>
                  <key>smooth</key>
                  <false/>
                  <key>x</key>
                  <integer>337</integer>
                  <key>y</key>
                  <integer>341</integer>
                </dict>
                <dict>
                  <key>segmentType</key>
                  <string>curve</string>
                  <key>smooth</key>
                  <true/>
                  <key>x</key>
                  <integer>266</integer>
                  <key>y</key>
                  <integer>341</integer>
                </dict>
                <dict>
                  <key>smooth</key>
                  <false/>
                  <key>x</key>
                  <integer>192</integer>
                  <key>y</key>
                  <integer>341</integer>
                </dict>
                <dict>
                  <key>smooth</key>
                  <false/>
                  <key>x</key>
                  <integer>142</integer>
                  <key>y</key>
                  <integer>285</integer>
                </dict>
                <dict>
                  <key>segmentType</key>
                  <string>curve</string>
                  <key>smooth</key>
                  <false/>
                  <key>x</key>
                  <integer>106</integer>
                  <key>y</key>
                  <integer>244</integer>
                </dict>
                <dict>
                  <key>segmentType</key>
                  <string>line</string>
                  <key>smooth</key>
                  <false/>
                  <key>x</key>
                  <integer>113</integer>
                  <key>y</key>
                  <integer>238</integer>
                </dict>
                <dict>
                  <key>smooth</key>
                  <false/>
                  <key>x</key>
                  <integer>149</integer>
                  <key>y</key>
                  <integer>279</integer>
                </dict>
                <dict>
                  <key>smooth</key>
                  <false/>
                  <key>x</key>
                  <integer>190</integer>
                  <key>y</key>
                  <integer>317</integer>
                </dict>
                <dict>
                  <key>segmentType</key>
                  <string>curve</string>
                  <key>smooth</key>
                  <true/>
                  <key>x</key>
                  <integer>240</integer>
                  <key>y</key>
                  <integer>317</integer>
                </dict>
                <dict>
                  <key>smooth</key>
                  <false/>
                  <key>x</key>
                  <integer>305</integer>
                  <key>y</key>
                  <integer>317</integer>
                </dict>
                <dict>
                  <key>smooth</key>
                  <false/>
                  <key>x</key>
                  <integer>353</integer>
                  <key>y</key>
                  <integer>262</integer>
                </dict>
                <dict>
                  <key>segmentType</key>
                  <string>curve</string>
                  <key>smooth</key>
                  <true/>
                  <key>x</key>
                  <integer>354</integer>
                  <key>y</key>
                  <integer>156</integer>
                </dict>
                <dict>
                  <key>smooth</key>
                  <false/>
                  <key>x</key>
                  <integer>353</integer>
                  <key>y</key>
                  <integer>57</integer>
                </dict>
                <dict>
                  <key>smooth</key>
                  <false/>
                  <key>x</key>
                  <integer>311</integer>
                  <key>y</key>
                  <integer>5</integer>
                </dict>
                <dict>
                  <key>segmentType</key>
                  <string>curve</string>
                  <key>smooth</key>
                  <true/>
                  <key>x</key>
                  <integer>241</integer>
                  <key>y</key>
                  <integer>5</integer>
                </dict>
                <dict>
                  <key>smooth</key>
                  <false/>
                  <key>x</key>
                  <integer>197</integer>
                  <key>y</key>
                  <integer>5</integer>
                </dict>
                <dict>
                  <key>smooth</key>
                  <false/>
                  <key>x</key>
                  <integer>157</integer>
                  <key>y</key>
                  <integer>22</integer>
                </dict>
                <dict>
                  <key>segmentType</key>
                  <string>curve</string>
                  <key>smooth</key>
                  <false/>
                  <key>x</key>
                  <integer>117</integer>
                  <key>y</key>
                  <integer>73</integer>
                </dict>
                <dict>
                  <key>segmentType</key>
                  <string>line</string>
                  <key>smooth</key>
                  <false/>
                  <key>x</key>
                  <integer>86</integer>
                  <key>y</key>
                  <integer>31</integer>
                </dict>
                <dict>
                  <key>smooth</key>
                  <false/>
                  <key>x</key>
                  <integer>127</integer>
                  <key>y</key>
                  <integer>0</integer>
                </dict>
                <dict>
                  <key>smooth</key>
                  <false/>
                  <key>x</key>
                  <integer>169</integer>
                  <key>y</key>
                  <integer>-11</integer>
                </dict>
                <dict>
                  <key>segmentType</key>
                  <string>curve</string>
                  <key>smooth</key>
                  <true/>
                  <key>x</key>
                  <integer>213</integer>
                  <key>y</key>
                  <integer>-11</integer>
                </dict>
              </array>
            </dict>
            <dict>
              <key>points</key>
              <array>
                <dict>
                  <key>segmentType</key>
                  <string>line</string>
                  <key>smooth</key>
                  <false/>
                  <key>x</key>
                  <integer>125</integer>
                  <key>y</key>
                  <integer>38</integer>
                </dict>
                <dict>
                  <key>segmentType</key>
                  <string>line</string>
                  <key>smooth</key>
                  <true/>
                  <key>x</key>
                  <integer>126</integer>
                  <key>y</key>
                  <integer>614</integer>
                </dict>
                <dict>
                  <key>smooth</key>
                  <false/>
                  <key>x</key>
                  <integer>126</integer>
                  <key>y</key>
                  <integer>617</integer>
                </dict>
                <dict>
                  <key>smooth</key>
                  <false/>
                  <key>x</key>
                  <integer>122</integer>
                  <key>y</key>
                  <integer>622</integer>
                </dict>
                <dict>
                  <key>segmentType</key>
                  <string>curve</string>
                  <key>smooth</key>
                  <true/>
                  <key>x</key>
                  <integer>118</integer>
                  <key>y</key>
                  <integer>620</integer>
                </dict>
                <dict>
                  <key>segmentType</key>
                  <string>line</string>
                  <key>smooth</key>
                  <true/>
                  <key>x</key>
                  <integer>11</integer>
                  <key>y</key>
                  <integer>568</integer>
                </dict>
                <dict>
                  <key>smooth</key>
                  <false/>
                  <key>x</key>
                  <integer>6</integer>
                  <key>y</key>
                  <integer>566</integer>
                </dict>
                <dict>
                  <key>smooth</key>
                  <false/>
                  <key>x</key>
                  <integer>10</integer>
                  <key>y</key>
                  <integer>556</integer>
                </dict>
                <dict>
                  <key>segmentType</key>
                  <string>curve</string>
                  <key>smooth</key>
                  <true/>
                  <key>x</key>
                  <integer>15</integer>
                  <key>y</key>
                  <integer>558</integer>
                </dict>
                <dict>
                  <key>smooth</key>
                  <false/>
                  <key>x</key>
                  <integer>68</integer>
                  <key>y</key>
                  <integer>584</integer>
                </dict>
                <dict>
                  <key>smooth</key>
                  <false/>
                  <key>x</key>
                  <integer>84</integer>
                  <key>y</key>
                  <integer>573</integer>
                </dict>
                <dict>
                  <key>segmentType</key>
                  <string>curve</string>
                  <key>smooth</key>
                  <true/>
                  <key>x</key>
                  <integer>84</integer>
                  <key>y</key>
                  <integer>512</integer>
                </dict>
                <dict>
                  <key>segmentType</key>
                  <string>line</string>
                  <key>smooth</key>
                  <true/>
                  <key>x</key>
                  <integer>83</integer>
                  <key>y</key>
                  <integer>88</integer>
                </dict>
                <dict>
                  <key>smooth</key>
                  <false/>
                  <key>x</key>
                  <integer>83</integer>
                  <key>y</key>
                  <integer>43</integer>
                </dict>
                <dict>
                  <key>smooth</key>
                  <false/>
                  <key>x</key>
                  <integer>66</integer>
                  <key>y</key>
                  <integer>29</integer>
                </dict>
                <dict>
                  <key>segmentType</key>
                  <string>curve</string>
                  <key>smooth</key>
                  <true/>
                  <key>x</key>
                  <integer>32</integer>
                  <key>y</key>
                  <integer>5</integer>
                </dict>
                <dict>
                  <key>smooth</key>
                  <false/>
                  <key>x</key>
                  <integer>28</integer>
                  <key>y</key>
                  <integer>2</integer>
                </dict>
                <dict>
                  <key>smooth</key>
                  <false/>
                  <key>x</key>
                  <integer>31</integer>
                  <key>y</key>
                  <integer>-5</integer>
                </dict>
                <dict>
                  <key>segmentType</key>
                  <string>curve</string>
                  <key>smooth</key>
                  <true/>
                  <key>x</key>
                  <integer>36</integer>
                  <key>y</key>
                  <integer>-3</integer>
                </dict>
              </array>
            </dict>
          </array>
          <key>lib</key>
          <dict>
          </dict>
          <key>name</key>
          <string>b</string>
          <key>unicodes</key>
          <array>
          </array>
          <key>width</key>
          <integer>441</integer>
        </dict>
      </dict>
    </dict>
  </lib>
</glyph>
