<?xml version="1.0" encoding="UTF-8"?>
<glyph name="dzhe-cy" format="1">
  <advance width="454"/>
  <unicode hex="045F"/>
  <outline>
    <contour>
      <point x="220" y="-135"/>
      <point x="230" y="-135"/>
      <point x="230" y="-130" type="curve" smooth="yes"/>
      <point x="230" y="-34"/>
      <point x="250" y="0"/>
      <point x="305" y="0" type="curve" smooth="yes"/>
      <point x="426" y="0" type="line" smooth="yes"/>
      <point x="429" y="0"/>
      <point x="429" y="10"/>
      <point x="426" y="10" type="curve" smooth="yes"/>
      <point x="388" y="10"/>
      <point x="380" y="21"/>
      <point x="380" y="69" type="curve" smooth="yes"/>
      <point x="380" y="261" type="line" smooth="yes"/>
      <point x="380" y="310"/>
      <point x="387" y="320"/>
      <point x="427" y="320" type="curve" smooth="yes"/>
      <point x="430" y="320"/>
      <point x="430" y="330"/>
      <point x="427" y="330" type="curve" smooth="yes"/>
      <point x="402" y="330"/>
      <point x="371" y="328"/>
      <point x="339" y="328" type="curve" smooth="yes"/>
      <point x="312" y="328"/>
      <point x="285" y="330"/>
      <point x="264" y="330" type="curve" smooth="yes"/>
      <point x="261" y="330"/>
      <point x="261" y="320"/>
      <point x="264" y="320" type="curve" smooth="yes"/>
      <point x="295" y="320"/>
      <point x="300" y="310"/>
      <point x="300" y="261" type="curve" smooth="yes"/>
      <point x="300" y="71" type="line" smooth="yes"/>
      <point x="300" y="22"/>
      <point x="300" y="21"/>
      <point x="274" y="21" type="curve" smooth="yes"/>
      <point x="178" y="21" type="line" smooth="yes"/>
      <point x="153" y="21"/>
      <point x="153" y="22"/>
      <point x="153" y="69" type="curve" smooth="yes"/>
      <point x="153" y="261" type="line" smooth="yes"/>
      <point x="153" y="310"/>
      <point x="159" y="320"/>
      <point x="190" y="320" type="curve" smooth="yes"/>
      <point x="193" y="320"/>
      <point x="193" y="330"/>
      <point x="190" y="330" type="curve" smooth="yes"/>
      <point x="169" y="330"/>
      <point x="140" y="328"/>
      <point x="112" y="328" type="curve" smooth="yes"/>
      <point x="81" y="328"/>
      <point x="51" y="330"/>
      <point x="27" y="330" type="curve" smooth="yes"/>
      <point x="24" y="330"/>
      <point x="24" y="320"/>
      <point x="27" y="320" type="curve" smooth="yes"/>
      <point x="66" y="320"/>
      <point x="73" y="310"/>
      <point x="73" y="261" type="curve" smooth="yes"/>
      <point x="73" y="71" type="line" smooth="yes"/>
      <point x="73" y="22"/>
      <point x="66" y="10"/>
      <point x="27" y="10" type="curve" smooth="yes"/>
      <point x="24" y="10"/>
      <point x="24" y="0"/>
      <point x="27" y="0" type="curve" smooth="yes"/>
      <point x="148" y="0" type="line" smooth="yes"/>
      <point x="201" y="0"/>
      <point x="220" y="-34"/>
      <point x="220" y="-130" type="curve" smooth="yes"/>
    </contour>
  </outline>
  <lib>
    <dict>
      <key>com.schriftgestaltung.Glyphs.leftMetricsKey</key>
      <string>en-cy</string>
      <key>com.schriftgestaltung.Glyphs.rightMetricsKey</key>
      <string>en-cy</string>
      <key>com.typemytype.robofont.layerData</key>
      <dict>
        <key>background</key>
        <dict>
          <key>anchors</key>
          <array>
          </array>
          <key>components</key>
          <array>
            <dict>
              <key>baseGlyph</key>
              <string>en-cy</string>
              <key>transformation</key>
              <array>
                <integer>1</integer>
                <integer>0</integer>
                <integer>0</integer>
                <integer>1</integer>
                <integer>0</integer>
                <integer>0</integer>
              </array>
            </dict>
          </array>
          <key>contours</key>
          <array>
          </array>
          <key>lib</key>
          <dict>
          </dict>
          <key>name</key>
          <string>dzhe-cy</string>
          <key>unicodes</key>
          <array>
          </array>
          <key>width</key>
          <integer>454</integer>
        </dict>
      </dict>
    </dict>
  </lib>
</glyph>
