<?xml version="1.0" encoding="UTF-8"?>
<glyph name="ereversed-cy.sc.ss12" format="1">
  <advance width="453"/>
  <outline>
    <contour>
      <point x="325" y="-10"/>
      <point x="427" y="79"/>
      <point x="427" y="198" type="curve" smooth="yes"/>
      <point x="427" y="287"/>
      <point x="369" y="410"/>
      <point x="194" y="410" type="curve" smooth="yes"/>
      <point x="155" y="410"/>
      <point x="106" y="404"/>
      <point x="57" y="387" type="curve" smooth="yes"/>
      <point x="47" y="383"/>
      <point x="46" y="381"/>
      <point x="45" y="372" type="curve" smooth="yes"/>
      <point x="38" y="281" type="line" smooth="yes"/>
      <point x="38" y="278"/>
      <point x="46" y="276"/>
      <point x="48" y="280" type="curve" smooth="yes"/>
      <point x="85" y="357"/>
      <point x="121" y="392"/>
      <point x="181" y="392" type="curve" smooth="yes"/>
      <point x="285" y="392"/>
      <point x="326" y="285"/>
      <point x="326" y="185" type="curve" smooth="yes"/>
      <point x="326" y="82"/>
      <point x="283" y="8"/>
      <point x="200" y="8" type="curve" smooth="yes"/>
      <point x="141" y="8"/>
      <point x="98" y="45"/>
      <point x="56" y="118" type="curve" smooth="yes"/>
      <point x="54" y="122"/>
      <point x="46" y="120"/>
      <point x="46" y="117" type="curve" smooth="yes"/>
      <point x="50" y="29" type="line" smooth="yes"/>
      <point x="50" y="20"/>
      <point x="52" y="18"/>
      <point x="60" y="14" type="curve" smooth="yes"/>
      <point x="93" y="-2"/>
      <point x="150" y="-10"/>
      <point x="190" y="-10" type="curve" smooth="yes"/>
    </contour>
    <contour>
      <point x="134" y="266"/>
      <point x="124" y="266"/>
      <point x="124" y="263" type="curve" smooth="yes"/>
      <point x="124" y="243"/>
      <point x="126" y="220"/>
      <point x="126" y="200" type="curve" smooth="yes"/>
      <point x="126" y="186"/>
      <point x="125" y="165"/>
      <point x="125" y="142" type="curve" smooth="yes"/>
      <point x="125" y="139"/>
      <point x="135" y="139"/>
      <point x="135" y="142" type="curve" smooth="yes"/>
      <point x="135" y="171"/>
      <point x="153" y="189"/>
      <point x="205" y="189" type="curve" smooth="yes"/>
      <point x="355" y="189" type="line"/>
      <point x="355" y="211" type="line"/>
      <point x="208" y="211" type="line" smooth="yes"/>
      <point x="153" y="211"/>
      <point x="134" y="226"/>
      <point x="134" y="263" type="curve" smooth="yes"/>
    </contour>
    <contour>
      <point x="186" y="330" type="move" name="top"/>
    </contour>
    <contour>
      <point x="241" y="70" type="move" name="bottom"/>
    </contour>
  </outline>
  <lib>
    <dict>
      <key>com.schriftgestaltung.Glyphs.leftMetricsKey</key>
      <string>=|e-cy.sc</string>
      <key>com.schriftgestaltung.Glyphs.rightMetricsKey</key>
      <string>o.sc</string>
      <key>com.typemytype.robofont.layerData</key>
      <dict>
        <key>background</key>
        <dict>
          <key>anchors</key>
          <array>
          </array>
          <key>components</key>
          <array>
          </array>
          <key>contours</key>
          <array>
            <dict>
              <key>points</key>
              <array>
                <dict>
                  <key>smooth</key>
                  <false/>
                  <key>x</key>
                  <integer>199</integer>
                  <key>y</key>
                  <integer>185</integer>
                </dict>
                <dict>
                  <key>smooth</key>
                  <false/>
                  <key>x</key>
                  <integer>269</integer>
                  <key>y</key>
                  <integer>190</integer>
                </dict>
                <dict>
                  <key>segmentType</key>
                  <string>curve</string>
                  <key>smooth</key>
                  <false/>
                  <key>x</key>
                  <integer>355</integer>
                  <key>y</key>
                  <integer>190</integer>
                </dict>
                <dict>
                  <key>segmentType</key>
                  <string>line</string>
                  <key>smooth</key>
                  <false/>
                  <key>x</key>
                  <integer>355</integer>
                  <key>y</key>
                  <integer>212</integer>
                </dict>
                <dict>
                  <key>smooth</key>
                  <false/>
                  <key>x</key>
                  <integer>269</integer>
                  <key>y</key>
                  <integer>212</integer>
                </dict>
                <dict>
                  <key>smooth</key>
                  <false/>
                  <key>x</key>
                  <integer>200</integer>
                  <key>y</key>
                  <integer>215</integer>
                </dict>
                <dict>
                  <key>segmentType</key>
                  <string>curve</string>
                  <key>smooth</key>
                  <true/>
                  <key>x</key>
                  <integer>132</integer>
                  <key>y</key>
                  <integer>223</integer>
                </dict>
                <dict>
                  <key>smooth</key>
                  <false/>
                  <key>x</key>
                  <integer>120</integer>
                  <key>y</key>
                  <integer>224</integer>
                </dict>
                <dict>
                  <key>smooth</key>
                  <false/>
                  <key>x</key>
                  <integer>121</integer>
                  <key>y</key>
                  <integer>172</integer>
                </dict>
                <dict>
                  <key>segmentType</key>
                  <string>curve</string>
                  <key>smooth</key>
                  <true/>
                  <key>x</key>
                  <integer>133</integer>
                  <key>y</key>
                  <integer>174</integer>
                </dict>
              </array>
            </dict>
          </array>
          <key>lib</key>
          <dict>
          </dict>
          <key>name</key>
          <string>ereversed-cy.sc.ss12</string>
          <key>unicodes</key>
          <array>
          </array>
          <key>width</key>
          <integer>453</integer>
        </dict>
      </dict>
    </dict>
  </lib>
</glyph>
