<?xml version="1.0" encoding="UTF-8"?>
<glyph name="F" format="1">
  <advance width="446"/>
  <unicode hex="0046"/>
  <outline>
    <contour>
      <point x="59" y="0"/>
      <point x="99" y="2"/>
      <point x="140" y="2" type="curve" smooth="yes"/>
      <point x="201" y="2"/>
      <point x="244" y="0"/>
      <point x="282" y="0" type="curve" smooth="yes"/>
      <point x="285" y="0"/>
      <point x="285" y="10"/>
      <point x="282" y="10" type="curve" smooth="yes"/>
      <point x="204" y="10"/>
      <point x="191" y="21"/>
      <point x="191" y="73" type="curve" smooth="yes"/>
      <point x="191" y="464" type="line" smooth="yes"/>
      <point x="191" y="495"/>
      <point x="206" y="510"/>
      <point x="240" y="510" type="curve" smooth="yes"/>
      <point x="266" y="510" type="line" smooth="yes"/>
      <point x="337" y="510"/>
      <point x="379" y="479"/>
      <point x="398" y="412" type="curve" smooth="yes"/>
      <point x="399" y="409"/>
      <point x="408" y="410"/>
      <point x="408" y="413" type="curve" smooth="yes"/>
      <point x="406" y="527" type="line" smooth="yes"/>
      <point x="406" y="532"/>
      <point x="404" y="534"/>
      <point x="398" y="534" type="curve" smooth="yes"/>
      <point x="35" y="534" type="line" smooth="yes"/>
      <point x="32" y="534"/>
      <point x="32" y="524"/>
      <point x="35" y="524" type="curve" smooth="yes"/>
      <point x="87" y="524"/>
      <point x="96" y="514"/>
      <point x="96" y="465" type="curve" smooth="yes"/>
      <point x="96" y="69" type="line" smooth="yes"/>
      <point x="96" y="20"/>
      <point x="86" y="10"/>
      <point x="29" y="10" type="curve" smooth="yes"/>
      <point x="26" y="10"/>
      <point x="26" y="0"/>
      <point x="29" y="0" type="curve" smooth="yes"/>
    </contour>
    <contour>
      <point x="355" y="178"/>
      <point x="365" y="178"/>
      <point x="365" y="181" type="curve" smooth="yes"/>
      <point x="365" y="213"/>
      <point x="363" y="239"/>
      <point x="363" y="268" type="curve" smooth="yes"/>
      <point x="363" y="291"/>
      <point x="364" y="307"/>
      <point x="364" y="345" type="curve" smooth="yes"/>
      <point x="364" y="348"/>
      <point x="354" y="348"/>
      <point x="354" y="345" type="curve" smooth="yes"/>
      <point x="354" y="305"/>
      <point x="319" y="280"/>
      <point x="252" y="280" type="curve" smooth="yes"/>
      <point x="145" y="280" type="line"/>
      <point x="145" y="256" type="line" smooth="yes"/>
      <point x="251" y="256" type="line" smooth="yes"/>
      <point x="319" y="256"/>
      <point x="355" y="227"/>
      <point x="355" y="181" type="curve" smooth="yes"/>
    </contour>
  </outline>
  <lib>
    <dict>
      <key>com.typemytype.robofont.layerData</key>
      <dict>
        <key>Bold Jan 28 15, 10:13</key>
        <dict>
          <key>anchors</key>
          <array>
          </array>
          <key>components</key>
          <array>
          </array>
          <key>contours</key>
          <array>
            <dict>
              <key>points</key>
              <array>
                <dict>
                  <key>smooth</key>
                  <false/>
                  <key>x</key>
                  <integer>333</integer>
                  <key>y</key>
                  <integer>188</integer>
                </dict>
                <dict>
                  <key>smooth</key>
                  <false/>
                  <key>x</key>
                  <integer>343</integer>
                  <key>y</key>
                  <integer>188</integer>
                </dict>
                <dict>
                  <key>segmentType</key>
                  <string>curve</string>
                  <key>smooth</key>
                  <true/>
                  <key>x</key>
                  <integer>343</integer>
                  <key>y</key>
                  <integer>191</integer>
                </dict>
                <dict>
                  <key>smooth</key>
                  <false/>
                  <key>x</key>
                  <integer>343</integer>
                  <key>y</key>
                  <integer>219</integer>
                </dict>
                <dict>
                  <key>smooth</key>
                  <false/>
                  <key>x</key>
                  <integer>341</integer>
                  <key>y</key>
                  <integer>242</integer>
                </dict>
                <dict>
                  <key>segmentType</key>
                  <string>curve</string>
                  <key>smooth</key>
                  <true/>
                  <key>x</key>
                  <integer>341</integer>
                  <key>y</key>
                  <integer>268</integer>
                </dict>
                <dict>
                  <key>smooth</key>
                  <false/>
                  <key>x</key>
                  <integer>341</integer>
                  <key>y</key>
                  <integer>288</integer>
                </dict>
                <dict>
                  <key>smooth</key>
                  <false/>
                  <key>x</key>
                  <integer>342</integer>
                  <key>y</key>
                  <integer>302</integer>
                </dict>
                <dict>
                  <key>segmentType</key>
                  <string>curve</string>
                  <key>smooth</key>
                  <true/>
                  <key>x</key>
                  <integer>342</integer>
                  <key>y</key>
                  <integer>335</integer>
                </dict>
                <dict>
                  <key>smooth</key>
                  <false/>
                  <key>x</key>
                  <integer>342</integer>
                  <key>y</key>
                  <integer>338</integer>
                </dict>
                <dict>
                  <key>smooth</key>
                  <false/>
                  <key>x</key>
                  <integer>332</integer>
                  <key>y</key>
                  <integer>338</integer>
                </dict>
                <dict>
                  <key>segmentType</key>
                  <string>curve</string>
                  <key>smooth</key>
                  <true/>
                  <key>x</key>
                  <integer>332</integer>
                  <key>y</key>
                  <integer>335</integer>
                </dict>
                <dict>
                  <key>smooth</key>
                  <false/>
                  <key>x</key>
                  <integer>332</integer>
                  <key>y</key>
                  <integer>292</integer>
                </dict>
                <dict>
                  <key>smooth</key>
                  <false/>
                  <key>x</key>
                  <integer>311</integer>
                  <key>y</key>
                  <integer>276</integer>
                </dict>
                <dict>
                  <key>segmentType</key>
                  <string>curve</string>
                  <key>smooth</key>
                  <true/>
                  <key>x</key>
                  <integer>252</integer>
                  <key>y</key>
                  <integer>276</integer>
                </dict>
                <dict>
                  <key>segmentType</key>
                  <string>line</string>
                  <key>smooth</key>
                  <false/>
                  <key>x</key>
                  <integer>138</integer>
                  <key>y</key>
                  <integer>276</integer>
                </dict>
                <dict>
                  <key>segmentType</key>
                  <string>line</string>
                  <key>smooth</key>
                  <true/>
                  <key>x</key>
                  <integer>138</integer>
                  <key>y</key>
                  <integer>260</integer>
                </dict>
                <dict>
                  <key>segmentType</key>
                  <string>line</string>
                  <key>smooth</key>
                  <true/>
                  <key>x</key>
                  <integer>249</integer>
                  <key>y</key>
                  <integer>260</integer>
                </dict>
                <dict>
                  <key>smooth</key>
                  <false/>
                  <key>x</key>
                  <integer>311</integer>
                  <key>y</key>
                  <integer>260</integer>
                </dict>
                <dict>
                  <key>smooth</key>
                  <false/>
                  <key>x</key>
                  <integer>333</integer>
                  <key>y</key>
                  <integer>242</integer>
                </dict>
                <dict>
                  <key>segmentType</key>
                  <string>curve</string>
                  <key>smooth</key>
                  <true/>
                  <key>x</key>
                  <integer>333</integer>
                  <key>y</key>
                  <integer>191</integer>
                </dict>
              </array>
            </dict>
            <dict>
              <key>points</key>
              <array>
                <dict>
                  <key>segmentType</key>
                  <string>line</string>
                  <key>smooth</key>
                  <true/>
                  <key>x</key>
                  <integer>159</integer>
                  <key>y</key>
                  <integer>464</integer>
                </dict>
                <dict>
                  <key>smooth</key>
                  <false/>
                  <key>x</key>
                  <integer>159</integer>
                  <key>y</key>
                  <integer>513</integer>
                </dict>
                <dict>
                  <key>smooth</key>
                  <false/>
                  <key>x</key>
                  <integer>170</integer>
                  <key>y</key>
                  <integer>522</integer>
                </dict>
                <dict>
                  <key>segmentType</key>
                  <string>curve</string>
                  <key>smooth</key>
                  <true/>
                  <key>x</key>
                  <integer>233</integer>
                  <key>y</key>
                  <integer>522</integer>
                </dict>
                <dict>
                  <key>segmentType</key>
                  <string>line</string>
                  <key>smooth</key>
                  <true/>
                  <key>x</key>
                  <integer>292</integer>
                  <key>y</key>
                  <integer>522</integer>
                </dict>
                <dict>
                  <key>smooth</key>
                  <false/>
                  <key>x</key>
                  <integer>342</integer>
                  <key>y</key>
                  <integer>522</integer>
                </dict>
                <dict>
                  <key>smooth</key>
                  <false/>
                  <key>x</key>
                  <integer>376</integer>
                  <key>y</key>
                  <integer>482</integer>
                </dict>
                <dict>
                  <key>segmentType</key>
                  <string>curve</string>
                  <key>smooth</key>
                  <true/>
                  <key>x</key>
                  <integer>376</integer>
                  <key>y</key>
                  <integer>423</integer>
                </dict>
                <dict>
                  <key>smooth</key>
                  <false/>
                  <key>x</key>
                  <integer>376</integer>
                  <key>y</key>
                  <integer>420</integer>
                </dict>
                <dict>
                  <key>smooth</key>
                  <false/>
                  <key>x</key>
                  <integer>386</integer>
                  <key>y</key>
                  <integer>420</integer>
                </dict>
                <dict>
                  <key>segmentType</key>
                  <string>curve</string>
                  <key>smooth</key>
                  <true/>
                  <key>x</key>
                  <integer>386</integer>
                  <key>y</key>
                  <integer>423</integer>
                </dict>
                <dict>
                  <key>smooth</key>
                  <false/>
                  <key>x</key>
                  <integer>386</integer>
                  <key>y</key>
                  <integer>447</integer>
                </dict>
                <dict>
                  <key>smooth</key>
                  <false/>
                  <key>x</key>
                  <integer>384</integer>
                  <key>y</key>
                  <integer>496</integer>
                </dict>
                <dict>
                  <key>segmentType</key>
                  <string>curve</string>
                  <key>smooth</key>
                  <true/>
                  <key>x</key>
                  <integer>384</integer>
                  <key>y</key>
                  <integer>527</integer>
                </dict>
                <dict>
                  <key>smooth</key>
                  <false/>
                  <key>x</key>
                  <integer>384</integer>
                  <key>y</key>
                  <integer>532</integer>
                </dict>
                <dict>
                  <key>smooth</key>
                  <false/>
                  <key>x</key>
                  <integer>382</integer>
                  <key>y</key>
                  <integer>534</integer>
                </dict>
                <dict>
                  <key>segmentType</key>
                  <string>curve</string>
                  <key>smooth</key>
                  <true/>
                  <key>x</key>
                  <integer>376</integer>
                  <key>y</key>
                  <integer>534</integer>
                </dict>
                <dict>
                  <key>segmentType</key>
                  <string>line</string>
                  <key>smooth</key>
                  <true/>
                  <key>x</key>
                  <integer>38</integer>
                  <key>y</key>
                  <integer>534</integer>
                </dict>
                <dict>
                  <key>smooth</key>
                  <false/>
                  <key>x</key>
                  <integer>35</integer>
                  <key>y</key>
                  <integer>534</integer>
                </dict>
                <dict>
                  <key>smooth</key>
                  <false/>
                  <key>x</key>
                  <integer>35</integer>
                  <key>y</key>
                  <integer>524</integer>
                </dict>
                <dict>
                  <key>segmentType</key>
                  <string>curve</string>
                  <key>smooth</key>
                  <true/>
                  <key>x</key>
                  <integer>38</integer>
                  <key>y</key>
                  <integer>524</integer>
                </dict>
                <dict>
                  <key>smooth</key>
                  <false/>
                  <key>x</key>
                  <integer>103</integer>
                  <key>y</key>
                  <integer>524</integer>
                </dict>
                <dict>
                  <key>smooth</key>
                  <false/>
                  <key>x</key>
                  <integer>114</integer>
                  <key>y</key>
                  <integer>514</integer>
                </dict>
                <dict>
                  <key>segmentType</key>
                  <string>curve</string>
                  <key>smooth</key>
                  <true/>
                  <key>x</key>
                  <integer>114</integer>
                  <key>y</key>
                  <integer>465</integer>
                </dict>
                <dict>
                  <key>segmentType</key>
                  <string>line</string>
                  <key>smooth</key>
                  <true/>
                  <key>x</key>
                  <integer>114</integer>
                  <key>y</key>
                  <integer>69</integer>
                </dict>
                <dict>
                  <key>smooth</key>
                  <false/>
                  <key>x</key>
                  <integer>114</integer>
                  <key>y</key>
                  <integer>20</integer>
                </dict>
                <dict>
                  <key>smooth</key>
                  <false/>
                  <key>x</key>
                  <integer>103</integer>
                  <key>y</key>
                  <integer>10</integer>
                </dict>
                <dict>
                  <key>segmentType</key>
                  <string>curve</string>
                  <key>smooth</key>
                  <true/>
                  <key>x</key>
                  <integer>38</integer>
                  <key>y</key>
                  <integer>10</integer>
                </dict>
                <dict>
                  <key>smooth</key>
                  <false/>
                  <key>x</key>
                  <integer>35</integer>
                  <key>y</key>
                  <integer>10</integer>
                </dict>
                <dict>
                  <key>smooth</key>
                  <false/>
                  <key>x</key>
                  <integer>35</integer>
                  <key>y</key>
                  <integer>0</integer>
                </dict>
                <dict>
                  <key>segmentType</key>
                  <string>curve</string>
                  <key>smooth</key>
                  <true/>
                  <key>x</key>
                  <integer>38</integer>
                  <key>y</key>
                  <integer>0</integer>
                </dict>
                <dict>
                  <key>smooth</key>
                  <false/>
                  <key>x</key>
                  <integer>65</integer>
                  <key>y</key>
                  <integer>0</integer>
                </dict>
                <dict>
                  <key>smooth</key>
                  <false/>
                  <key>x</key>
                  <integer>100</integer>
                  <key>y</key>
                  <integer>2</integer>
                </dict>
                <dict>
                  <key>segmentType</key>
                  <string>curve</string>
                  <key>smooth</key>
                  <true/>
                  <key>x</key>
                  <integer>137</integer>
                  <key>y</key>
                  <integer>2</integer>
                </dict>
                <dict>
                  <key>smooth</key>
                  <false/>
                  <key>x</key>
                  <integer>187</integer>
                  <key>y</key>
                  <integer>2</integer>
                </dict>
                <dict>
                  <key>smooth</key>
                  <false/>
                  <key>x</key>
                  <integer>229</integer>
                  <key>y</key>
                  <integer>0</integer>
                </dict>
                <dict>
                  <key>segmentType</key>
                  <string>curve</string>
                  <key>smooth</key>
                  <true/>
                  <key>x</key>
                  <integer>266</integer>
                  <key>y</key>
                  <integer>0</integer>
                </dict>
                <dict>
                  <key>smooth</key>
                  <false/>
                  <key>x</key>
                  <integer>269</integer>
                  <key>y</key>
                  <integer>0</integer>
                </dict>
                <dict>
                  <key>smooth</key>
                  <false/>
                  <key>x</key>
                  <integer>269</integer>
                  <key>y</key>
                  <integer>10</integer>
                </dict>
                <dict>
                  <key>segmentType</key>
                  <string>curve</string>
                  <key>smooth</key>
                  <true/>
                  <key>x</key>
                  <integer>266</integer>
                  <key>y</key>
                  <integer>10</integer>
                </dict>
                <dict>
                  <key>smooth</key>
                  <false/>
                  <key>x</key>
                  <integer>173</integer>
                  <key>y</key>
                  <integer>10</integer>
                </dict>
                <dict>
                  <key>smooth</key>
                  <false/>
                  <key>x</key>
                  <integer>159</integer>
                  <key>y</key>
                  <integer>21</integer>
                </dict>
                <dict>
                  <key>segmentType</key>
                  <string>curve</string>
                  <key>smooth</key>
                  <true/>
                  <key>x</key>
                  <integer>159</integer>
                  <key>y</key>
                  <integer>73</integer>
                </dict>
              </array>
            </dict>
          </array>
          <key>lib</key>
          <dict>
          </dict>
          <key>name</key>
          <string>F</string>
          <key>unicodes</key>
          <array>
          </array>
          <key>width</key>
          <integer>433</integer>
        </dict>
        <key>background</key>
        <dict>
          <key>anchors</key>
          <array>
          </array>
          <key>components</key>
          <array>
          </array>
          <key>contours</key>
          <array>
            <dict>
              <key>points</key>
              <array>
                <dict>
                  <key>smooth</key>
                  <false/>
                  <key>x</key>
                  <integer>333</integer>
                  <key>y</key>
                  <integer>188</integer>
                </dict>
                <dict>
                  <key>smooth</key>
                  <false/>
                  <key>x</key>
                  <integer>343</integer>
                  <key>y</key>
                  <integer>188</integer>
                </dict>
                <dict>
                  <key>segmentType</key>
                  <string>curve</string>
                  <key>smooth</key>
                  <true/>
                  <key>x</key>
                  <integer>343</integer>
                  <key>y</key>
                  <integer>191</integer>
                </dict>
                <dict>
                  <key>smooth</key>
                  <false/>
                  <key>x</key>
                  <integer>343</integer>
                  <key>y</key>
                  <integer>219</integer>
                </dict>
                <dict>
                  <key>smooth</key>
                  <false/>
                  <key>x</key>
                  <integer>341</integer>
                  <key>y</key>
                  <integer>242</integer>
                </dict>
                <dict>
                  <key>segmentType</key>
                  <string>curve</string>
                  <key>smooth</key>
                  <true/>
                  <key>x</key>
                  <integer>341</integer>
                  <key>y</key>
                  <integer>268</integer>
                </dict>
                <dict>
                  <key>smooth</key>
                  <false/>
                  <key>x</key>
                  <integer>341</integer>
                  <key>y</key>
                  <integer>288</integer>
                </dict>
                <dict>
                  <key>smooth</key>
                  <false/>
                  <key>x</key>
                  <integer>342</integer>
                  <key>y</key>
                  <integer>302</integer>
                </dict>
                <dict>
                  <key>segmentType</key>
                  <string>curve</string>
                  <key>smooth</key>
                  <true/>
                  <key>x</key>
                  <integer>342</integer>
                  <key>y</key>
                  <integer>335</integer>
                </dict>
                <dict>
                  <key>smooth</key>
                  <false/>
                  <key>x</key>
                  <integer>342</integer>
                  <key>y</key>
                  <integer>338</integer>
                </dict>
                <dict>
                  <key>smooth</key>
                  <false/>
                  <key>x</key>
                  <integer>332</integer>
                  <key>y</key>
                  <integer>338</integer>
                </dict>
                <dict>
                  <key>segmentType</key>
                  <string>curve</string>
                  <key>smooth</key>
                  <true/>
                  <key>x</key>
                  <integer>332</integer>
                  <key>y</key>
                  <integer>335</integer>
                </dict>
                <dict>
                  <key>smooth</key>
                  <false/>
                  <key>x</key>
                  <integer>332</integer>
                  <key>y</key>
                  <integer>292</integer>
                </dict>
                <dict>
                  <key>smooth</key>
                  <false/>
                  <key>x</key>
                  <integer>311</integer>
                  <key>y</key>
                  <integer>276</integer>
                </dict>
                <dict>
                  <key>segmentType</key>
                  <string>curve</string>
                  <key>smooth</key>
                  <true/>
                  <key>x</key>
                  <integer>252</integer>
                  <key>y</key>
                  <integer>276</integer>
                </dict>
                <dict>
                  <key>segmentType</key>
                  <string>line</string>
                  <key>smooth</key>
                  <false/>
                  <key>x</key>
                  <integer>138</integer>
                  <key>y</key>
                  <integer>276</integer>
                </dict>
                <dict>
                  <key>segmentType</key>
                  <string>line</string>
                  <key>smooth</key>
                  <true/>
                  <key>x</key>
                  <integer>138</integer>
                  <key>y</key>
                  <integer>260</integer>
                </dict>
                <dict>
                  <key>segmentType</key>
                  <string>line</string>
                  <key>smooth</key>
                  <true/>
                  <key>x</key>
                  <integer>249</integer>
                  <key>y</key>
                  <integer>260</integer>
                </dict>
                <dict>
                  <key>smooth</key>
                  <false/>
                  <key>x</key>
                  <integer>311</integer>
                  <key>y</key>
                  <integer>260</integer>
                </dict>
                <dict>
                  <key>smooth</key>
                  <false/>
                  <key>x</key>
                  <integer>333</integer>
                  <key>y</key>
                  <integer>242</integer>
                </dict>
                <dict>
                  <key>segmentType</key>
                  <string>curve</string>
                  <key>smooth</key>
                  <true/>
                  <key>x</key>
                  <integer>333</integer>
                  <key>y</key>
                  <integer>191</integer>
                </dict>
              </array>
            </dict>
            <dict>
              <key>points</key>
              <array>
                <dict>
                  <key>segmentType</key>
                  <string>line</string>
                  <key>smooth</key>
                  <true/>
                  <key>x</key>
                  <integer>159</integer>
                  <key>y</key>
                  <integer>464</integer>
                </dict>
                <dict>
                  <key>smooth</key>
                  <false/>
                  <key>x</key>
                  <integer>159</integer>
                  <key>y</key>
                  <integer>513</integer>
                </dict>
                <dict>
                  <key>smooth</key>
                  <false/>
                  <key>x</key>
                  <integer>170</integer>
                  <key>y</key>
                  <integer>522</integer>
                </dict>
                <dict>
                  <key>segmentType</key>
                  <string>curve</string>
                  <key>smooth</key>
                  <true/>
                  <key>x</key>
                  <integer>233</integer>
                  <key>y</key>
                  <integer>522</integer>
                </dict>
                <dict>
                  <key>segmentType</key>
                  <string>line</string>
                  <key>smooth</key>
                  <true/>
                  <key>x</key>
                  <integer>292</integer>
                  <key>y</key>
                  <integer>522</integer>
                </dict>
                <dict>
                  <key>smooth</key>
                  <false/>
                  <key>x</key>
                  <integer>342</integer>
                  <key>y</key>
                  <integer>522</integer>
                </dict>
                <dict>
                  <key>smooth</key>
                  <false/>
                  <key>x</key>
                  <integer>376</integer>
                  <key>y</key>
                  <integer>482</integer>
                </dict>
                <dict>
                  <key>segmentType</key>
                  <string>curve</string>
                  <key>smooth</key>
                  <true/>
                  <key>x</key>
                  <integer>376</integer>
                  <key>y</key>
                  <integer>423</integer>
                </dict>
                <dict>
                  <key>smooth</key>
                  <false/>
                  <key>x</key>
                  <integer>376</integer>
                  <key>y</key>
                  <integer>420</integer>
                </dict>
                <dict>
                  <key>smooth</key>
                  <false/>
                  <key>x</key>
                  <integer>386</integer>
                  <key>y</key>
                  <integer>420</integer>
                </dict>
                <dict>
                  <key>segmentType</key>
                  <string>curve</string>
                  <key>smooth</key>
                  <true/>
                  <key>x</key>
                  <integer>386</integer>
                  <key>y</key>
                  <integer>423</integer>
                </dict>
                <dict>
                  <key>smooth</key>
                  <false/>
                  <key>x</key>
                  <integer>386</integer>
                  <key>y</key>
                  <integer>447</integer>
                </dict>
                <dict>
                  <key>smooth</key>
                  <false/>
                  <key>x</key>
                  <integer>384</integer>
                  <key>y</key>
                  <integer>496</integer>
                </dict>
                <dict>
                  <key>segmentType</key>
                  <string>curve</string>
                  <key>smooth</key>
                  <true/>
                  <key>x</key>
                  <integer>384</integer>
                  <key>y</key>
                  <integer>527</integer>
                </dict>
                <dict>
                  <key>smooth</key>
                  <false/>
                  <key>x</key>
                  <integer>384</integer>
                  <key>y</key>
                  <integer>532</integer>
                </dict>
                <dict>
                  <key>smooth</key>
                  <false/>
                  <key>x</key>
                  <integer>382</integer>
                  <key>y</key>
                  <integer>534</integer>
                </dict>
                <dict>
                  <key>segmentType</key>
                  <string>curve</string>
                  <key>smooth</key>
                  <true/>
                  <key>x</key>
                  <integer>376</integer>
                  <key>y</key>
                  <integer>534</integer>
                </dict>
                <dict>
                  <key>segmentType</key>
                  <string>line</string>
                  <key>smooth</key>
                  <true/>
                  <key>x</key>
                  <integer>38</integer>
                  <key>y</key>
                  <integer>534</integer>
                </dict>
                <dict>
                  <key>smooth</key>
                  <false/>
                  <key>x</key>
                  <integer>35</integer>
                  <key>y</key>
                  <integer>534</integer>
                </dict>
                <dict>
                  <key>smooth</key>
                  <false/>
                  <key>x</key>
                  <integer>35</integer>
                  <key>y</key>
                  <integer>524</integer>
                </dict>
                <dict>
                  <key>segmentType</key>
                  <string>curve</string>
                  <key>smooth</key>
                  <true/>
                  <key>x</key>
                  <integer>38</integer>
                  <key>y</key>
                  <integer>524</integer>
                </dict>
                <dict>
                  <key>smooth</key>
                  <false/>
                  <key>x</key>
                  <integer>103</integer>
                  <key>y</key>
                  <integer>524</integer>
                </dict>
                <dict>
                  <key>smooth</key>
                  <false/>
                  <key>x</key>
                  <integer>114</integer>
                  <key>y</key>
                  <integer>514</integer>
                </dict>
                <dict>
                  <key>segmentType</key>
                  <string>curve</string>
                  <key>smooth</key>
                  <true/>
                  <key>x</key>
                  <integer>114</integer>
                  <key>y</key>
                  <integer>465</integer>
                </dict>
                <dict>
                  <key>segmentType</key>
                  <string>line</string>
                  <key>smooth</key>
                  <true/>
                  <key>x</key>
                  <integer>114</integer>
                  <key>y</key>
                  <integer>69</integer>
                </dict>
                <dict>
                  <key>smooth</key>
                  <false/>
                  <key>x</key>
                  <integer>114</integer>
                  <key>y</key>
                  <integer>20</integer>
                </dict>
                <dict>
                  <key>smooth</key>
                  <false/>
                  <key>x</key>
                  <integer>103</integer>
                  <key>y</key>
                  <integer>10</integer>
                </dict>
                <dict>
                  <key>segmentType</key>
                  <string>curve</string>
                  <key>smooth</key>
                  <true/>
                  <key>x</key>
                  <integer>38</integer>
                  <key>y</key>
                  <integer>10</integer>
                </dict>
                <dict>
                  <key>smooth</key>
                  <false/>
                  <key>x</key>
                  <integer>35</integer>
                  <key>y</key>
                  <integer>10</integer>
                </dict>
                <dict>
                  <key>smooth</key>
                  <false/>
                  <key>x</key>
                  <integer>35</integer>
                  <key>y</key>
                  <integer>0</integer>
                </dict>
                <dict>
                  <key>segmentType</key>
                  <string>curve</string>
                  <key>smooth</key>
                  <true/>
                  <key>x</key>
                  <integer>38</integer>
                  <key>y</key>
                  <integer>0</integer>
                </dict>
                <dict>
                  <key>smooth</key>
                  <false/>
                  <key>x</key>
                  <integer>65</integer>
                  <key>y</key>
                  <integer>0</integer>
                </dict>
                <dict>
                  <key>smooth</key>
                  <false/>
                  <key>x</key>
                  <integer>100</integer>
                  <key>y</key>
                  <integer>2</integer>
                </dict>
                <dict>
                  <key>segmentType</key>
                  <string>curve</string>
                  <key>smooth</key>
                  <true/>
                  <key>x</key>
                  <integer>137</integer>
                  <key>y</key>
                  <integer>2</integer>
                </dict>
                <dict>
                  <key>smooth</key>
                  <false/>
                  <key>x</key>
                  <integer>187</integer>
                  <key>y</key>
                  <integer>2</integer>
                </dict>
                <dict>
                  <key>smooth</key>
                  <false/>
                  <key>x</key>
                  <integer>229</integer>
                  <key>y</key>
                  <integer>0</integer>
                </dict>
                <dict>
                  <key>segmentType</key>
                  <string>curve</string>
                  <key>smooth</key>
                  <true/>
                  <key>x</key>
                  <integer>266</integer>
                  <key>y</key>
                  <integer>0</integer>
                </dict>
                <dict>
                  <key>smooth</key>
                  <false/>
                  <key>x</key>
                  <integer>269</integer>
                  <key>y</key>
                  <integer>0</integer>
                </dict>
                <dict>
                  <key>smooth</key>
                  <false/>
                  <key>x</key>
                  <integer>269</integer>
                  <key>y</key>
                  <integer>10</integer>
                </dict>
                <dict>
                  <key>segmentType</key>
                  <string>curve</string>
                  <key>smooth</key>
                  <true/>
                  <key>x</key>
                  <integer>266</integer>
                  <key>y</key>
                  <integer>10</integer>
                </dict>
                <dict>
                  <key>smooth</key>
                  <false/>
                  <key>x</key>
                  <integer>173</integer>
                  <key>y</key>
                  <integer>10</integer>
                </dict>
                <dict>
                  <key>smooth</key>
                  <false/>
                  <key>x</key>
                  <integer>159</integer>
                  <key>y</key>
                  <integer>21</integer>
                </dict>
                <dict>
                  <key>segmentType</key>
                  <string>curve</string>
                  <key>smooth</key>
                  <true/>
                  <key>x</key>
                  <integer>159</integer>
                  <key>y</key>
                  <integer>73</integer>
                </dict>
              </array>
            </dict>
          </array>
          <key>lib</key>
          <dict>
          </dict>
          <key>name</key>
          <string>F</string>
          <key>unicodes</key>
          <array>
          </array>
          <key>width</key>
          <integer>446</integer>
        </dict>
      </dict>
    </dict>
  </lib>
</glyph>
