<?xml version="1.0" encoding="UTF-8"?>
<glyph name="gcircumflex.ss01" format="1">
  <advance width="366"/>
  <outline>
    <component base="g.ss01"/>
    <component base="circumflexcomb" xOffset="55"/>
  </outline>
</glyph>
