<?xml version="1.0" encoding="UTF-8"?>
<glyph name="I" format="1">
  <advance width="292"/>
  <unicode hex="0049"/>
  <outline>
    <contour>
      <point x="194" y="463" type="line" smooth="yes"/>
      <point x="194" y="512"/>
      <point x="203" y="524"/>
      <point x="255" y="524" type="curve" smooth="yes"/>
      <point x="258" y="524"/>
      <point x="258" y="534"/>
      <point x="255" y="534" type="curve" smooth="yes"/>
      <point x="226" y="534"/>
      <point x="189" y="532"/>
      <point x="145" y="532" type="curve" smooth="yes"/>
      <point x="104" y="532"/>
      <point x="66" y="534"/>
      <point x="36" y="534" type="curve" smooth="yes"/>
      <point x="33" y="534"/>
      <point x="33" y="524"/>
      <point x="36" y="524" type="curve" smooth="yes"/>
      <point x="88" y="524"/>
      <point x="98" y="514"/>
      <point x="98" y="465" type="curve" smooth="yes"/>
      <point x="98" y="69" type="line" smooth="yes"/>
      <point x="98" y="20"/>
      <point x="88" y="10"/>
      <point x="36" y="10" type="curve" smooth="yes"/>
      <point x="33" y="10"/>
      <point x="33" y="0"/>
      <point x="36" y="0" type="curve" smooth="yes"/>
      <point x="66" y="0"/>
      <point x="104" y="2"/>
      <point x="145" y="2" type="curve" smooth="yes"/>
      <point x="189" y="2"/>
      <point x="225" y="0"/>
      <point x="255" y="0" type="curve" smooth="yes"/>
      <point x="258" y="0"/>
      <point x="258" y="10"/>
      <point x="255" y="10" type="curve" smooth="yes"/>
      <point x="202" y="10"/>
      <point x="194" y="20"/>
      <point x="194" y="69" type="curve" smooth="yes"/>
    </contour>
    <contour>
      <point x="233" y="10" type="move" name="ogonek"/>
    </contour>
    <contour>
      <point x="146" y="0" type="move" name="bottom"/>
    </contour>
    <contour>
      <point x="146" y="534" type="move" name="top"/>
    </contour>
  </outline>
  <lib>
    <dict>
      <key>com.schriftgestaltung.Glyphs.layer.leftMetricsKey</key>
      <string>==H+10</string>
      <key>com.schriftgestaltung.Glyphs.layer.rightMetricsKey</key>
      <string>==H+10</string>
      <key>com.schriftgestaltung.Glyphs.leftMetricsKey</key>
      <string>=H+10</string>
      <key>com.schriftgestaltung.Glyphs.rightMetricsKey</key>
      <string>=H+10</string>
    </dict>
  </lib>
</glyph>
