<?xml version="1.0" encoding="UTF-8"?>
<glyph name="ij" format="1">
  <advance width="455"/>
  <unicode hex="0133"/>
  <outline>
    <component base="i"/>
    <component base="j" xOffset="230"/>
  </outline>
  <lib>
    <dict>
      <key>com.schriftgestaltung.Glyphs.leftMetricsKey</key>
      <string>i</string>
      <key>com.schriftgestaltung.Glyphs.rightMetricsKey</key>
      <string>=j</string>
    </dict>
  </lib>
</glyph>
