<?xml version="1.0" encoding="UTF-8"?>
<glyph name="m" format="1">
  <advance width="664"/>
  <unicode hex="006D"/>
  <outline>
    <contour>
      <point x="500" y="0"/>
      <point x="530" y="2"/>
      <point x="563" y="2" type="curve" smooth="yes"/>
      <point x="596" y="2"/>
      <point x="626" y="0"/>
      <point x="649" y="0" type="curve" smooth="yes"/>
      <point x="653" y="0"/>
      <point x="653" y="10"/>
      <point x="649" y="10" type="curve" smooth="yes"/>
      <point x="614" y="10"/>
      <point x="603" y="24"/>
      <point x="603" y="69" type="curve" smooth="yes"/>
      <point x="603" y="233" type="line" smooth="yes"/>
      <point x="603" y="306"/>
      <point x="568" y="340"/>
      <point x="508" y="340" type="curve" smooth="yes"/>
      <point x="451" y="340"/>
      <point x="402" y="302"/>
      <point x="363" y="245" type="curve"/>
      <point x="368" y="235" type="line"/>
      <point x="388" y="264"/>
      <point x="424" y="283"/>
      <point x="459" y="283" type="curve" smooth="yes"/>
      <point x="503" y="283"/>
      <point x="523" y="254"/>
      <point x="523" y="192" type="curve" smooth="yes"/>
      <point x="523" y="69" type="line" smooth="yes"/>
      <point x="523" y="24"/>
      <point x="512" y="10"/>
      <point x="477" y="10" type="curve" smooth="yes"/>
      <point x="474" y="10"/>
      <point x="474" y="0"/>
      <point x="477" y="0" type="curve" smooth="yes"/>
    </contour>
    <contour>
      <point x="276" y="0"/>
      <point x="306" y="2"/>
      <point x="339" y="2" type="curve" smooth="yes"/>
      <point x="372" y="2"/>
      <point x="402" y="0"/>
      <point x="425" y="0" type="curve" smooth="yes"/>
      <point x="429" y="0"/>
      <point x="429" y="10"/>
      <point x="425" y="10" type="curve" smooth="yes"/>
      <point x="390" y="10"/>
      <point x="379" y="24"/>
      <point x="379" y="69" type="curve" smooth="yes"/>
      <point x="379" y="243" type="line" smooth="yes"/>
      <point x="379" y="306"/>
      <point x="344" y="340"/>
      <point x="284" y="340" type="curve" smooth="yes"/>
      <point x="227" y="340"/>
      <point x="178" y="302"/>
      <point x="139" y="245" type="curve"/>
      <point x="144" y="235" type="line"/>
      <point x="164" y="264"/>
      <point x="200" y="283"/>
      <point x="235" y="283" type="curve" smooth="yes"/>
      <point x="279" y="283"/>
      <point x="299" y="254"/>
      <point x="299" y="192" type="curve" smooth="yes"/>
      <point x="299" y="69" type="line" smooth="yes"/>
      <point x="299" y="24"/>
      <point x="288" y="10"/>
      <point x="253" y="10" type="curve" smooth="yes"/>
      <point x="250" y="10"/>
      <point x="250" y="0"/>
      <point x="253" y="0" type="curve" smooth="yes"/>
    </contour>
    <contour>
      <point x="56" y="0"/>
      <point x="86" y="2"/>
      <point x="119" y="2" type="curve" smooth="yes"/>
      <point x="152" y="2"/>
      <point x="182" y="0"/>
      <point x="205" y="0" type="curve" smooth="yes"/>
      <point x="209" y="0"/>
      <point x="209" y="10"/>
      <point x="205" y="10" type="curve" smooth="yes"/>
      <point x="170" y="10"/>
      <point x="159" y="24"/>
      <point x="159" y="69" type="curve" smooth="yes"/>
      <point x="159" y="259" type="line" smooth="yes"/>
      <point x="159" y="310"/>
      <point x="144" y="339"/>
      <point x="131" y="339" type="curve" smooth="yes"/>
      <point x="129" y="339"/>
      <point x="127" y="338"/>
      <point x="125" y="337" type="curve" smooth="yes"/>
      <point x="6" y="279" type="line" smooth="yes"/>
      <point x="3" y="278"/>
      <point x="7" y="267"/>
      <point x="11" y="269" type="curve" smooth="yes"/>
      <point x="28" y="277"/>
      <point x="42" y="281"/>
      <point x="52" y="281" type="curve" smooth="yes"/>
      <point x="71" y="281"/>
      <point x="79" y="265"/>
      <point x="79" y="230" type="curve" smooth="yes"/>
      <point x="79" y="69" type="line" smooth="yes"/>
      <point x="79" y="24"/>
      <point x="68" y="10"/>
      <point x="33" y="10" type="curve" smooth="yes"/>
      <point x="30" y="10"/>
      <point x="30" y="0"/>
      <point x="33" y="0" type="curve" smooth="yes"/>
    </contour>
    <contour>
      <point x="332" y="330" type="move" name="top"/>
    </contour>
    <contour>
      <point x="335" y="0" type="move" name="bottom"/>
    </contour>
  </outline>
  <lib>
    <dict>
      <key>com.schriftgestaltung.Glyphs.leftMetricsKey</key>
      <string>n</string>
      <key>com.schriftgestaltung.Glyphs.rightMetricsKey</key>
      <string>n</string>
      <key>com.typemytype.robofont.layerData</key>
      <dict>
        <key>Bold Jan 19 15, 00:59</key>
        <dict>
          <key>anchors</key>
          <array>
          </array>
          <key>components</key>
          <array>
          </array>
          <key>contours</key>
          <array>
            <dict>
              <key>points</key>
              <array>
                <dict>
                  <key>smooth</key>
                  <false/>
                  <key>x</key>
                  <integer>498</integer>
                  <key>y</key>
                  <integer>0</integer>
                </dict>
                <dict>
                  <key>smooth</key>
                  <false/>
                  <key>x</key>
                  <integer>525</integer>
                  <key>y</key>
                  <integer>2</integer>
                </dict>
                <dict>
                  <key>segmentType</key>
                  <string>curve</string>
                  <key>smooth</key>
                  <true/>
                  <key>x</key>
                  <integer>554</integer>
                  <key>y</key>
                  <integer>2</integer>
                </dict>
                <dict>
                  <key>smooth</key>
                  <false/>
                  <key>x</key>
                  <integer>583</integer>
                  <key>y</key>
                  <integer>2</integer>
                </dict>
                <dict>
                  <key>smooth</key>
                  <false/>
                  <key>x</key>
                  <integer>610</integer>
                  <key>y</key>
                  <integer>0</integer>
                </dict>
                <dict>
                  <key>segmentType</key>
                  <string>curve</string>
                  <key>smooth</key>
                  <true/>
                  <key>x</key>
                  <integer>630</integer>
                  <key>y</key>
                  <integer>0</integer>
                </dict>
                <dict>
                  <key>smooth</key>
                  <false/>
                  <key>x</key>
                  <integer>633</integer>
                  <key>y</key>
                  <integer>0</integer>
                </dict>
                <dict>
                  <key>smooth</key>
                  <false/>
                  <key>x</key>
                  <integer>633</integer>
                  <key>y</key>
                  <integer>10</integer>
                </dict>
                <dict>
                  <key>segmentType</key>
                  <string>curve</string>
                  <key>smooth</key>
                  <true/>
                  <key>x</key>
                  <integer>630</integer>
                  <key>y</key>
                  <integer>10</integer>
                </dict>
                <dict>
                  <key>smooth</key>
                  <false/>
                  <key>x</key>
                  <integer>582</integer>
                  <key>y</key>
                  <integer>10</integer>
                </dict>
                <dict>
                  <key>smooth</key>
                  <false/>
                  <key>x</key>
                  <integer>574</integer>
                  <key>y</key>
                  <integer>20</integer>
                </dict>
                <dict>
                  <key>segmentType</key>
                  <string>curve</string>
                  <key>smooth</key>
                  <true/>
                  <key>x</key>
                  <integer>574</integer>
                  <key>y</key>
                  <integer>69</integer>
                </dict>
                <dict>
                  <key>segmentType</key>
                  <string>line</string>
                  <key>smooth</key>
                  <true/>
                  <key>x</key>
                  <integer>574</integer>
                  <key>y</key>
                  <integer>235</integer>
                </dict>
                <dict>
                  <key>smooth</key>
                  <false/>
                  <key>x</key>
                  <integer>574</integer>
                  <key>y</key>
                  <integer>305</integer>
                </dict>
                <dict>
                  <key>smooth</key>
                  <false/>
                  <key>x</key>
                  <integer>540</integer>
                  <key>y</key>
                  <integer>339</integer>
                </dict>
                <dict>
                  <key>segmentType</key>
                  <string>curve</string>
                  <key>smooth</key>
                  <true/>
                  <key>x</key>
                  <integer>481</integer>
                  <key>y</key>
                  <integer>339</integer>
                </dict>
                <dict>
                  <key>smooth</key>
                  <false/>
                  <key>x</key>
                  <integer>432</integer>
                  <key>y</key>
                  <integer>339</integer>
                </dict>
                <dict>
                  <key>smooth</key>
                  <false/>
                  <key>x</key>
                  <integer>386</integer>
                  <key>y</key>
                  <integer>311</integer>
                </dict>
                <dict>
                  <key>segmentType</key>
                  <string>curve</string>
                  <key>smooth</key>
                  <false/>
                  <key>x</key>
                  <integer>334</integer>
                  <key>y</key>
                  <integer>240</integer>
                </dict>
                <dict>
                  <key>segmentType</key>
                  <string>line</string>
                  <key>smooth</key>
                  <false/>
                  <key>x</key>
                  <integer>338</integer>
                  <key>y</key>
                  <integer>230</integer>
                </dict>
                <dict>
                  <key>smooth</key>
                  <false/>
                  <key>x</key>
                  <integer>370</integer>
                  <key>y</key>
                  <integer>279</integer>
                </dict>
                <dict>
                  <key>smooth</key>
                  <false/>
                  <key>x</key>
                  <integer>416</integer>
                  <key>y</key>
                  <integer>310</integer>
                </dict>
                <dict>
                  <key>segmentType</key>
                  <string>curve</string>
                  <key>smooth</key>
                  <true/>
                  <key>x</key>
                  <integer>458</integer>
                  <key>y</key>
                  <integer>310</integer>
                </dict>
                <dict>
                  <key>smooth</key>
                  <false/>
                  <key>x</key>
                  <integer>510</integer>
                  <key>y</key>
                  <integer>310</integer>
                </dict>
                <dict>
                  <key>smooth</key>
                  <false/>
                  <key>x</key>
                  <integer>534</integer>
                  <key>y</key>
                  <integer>278</integer>
                </dict>
                <dict>
                  <key>segmentType</key>
                  <string>curve</string>
                  <key>smooth</key>
                  <true/>
                  <key>x</key>
                  <integer>534</integer>
                  <key>y</key>
                  <integer>209</integer>
                </dict>
                <dict>
                  <key>segmentType</key>
                  <string>line</string>
                  <key>smooth</key>
                  <true/>
                  <key>x</key>
                  <integer>534</integer>
                  <key>y</key>
                  <integer>69</integer>
                </dict>
                <dict>
                  <key>smooth</key>
                  <false/>
                  <key>x</key>
                  <integer>534</integer>
                  <key>y</key>
                  <integer>20</integer>
                </dict>
                <dict>
                  <key>smooth</key>
                  <false/>
                  <key>x</key>
                  <integer>525</integer>
                  <key>y</key>
                  <integer>10</integer>
                </dict>
                <dict>
                  <key>segmentType</key>
                  <string>curve</string>
                  <key>smooth</key>
                  <true/>
                  <key>x</key>
                  <integer>478</integer>
                  <key>y</key>
                  <integer>10</integer>
                </dict>
                <dict>
                  <key>smooth</key>
                  <false/>
                  <key>x</key>
                  <integer>475</integer>
                  <key>y</key>
                  <integer>10</integer>
                </dict>
                <dict>
                  <key>smooth</key>
                  <false/>
                  <key>x</key>
                  <integer>475</integer>
                  <key>y</key>
                  <integer>0</integer>
                </dict>
                <dict>
                  <key>segmentType</key>
                  <string>curve</string>
                  <key>smooth</key>
                  <true/>
                  <key>x</key>
                  <integer>478</integer>
                  <key>y</key>
                  <integer>0</integer>
                </dict>
              </array>
            </dict>
            <dict>
              <key>points</key>
              <array>
                <dict>
                  <key>smooth</key>
                  <false/>
                  <key>x</key>
                  <integer>58</integer>
                  <key>y</key>
                  <integer>0</integer>
                </dict>
                <dict>
                  <key>smooth</key>
                  <false/>
                  <key>x</key>
                  <integer>85</integer>
                  <key>y</key>
                  <integer>2</integer>
                </dict>
                <dict>
                  <key>segmentType</key>
                  <string>curve</string>
                  <key>smooth</key>
                  <true/>
                  <key>x</key>
                  <integer>114</integer>
                  <key>y</key>
                  <integer>2</integer>
                </dict>
                <dict>
                  <key>smooth</key>
                  <false/>
                  <key>x</key>
                  <integer>143</integer>
                  <key>y</key>
                  <integer>2</integer>
                </dict>
                <dict>
                  <key>smooth</key>
                  <false/>
                  <key>x</key>
                  <integer>170</integer>
                  <key>y</key>
                  <integer>0</integer>
                </dict>
                <dict>
                  <key>segmentType</key>
                  <string>curve</string>
                  <key>smooth</key>
                  <true/>
                  <key>x</key>
                  <integer>190</integer>
                  <key>y</key>
                  <integer>0</integer>
                </dict>
                <dict>
                  <key>smooth</key>
                  <false/>
                  <key>x</key>
                  <integer>193</integer>
                  <key>y</key>
                  <integer>0</integer>
                </dict>
                <dict>
                  <key>smooth</key>
                  <false/>
                  <key>x</key>
                  <integer>193</integer>
                  <key>y</key>
                  <integer>10</integer>
                </dict>
                <dict>
                  <key>segmentType</key>
                  <string>curve</string>
                  <key>smooth</key>
                  <true/>
                  <key>x</key>
                  <integer>190</integer>
                  <key>y</key>
                  <integer>10</integer>
                </dict>
                <dict>
                  <key>smooth</key>
                  <false/>
                  <key>x</key>
                  <integer>142</integer>
                  <key>y</key>
                  <integer>10</integer>
                </dict>
                <dict>
                  <key>smooth</key>
                  <false/>
                  <key>x</key>
                  <integer>134</integer>
                  <key>y</key>
                  <integer>20</integer>
                </dict>
                <dict>
                  <key>segmentType</key>
                  <string>curve</string>
                  <key>smooth</key>
                  <true/>
                  <key>x</key>
                  <integer>134</integer>
                  <key>y</key>
                  <integer>69</integer>
                </dict>
                <dict>
                  <key>segmentType</key>
                  <string>line</string>
                  <key>smooth</key>
                  <true/>
                  <key>x</key>
                  <integer>134</integer>
                  <key>y</key>
                  <integer>269</integer>
                </dict>
                <dict>
                  <key>smooth</key>
                  <false/>
                  <key>x</key>
                  <integer>134</integer>
                  <key>y</key>
                  <integer>318</integer>
                </dict>
                <dict>
                  <key>smooth</key>
                  <false/>
                  <key>x</key>
                  <integer>116</integer>
                  <key>y</key>
                  <integer>342</integer>
                </dict>
                <dict>
                  <key>segmentType</key>
                  <string>curve</string>
                  <key>smooth</key>
                  <true/>
                  <key>x</key>
                  <integer>108</integer>
                  <key>y</key>
                  <integer>338</integer>
                </dict>
                <dict>
                  <key>segmentType</key>
                  <string>line</string>
                  <key>smooth</key>
                  <true/>
                  <key>x</key>
                  <integer>11</integer>
                  <key>y</key>
                  <integer>292</integer>
                </dict>
                <dict>
                  <key>smooth</key>
                  <false/>
                  <key>x</key>
                  <integer>6</integer>
                  <key>y</key>
                  <integer>290</integer>
                </dict>
                <dict>
                  <key>smooth</key>
                  <false/>
                  <key>x</key>
                  <integer>10</integer>
                  <key>y</key>
                  <integer>280</integer>
                </dict>
                <dict>
                  <key>segmentType</key>
                  <string>curve</string>
                  <key>smooth</key>
                  <true/>
                  <key>x</key>
                  <integer>15</integer>
                  <key>y</key>
                  <integer>283</integer>
                </dict>
                <dict>
                  <key>smooth</key>
                  <false/>
                  <key>x</key>
                  <integer>76</integer>
                  <key>y</key>
                  <integer>308</integer>
                </dict>
                <dict>
                  <key>smooth</key>
                  <false/>
                  <key>x</key>
                  <integer>94</integer>
                  <key>y</key>
                  <integer>298</integer>
                </dict>
                <dict>
                  <key>segmentType</key>
                  <string>curve</string>
                  <key>smooth</key>
                  <true/>
                  <key>x</key>
                  <integer>94</integer>
                  <key>y</key>
                  <integer>240</integer>
                </dict>
                <dict>
                  <key>segmentType</key>
                  <string>line</string>
                  <key>smooth</key>
                  <true/>
                  <key>x</key>
                  <integer>94</integer>
                  <key>y</key>
                  <integer>69</integer>
                </dict>
                <dict>
                  <key>smooth</key>
                  <false/>
                  <key>x</key>
                  <integer>94</integer>
                  <key>y</key>
                  <integer>20</integer>
                </dict>
                <dict>
                  <key>smooth</key>
                  <false/>
                  <key>x</key>
                  <integer>85</integer>
                  <key>y</key>
                  <integer>10</integer>
                </dict>
                <dict>
                  <key>segmentType</key>
                  <string>curve</string>
                  <key>smooth</key>
                  <true/>
                  <key>x</key>
                  <integer>38</integer>
                  <key>y</key>
                  <integer>10</integer>
                </dict>
                <dict>
                  <key>smooth</key>
                  <false/>
                  <key>x</key>
                  <integer>35</integer>
                  <key>y</key>
                  <integer>10</integer>
                </dict>
                <dict>
                  <key>smooth</key>
                  <false/>
                  <key>x</key>
                  <integer>35</integer>
                  <key>y</key>
                  <integer>0</integer>
                </dict>
                <dict>
                  <key>segmentType</key>
                  <string>curve</string>
                  <key>smooth</key>
                  <true/>
                  <key>x</key>
                  <integer>38</integer>
                  <key>y</key>
                  <integer>0</integer>
                </dict>
              </array>
            </dict>
            <dict>
              <key>points</key>
              <array>
                <dict>
                  <key>smooth</key>
                  <false/>
                  <key>x</key>
                  <integer>278</integer>
                  <key>y</key>
                  <integer>0</integer>
                </dict>
                <dict>
                  <key>smooth</key>
                  <false/>
                  <key>x</key>
                  <integer>305</integer>
                  <key>y</key>
                  <integer>2</integer>
                </dict>
                <dict>
                  <key>segmentType</key>
                  <string>curve</string>
                  <key>smooth</key>
                  <true/>
                  <key>x</key>
                  <integer>334</integer>
                  <key>y</key>
                  <integer>2</integer>
                </dict>
                <dict>
                  <key>smooth</key>
                  <false/>
                  <key>x</key>
                  <integer>363</integer>
                  <key>y</key>
                  <integer>2</integer>
                </dict>
                <dict>
                  <key>smooth</key>
                  <false/>
                  <key>x</key>
                  <integer>390</integer>
                  <key>y</key>
                  <integer>0</integer>
                </dict>
                <dict>
                  <key>segmentType</key>
                  <string>curve</string>
                  <key>smooth</key>
                  <true/>
                  <key>x</key>
                  <integer>410</integer>
                  <key>y</key>
                  <integer>0</integer>
                </dict>
                <dict>
                  <key>smooth</key>
                  <false/>
                  <key>x</key>
                  <integer>413</integer>
                  <key>y</key>
                  <integer>0</integer>
                </dict>
                <dict>
                  <key>smooth</key>
                  <false/>
                  <key>x</key>
                  <integer>413</integer>
                  <key>y</key>
                  <integer>10</integer>
                </dict>
                <dict>
                  <key>segmentType</key>
                  <string>curve</string>
                  <key>smooth</key>
                  <true/>
                  <key>x</key>
                  <integer>410</integer>
                  <key>y</key>
                  <integer>10</integer>
                </dict>
                <dict>
                  <key>smooth</key>
                  <false/>
                  <key>x</key>
                  <integer>362</integer>
                  <key>y</key>
                  <integer>10</integer>
                </dict>
                <dict>
                  <key>smooth</key>
                  <false/>
                  <key>x</key>
                  <integer>354</integer>
                  <key>y</key>
                  <integer>20</integer>
                </dict>
                <dict>
                  <key>segmentType</key>
                  <string>curve</string>
                  <key>smooth</key>
                  <true/>
                  <key>x</key>
                  <integer>354</integer>
                  <key>y</key>
                  <integer>69</integer>
                </dict>
                <dict>
                  <key>segmentType</key>
                  <string>line</string>
                  <key>smooth</key>
                  <true/>
                  <key>x</key>
                  <integer>354</integer>
                  <key>y</key>
                  <integer>235</integer>
                </dict>
                <dict>
                  <key>smooth</key>
                  <false/>
                  <key>x</key>
                  <integer>354</integer>
                  <key>y</key>
                  <integer>305</integer>
                </dict>
                <dict>
                  <key>smooth</key>
                  <false/>
                  <key>x</key>
                  <integer>320</integer>
                  <key>y</key>
                  <integer>339</integer>
                </dict>
                <dict>
                  <key>segmentType</key>
                  <string>curve</string>
                  <key>smooth</key>
                  <true/>
                  <key>x</key>
                  <integer>261</integer>
                  <key>y</key>
                  <integer>339</integer>
                </dict>
                <dict>
                  <key>smooth</key>
                  <false/>
                  <key>x</key>
                  <integer>212</integer>
                  <key>y</key>
                  <integer>339</integer>
                </dict>
                <dict>
                  <key>smooth</key>
                  <false/>
                  <key>x</key>
                  <integer>166</integer>
                  <key>y</key>
                  <integer>311</integer>
                </dict>
                <dict>
                  <key>segmentType</key>
                  <string>curve</string>
                  <key>smooth</key>
                  <false/>
                  <key>x</key>
                  <integer>114</integer>
                  <key>y</key>
                  <integer>240</integer>
                </dict>
                <dict>
                  <key>segmentType</key>
                  <string>line</string>
                  <key>smooth</key>
                  <false/>
                  <key>x</key>
                  <integer>118</integer>
                  <key>y</key>
                  <integer>230</integer>
                </dict>
                <dict>
                  <key>smooth</key>
                  <false/>
                  <key>x</key>
                  <integer>150</integer>
                  <key>y</key>
                  <integer>279</integer>
                </dict>
                <dict>
                  <key>smooth</key>
                  <false/>
                  <key>x</key>
                  <integer>196</integer>
                  <key>y</key>
                  <integer>310</integer>
                </dict>
                <dict>
                  <key>segmentType</key>
                  <string>curve</string>
                  <key>smooth</key>
                  <true/>
                  <key>x</key>
                  <integer>238</integer>
                  <key>y</key>
                  <integer>310</integer>
                </dict>
                <dict>
                  <key>smooth</key>
                  <false/>
                  <key>x</key>
                  <integer>290</integer>
                  <key>y</key>
                  <integer>310</integer>
                </dict>
                <dict>
                  <key>smooth</key>
                  <false/>
                  <key>x</key>
                  <integer>314</integer>
                  <key>y</key>
                  <integer>278</integer>
                </dict>
                <dict>
                  <key>segmentType</key>
                  <string>curve</string>
                  <key>smooth</key>
                  <true/>
                  <key>x</key>
                  <integer>314</integer>
                  <key>y</key>
                  <integer>209</integer>
                </dict>
                <dict>
                  <key>segmentType</key>
                  <string>line</string>
                  <key>smooth</key>
                  <true/>
                  <key>x</key>
                  <integer>314</integer>
                  <key>y</key>
                  <integer>69</integer>
                </dict>
                <dict>
                  <key>smooth</key>
                  <false/>
                  <key>x</key>
                  <integer>314</integer>
                  <key>y</key>
                  <integer>20</integer>
                </dict>
                <dict>
                  <key>smooth</key>
                  <false/>
                  <key>x</key>
                  <integer>305</integer>
                  <key>y</key>
                  <integer>10</integer>
                </dict>
                <dict>
                  <key>segmentType</key>
                  <string>curve</string>
                  <key>smooth</key>
                  <true/>
                  <key>x</key>
                  <integer>258</integer>
                  <key>y</key>
                  <integer>10</integer>
                </dict>
                <dict>
                  <key>smooth</key>
                  <false/>
                  <key>x</key>
                  <integer>255</integer>
                  <key>y</key>
                  <integer>10</integer>
                </dict>
                <dict>
                  <key>smooth</key>
                  <false/>
                  <key>x</key>
                  <integer>255</integer>
                  <key>y</key>
                  <integer>0</integer>
                </dict>
                <dict>
                  <key>segmentType</key>
                  <string>curve</string>
                  <key>smooth</key>
                  <true/>
                  <key>x</key>
                  <integer>258</integer>
                  <key>y</key>
                  <integer>0</integer>
                </dict>
              </array>
            </dict>
          </array>
          <key>lib</key>
          <dict>
          </dict>
          <key>name</key>
          <string>m</string>
          <key>unicodes</key>
          <array>
          </array>
          <key>width</key>
          <integer>650</integer>
        </dict>
        <key>Bold Jan 26 15, 23:00</key>
        <dict>
          <key>anchors</key>
          <array>
          </array>
          <key>components</key>
          <array>
          </array>
          <key>contours</key>
          <array>
            <dict>
              <key>points</key>
              <array>
                <dict>
                  <key>smooth</key>
                  <false/>
                  <key>x</key>
                  <integer>500</integer>
                  <key>y</key>
                  <integer>0</integer>
                </dict>
                <dict>
                  <key>smooth</key>
                  <false/>
                  <key>x</key>
                  <integer>530</integer>
                  <key>y</key>
                  <integer>2</integer>
                </dict>
                <dict>
                  <key>segmentType</key>
                  <string>curve</string>
                  <key>smooth</key>
                  <true/>
                  <key>x</key>
                  <integer>563</integer>
                  <key>y</key>
                  <integer>2</integer>
                </dict>
                <dict>
                  <key>smooth</key>
                  <false/>
                  <key>x</key>
                  <integer>596</integer>
                  <key>y</key>
                  <integer>2</integer>
                </dict>
                <dict>
                  <key>smooth</key>
                  <false/>
                  <key>x</key>
                  <integer>626</integer>
                  <key>y</key>
                  <integer>0</integer>
                </dict>
                <dict>
                  <key>segmentType</key>
                  <string>curve</string>
                  <key>smooth</key>
                  <true/>
                  <key>x</key>
                  <integer>649</integer>
                  <key>y</key>
                  <integer>0</integer>
                </dict>
                <dict>
                  <key>smooth</key>
                  <false/>
                  <key>x</key>
                  <integer>653</integer>
                  <key>y</key>
                  <integer>0</integer>
                </dict>
                <dict>
                  <key>smooth</key>
                  <false/>
                  <key>x</key>
                  <integer>653</integer>
                  <key>y</key>
                  <integer>10</integer>
                </dict>
                <dict>
                  <key>segmentType</key>
                  <string>curve</string>
                  <key>smooth</key>
                  <true/>
                  <key>x</key>
                  <integer>649</integer>
                  <key>y</key>
                  <integer>10</integer>
                </dict>
                <dict>
                  <key>smooth</key>
                  <false/>
                  <key>x</key>
                  <integer>614</integer>
                  <key>y</key>
                  <integer>10</integer>
                </dict>
                <dict>
                  <key>smooth</key>
                  <false/>
                  <key>x</key>
                  <integer>603</integer>
                  <key>y</key>
                  <integer>24</integer>
                </dict>
                <dict>
                  <key>segmentType</key>
                  <string>curve</string>
                  <key>smooth</key>
                  <true/>
                  <key>x</key>
                  <integer>603</integer>
                  <key>y</key>
                  <integer>69</integer>
                </dict>
                <dict>
                  <key>segmentType</key>
                  <string>line</string>
                  <key>smooth</key>
                  <true/>
                  <key>x</key>
                  <integer>603</integer>
                  <key>y</key>
                  <integer>228</integer>
                </dict>
                <dict>
                  <key>smooth</key>
                  <false/>
                  <key>x</key>
                  <integer>603</integer>
                  <key>y</key>
                  <integer>306</integer>
                </dict>
                <dict>
                  <key>smooth</key>
                  <false/>
                  <key>x</key>
                  <integer>573</integer>
                  <key>y</key>
                  <integer>340</integer>
                </dict>
                <dict>
                  <key>segmentType</key>
                  <string>curve</string>
                  <key>smooth</key>
                  <true/>
                  <key>x</key>
                  <integer>520</integer>
                  <key>y</key>
                  <integer>340</integer>
                </dict>
                <dict>
                  <key>smooth</key>
                  <false/>
                  <key>x</key>
                  <integer>462</integer>
                  <key>y</key>
                  <integer>340</integer>
                </dict>
                <dict>
                  <key>smooth</key>
                  <false/>
                  <key>x</key>
                  <integer>407</integer>
                  <key>y</key>
                  <integer>305</integer>
                </dict>
                <dict>
                  <key>segmentType</key>
                  <string>curve</string>
                  <key>smooth</key>
                  <false/>
                  <key>x</key>
                  <integer>363</integer>
                  <key>y</key>
                  <integer>245</integer>
                </dict>
                <dict>
                  <key>segmentType</key>
                  <string>line</string>
                  <key>smooth</key>
                  <false/>
                  <key>x</key>
                  <integer>368</integer>
                  <key>y</key>
                  <integer>235</integer>
                </dict>
                <dict>
                  <key>smooth</key>
                  <false/>
                  <key>x</key>
                  <integer>391</integer>
                  <key>y</key>
                  <integer>264</integer>
                </dict>
                <dict>
                  <key>smooth</key>
                  <false/>
                  <key>x</key>
                  <integer>431</integer>
                  <key>y</key>
                  <integer>282</integer>
                </dict>
                <dict>
                  <key>segmentType</key>
                  <string>curve</string>
                  <key>smooth</key>
                  <true/>
                  <key>x</key>
                  <integer>467</integer>
                  <key>y</key>
                  <integer>282</integer>
                </dict>
                <dict>
                  <key>smooth</key>
                  <false/>
                  <key>x</key>
                  <integer>503</integer>
                  <key>y</key>
                  <integer>282</integer>
                </dict>
                <dict>
                  <key>smooth</key>
                  <false/>
                  <key>x</key>
                  <integer>523</integer>
                  <key>y</key>
                  <integer>259</integer>
                </dict>
                <dict>
                  <key>segmentType</key>
                  <string>curve</string>
                  <key>smooth</key>
                  <true/>
                  <key>x</key>
                  <integer>523</integer>
                  <key>y</key>
                  <integer>202</integer>
                </dict>
                <dict>
                  <key>segmentType</key>
                  <string>line</string>
                  <key>smooth</key>
                  <true/>
                  <key>x</key>
                  <integer>523</integer>
                  <key>y</key>
                  <integer>69</integer>
                </dict>
                <dict>
                  <key>smooth</key>
                  <false/>
                  <key>x</key>
                  <integer>523</integer>
                  <key>y</key>
                  <integer>24</integer>
                </dict>
                <dict>
                  <key>smooth</key>
                  <false/>
                  <key>x</key>
                  <integer>512</integer>
                  <key>y</key>
                  <integer>10</integer>
                </dict>
                <dict>
                  <key>segmentType</key>
                  <string>curve</string>
                  <key>smooth</key>
                  <true/>
                  <key>x</key>
                  <integer>477</integer>
                  <key>y</key>
                  <integer>10</integer>
                </dict>
                <dict>
                  <key>smooth</key>
                  <false/>
                  <key>x</key>
                  <integer>474</integer>
                  <key>y</key>
                  <integer>10</integer>
                </dict>
                <dict>
                  <key>smooth</key>
                  <false/>
                  <key>x</key>
                  <integer>474</integer>
                  <key>y</key>
                  <integer>0</integer>
                </dict>
                <dict>
                  <key>segmentType</key>
                  <string>curve</string>
                  <key>smooth</key>
                  <true/>
                  <key>x</key>
                  <integer>477</integer>
                  <key>y</key>
                  <integer>0</integer>
                </dict>
              </array>
            </dict>
            <dict>
              <key>points</key>
              <array>
                <dict>
                  <key>smooth</key>
                  <false/>
                  <key>x</key>
                  <integer>56</integer>
                  <key>y</key>
                  <integer>0</integer>
                </dict>
                <dict>
                  <key>smooth</key>
                  <false/>
                  <key>x</key>
                  <integer>86</integer>
                  <key>y</key>
                  <integer>2</integer>
                </dict>
                <dict>
                  <key>segmentType</key>
                  <string>curve</string>
                  <key>smooth</key>
                  <true/>
                  <key>x</key>
                  <integer>119</integer>
                  <key>y</key>
                  <integer>2</integer>
                </dict>
                <dict>
                  <key>smooth</key>
                  <false/>
                  <key>x</key>
                  <integer>152</integer>
                  <key>y</key>
                  <integer>2</integer>
                </dict>
                <dict>
                  <key>smooth</key>
                  <false/>
                  <key>x</key>
                  <integer>182</integer>
                  <key>y</key>
                  <integer>0</integer>
                </dict>
                <dict>
                  <key>segmentType</key>
                  <string>curve</string>
                  <key>smooth</key>
                  <true/>
                  <key>x</key>
                  <integer>205</integer>
                  <key>y</key>
                  <integer>0</integer>
                </dict>
                <dict>
                  <key>smooth</key>
                  <false/>
                  <key>x</key>
                  <integer>209</integer>
                  <key>y</key>
                  <integer>0</integer>
                </dict>
                <dict>
                  <key>smooth</key>
                  <false/>
                  <key>x</key>
                  <integer>209</integer>
                  <key>y</key>
                  <integer>10</integer>
                </dict>
                <dict>
                  <key>segmentType</key>
                  <string>curve</string>
                  <key>smooth</key>
                  <true/>
                  <key>x</key>
                  <integer>205</integer>
                  <key>y</key>
                  <integer>10</integer>
                </dict>
                <dict>
                  <key>smooth</key>
                  <false/>
                  <key>x</key>
                  <integer>170</integer>
                  <key>y</key>
                  <integer>10</integer>
                </dict>
                <dict>
                  <key>smooth</key>
                  <false/>
                  <key>x</key>
                  <integer>159</integer>
                  <key>y</key>
                  <integer>24</integer>
                </dict>
                <dict>
                  <key>segmentType</key>
                  <string>curve</string>
                  <key>smooth</key>
                  <true/>
                  <key>x</key>
                  <integer>159</integer>
                  <key>y</key>
                  <integer>69</integer>
                </dict>
                <dict>
                  <key>segmentType</key>
                  <string>line</string>
                  <key>smooth</key>
                  <true/>
                  <key>x</key>
                  <integer>159</integer>
                  <key>y</key>
                  <integer>259</integer>
                </dict>
                <dict>
                  <key>smooth</key>
                  <false/>
                  <key>x</key>
                  <integer>159</integer>
                  <key>y</key>
                  <integer>315</integer>
                </dict>
                <dict>
                  <key>smooth</key>
                  <false/>
                  <key>x</key>
                  <integer>141</integer>
                  <key>y</key>
                  <integer>344</integer>
                </dict>
                <dict>
                  <key>segmentType</key>
                  <string>curve</string>
                  <key>smooth</key>
                  <true/>
                  <key>x</key>
                  <integer>128</integer>
                  <key>y</key>
                  <integer>338</integer>
                </dict>
                <dict>
                  <key>segmentType</key>
                  <string>line</string>
                  <key>smooth</key>
                  <true/>
                  <key>x</key>
                  <integer>6</integer>
                  <key>y</key>
                  <integer>279</integer>
                </dict>
                <dict>
                  <key>smooth</key>
                  <false/>
                  <key>x</key>
                  <integer>3</integer>
                  <key>y</key>
                  <integer>278</integer>
                </dict>
                <dict>
                  <key>smooth</key>
                  <false/>
                  <key>x</key>
                  <integer>7</integer>
                  <key>y</key>
                  <integer>267</integer>
                </dict>
                <dict>
                  <key>segmentType</key>
                  <string>curve</string>
                  <key>smooth</key>
                  <true/>
                  <key>x</key>
                  <integer>11</integer>
                  <key>y</key>
                  <integer>269</integer>
                </dict>
                <dict>
                  <key>smooth</key>
                  <false/>
                  <key>x</key>
                  <integer>61</integer>
                  <key>y</key>
                  <integer>291</integer>
                </dict>
                <dict>
                  <key>smooth</key>
                  <false/>
                  <key>x</key>
                  <integer>79</integer>
                  <key>y</key>
                  <integer>284</integer>
                </dict>
                <dict>
                  <key>segmentType</key>
                  <string>curve</string>
                  <key>smooth</key>
                  <true/>
                  <key>x</key>
                  <integer>79</integer>
                  <key>y</key>
                  <integer>230</integer>
                </dict>
                <dict>
                  <key>segmentType</key>
                  <string>line</string>
                  <key>smooth</key>
                  <true/>
                  <key>x</key>
                  <integer>79</integer>
                  <key>y</key>
                  <integer>69</integer>
                </dict>
                <dict>
                  <key>smooth</key>
                  <false/>
                  <key>x</key>
                  <integer>79</integer>
                  <key>y</key>
                  <integer>24</integer>
                </dict>
                <dict>
                  <key>smooth</key>
                  <false/>
                  <key>x</key>
                  <integer>68</integer>
                  <key>y</key>
                  <integer>10</integer>
                </dict>
                <dict>
                  <key>segmentType</key>
                  <string>curve</string>
                  <key>smooth</key>
                  <true/>
                  <key>x</key>
                  <integer>33</integer>
                  <key>y</key>
                  <integer>10</integer>
                </dict>
                <dict>
                  <key>smooth</key>
                  <false/>
                  <key>x</key>
                  <integer>30</integer>
                  <key>y</key>
                  <integer>10</integer>
                </dict>
                <dict>
                  <key>smooth</key>
                  <false/>
                  <key>x</key>
                  <integer>30</integer>
                  <key>y</key>
                  <integer>0</integer>
                </dict>
                <dict>
                  <key>segmentType</key>
                  <string>curve</string>
                  <key>smooth</key>
                  <true/>
                  <key>x</key>
                  <integer>33</integer>
                  <key>y</key>
                  <integer>0</integer>
                </dict>
              </array>
            </dict>
            <dict>
              <key>points</key>
              <array>
                <dict>
                  <key>smooth</key>
                  <false/>
                  <key>x</key>
                  <integer>278</integer>
                  <key>y</key>
                  <integer>0</integer>
                </dict>
                <dict>
                  <key>smooth</key>
                  <false/>
                  <key>x</key>
                  <integer>308</integer>
                  <key>y</key>
                  <integer>2</integer>
                </dict>
                <dict>
                  <key>segmentType</key>
                  <string>curve</string>
                  <key>smooth</key>
                  <true/>
                  <key>x</key>
                  <integer>341</integer>
                  <key>y</key>
                  <integer>2</integer>
                </dict>
                <dict>
                  <key>smooth</key>
                  <false/>
                  <key>x</key>
                  <integer>374</integer>
                  <key>y</key>
                  <integer>2</integer>
                </dict>
                <dict>
                  <key>smooth</key>
                  <false/>
                  <key>x</key>
                  <integer>404</integer>
                  <key>y</key>
                  <integer>0</integer>
                </dict>
                <dict>
                  <key>segmentType</key>
                  <string>curve</string>
                  <key>smooth</key>
                  <true/>
                  <key>x</key>
                  <integer>427</integer>
                  <key>y</key>
                  <integer>0</integer>
                </dict>
                <dict>
                  <key>smooth</key>
                  <false/>
                  <key>x</key>
                  <integer>431</integer>
                  <key>y</key>
                  <integer>0</integer>
                </dict>
                <dict>
                  <key>smooth</key>
                  <false/>
                  <key>x</key>
                  <integer>431</integer>
                  <key>y</key>
                  <integer>10</integer>
                </dict>
                <dict>
                  <key>segmentType</key>
                  <string>curve</string>
                  <key>smooth</key>
                  <true/>
                  <key>x</key>
                  <integer>427</integer>
                  <key>y</key>
                  <integer>10</integer>
                </dict>
                <dict>
                  <key>smooth</key>
                  <false/>
                  <key>x</key>
                  <integer>392</integer>
                  <key>y</key>
                  <integer>10</integer>
                </dict>
                <dict>
                  <key>smooth</key>
                  <false/>
                  <key>x</key>
                  <integer>381</integer>
                  <key>y</key>
                  <integer>24</integer>
                </dict>
                <dict>
                  <key>segmentType</key>
                  <string>curve</string>
                  <key>smooth</key>
                  <true/>
                  <key>x</key>
                  <integer>381</integer>
                  <key>y</key>
                  <integer>69</integer>
                </dict>
                <dict>
                  <key>segmentType</key>
                  <string>line</string>
                  <key>smooth</key>
                  <true/>
                  <key>x</key>
                  <integer>381</integer>
                  <key>y</key>
                  <integer>228</integer>
                </dict>
                <dict>
                  <key>smooth</key>
                  <false/>
                  <key>x</key>
                  <integer>381</integer>
                  <key>y</key>
                  <integer>306</integer>
                </dict>
                <dict>
                  <key>smooth</key>
                  <false/>
                  <key>x</key>
                  <integer>351</integer>
                  <key>y</key>
                  <integer>340</integer>
                </dict>
                <dict>
                  <key>segmentType</key>
                  <string>curve</string>
                  <key>smooth</key>
                  <true/>
                  <key>x</key>
                  <integer>298</integer>
                  <key>y</key>
                  <integer>340</integer>
                </dict>
                <dict>
                  <key>smooth</key>
                  <false/>
                  <key>x</key>
                  <integer>240</integer>
                  <key>y</key>
                  <integer>340</integer>
                </dict>
                <dict>
                  <key>smooth</key>
                  <false/>
                  <key>x</key>
                  <integer>185</integer>
                  <key>y</key>
                  <integer>305</integer>
                </dict>
                <dict>
                  <key>segmentType</key>
                  <string>curve</string>
                  <key>smooth</key>
                  <false/>
                  <key>x</key>
                  <integer>141</integer>
                  <key>y</key>
                  <integer>245</integer>
                </dict>
                <dict>
                  <key>segmentType</key>
                  <string>line</string>
                  <key>smooth</key>
                  <false/>
                  <key>x</key>
                  <integer>146</integer>
                  <key>y</key>
                  <integer>235</integer>
                </dict>
                <dict>
                  <key>smooth</key>
                  <false/>
                  <key>x</key>
                  <integer>169</integer>
                  <key>y</key>
                  <integer>264</integer>
                </dict>
                <dict>
                  <key>smooth</key>
                  <false/>
                  <key>x</key>
                  <integer>209</integer>
                  <key>y</key>
                  <integer>282</integer>
                </dict>
                <dict>
                  <key>segmentType</key>
                  <string>curve</string>
                  <key>smooth</key>
                  <true/>
                  <key>x</key>
                  <integer>245</integer>
                  <key>y</key>
                  <integer>282</integer>
                </dict>
                <dict>
                  <key>smooth</key>
                  <false/>
                  <key>x</key>
                  <integer>281</integer>
                  <key>y</key>
                  <integer>282</integer>
                </dict>
                <dict>
                  <key>smooth</key>
                  <false/>
                  <key>x</key>
                  <integer>301</integer>
                  <key>y</key>
                  <integer>259</integer>
                </dict>
                <dict>
                  <key>segmentType</key>
                  <string>curve</string>
                  <key>smooth</key>
                  <true/>
                  <key>x</key>
                  <integer>301</integer>
                  <key>y</key>
                  <integer>202</integer>
                </dict>
                <dict>
                  <key>segmentType</key>
                  <string>line</string>
                  <key>smooth</key>
                  <true/>
                  <key>x</key>
                  <integer>301</integer>
                  <key>y</key>
                  <integer>69</integer>
                </dict>
                <dict>
                  <key>smooth</key>
                  <false/>
                  <key>x</key>
                  <integer>301</integer>
                  <key>y</key>
                  <integer>24</integer>
                </dict>
                <dict>
                  <key>smooth</key>
                  <false/>
                  <key>x</key>
                  <integer>290</integer>
                  <key>y</key>
                  <integer>10</integer>
                </dict>
                <dict>
                  <key>segmentType</key>
                  <string>curve</string>
                  <key>smooth</key>
                  <true/>
                  <key>x</key>
                  <integer>255</integer>
                  <key>y</key>
                  <integer>10</integer>
                </dict>
                <dict>
                  <key>smooth</key>
                  <false/>
                  <key>x</key>
                  <integer>252</integer>
                  <key>y</key>
                  <integer>10</integer>
                </dict>
                <dict>
                  <key>smooth</key>
                  <false/>
                  <key>x</key>
                  <integer>252</integer>
                  <key>y</key>
                  <integer>0</integer>
                </dict>
                <dict>
                  <key>segmentType</key>
                  <string>curve</string>
                  <key>smooth</key>
                  <true/>
                  <key>x</key>
                  <integer>255</integer>
                  <key>y</key>
                  <integer>0</integer>
                </dict>
              </array>
            </dict>
          </array>
          <key>lib</key>
          <dict>
          </dict>
          <key>name</key>
          <string>m</string>
          <key>unicodes</key>
          <array>
          </array>
          <key>width</key>
          <integer>664</integer>
        </dict>
        <key>background</key>
        <dict>
          <key>anchors</key>
          <array>
          </array>
          <key>components</key>
          <array>
          </array>
          <key>contours</key>
          <array>
            <dict>
              <key>points</key>
              <array>
                <dict>
                  <key>smooth</key>
                  <false/>
                  <key>x</key>
                  <integer>56</integer>
                  <key>y</key>
                  <integer>0</integer>
                </dict>
                <dict>
                  <key>smooth</key>
                  <false/>
                  <key>x</key>
                  <integer>86</integer>
                  <key>y</key>
                  <integer>2</integer>
                </dict>
                <dict>
                  <key>segmentType</key>
                  <string>curve</string>
                  <key>smooth</key>
                  <true/>
                  <key>x</key>
                  <integer>119</integer>
                  <key>y</key>
                  <integer>2</integer>
                </dict>
                <dict>
                  <key>smooth</key>
                  <false/>
                  <key>x</key>
                  <integer>152</integer>
                  <key>y</key>
                  <integer>2</integer>
                </dict>
                <dict>
                  <key>smooth</key>
                  <false/>
                  <key>x</key>
                  <integer>182</integer>
                  <key>y</key>
                  <integer>0</integer>
                </dict>
                <dict>
                  <key>segmentType</key>
                  <string>curve</string>
                  <key>smooth</key>
                  <true/>
                  <key>x</key>
                  <integer>205</integer>
                  <key>y</key>
                  <integer>0</integer>
                </dict>
                <dict>
                  <key>smooth</key>
                  <false/>
                  <key>x</key>
                  <integer>209</integer>
                  <key>y</key>
                  <integer>0</integer>
                </dict>
                <dict>
                  <key>smooth</key>
                  <false/>
                  <key>x</key>
                  <integer>209</integer>
                  <key>y</key>
                  <integer>10</integer>
                </dict>
                <dict>
                  <key>segmentType</key>
                  <string>curve</string>
                  <key>smooth</key>
                  <true/>
                  <key>x</key>
                  <integer>205</integer>
                  <key>y</key>
                  <integer>10</integer>
                </dict>
                <dict>
                  <key>smooth</key>
                  <false/>
                  <key>x</key>
                  <integer>170</integer>
                  <key>y</key>
                  <integer>10</integer>
                </dict>
                <dict>
                  <key>smooth</key>
                  <false/>
                  <key>x</key>
                  <integer>159</integer>
                  <key>y</key>
                  <integer>24</integer>
                </dict>
                <dict>
                  <key>segmentType</key>
                  <string>curve</string>
                  <key>smooth</key>
                  <true/>
                  <key>x</key>
                  <integer>159</integer>
                  <key>y</key>
                  <integer>69</integer>
                </dict>
                <dict>
                  <key>segmentType</key>
                  <string>line</string>
                  <key>smooth</key>
                  <true/>
                  <key>x</key>
                  <integer>159</integer>
                  <key>y</key>
                  <integer>259</integer>
                </dict>
                <dict>
                  <key>smooth</key>
                  <false/>
                  <key>x</key>
                  <integer>159</integer>
                  <key>y</key>
                  <integer>315</integer>
                </dict>
                <dict>
                  <key>smooth</key>
                  <false/>
                  <key>x</key>
                  <integer>141</integer>
                  <key>y</key>
                  <integer>344</integer>
                </dict>
                <dict>
                  <key>segmentType</key>
                  <string>curve</string>
                  <key>smooth</key>
                  <true/>
                  <key>x</key>
                  <integer>128</integer>
                  <key>y</key>
                  <integer>338</integer>
                </dict>
                <dict>
                  <key>segmentType</key>
                  <string>line</string>
                  <key>smooth</key>
                  <true/>
                  <key>x</key>
                  <integer>6</integer>
                  <key>y</key>
                  <integer>279</integer>
                </dict>
                <dict>
                  <key>smooth</key>
                  <false/>
                  <key>x</key>
                  <integer>3</integer>
                  <key>y</key>
                  <integer>278</integer>
                </dict>
                <dict>
                  <key>smooth</key>
                  <false/>
                  <key>x</key>
                  <integer>6</integer>
                  <key>y</key>
                  <integer>267</integer>
                </dict>
                <dict>
                  <key>segmentType</key>
                  <string>curve</string>
                  <key>smooth</key>
                  <true/>
                  <key>x</key>
                  <integer>10</integer>
                  <key>y</key>
                  <integer>269</integer>
                </dict>
                <dict>
                  <key>smooth</key>
                  <false/>
                  <key>x</key>
                  <integer>27</integer>
                  <key>y</key>
                  <integer>277</integer>
                </dict>
                <dict>
                  <key>smooth</key>
                  <false/>
                  <key>x</key>
                  <integer>41</integer>
                  <key>y</key>
                  <integer>281</integer>
                </dict>
                <dict>
                  <key>segmentType</key>
                  <string>curve</string>
                  <key>smooth</key>
                  <true/>
                  <key>x</key>
                  <integer>51</integer>
                  <key>y</key>
                  <integer>281</integer>
                </dict>
                <dict>
                  <key>smooth</key>
                  <false/>
                  <key>x</key>
                  <integer>71</integer>
                  <key>y</key>
                  <integer>281</integer>
                </dict>
                <dict>
                  <key>smooth</key>
                  <false/>
                  <key>x</key>
                  <integer>79</integer>
                  <key>y</key>
                  <integer>265</integer>
                </dict>
                <dict>
                  <key>segmentType</key>
                  <string>curve</string>
                  <key>smooth</key>
                  <true/>
                  <key>x</key>
                  <integer>79</integer>
                  <key>y</key>
                  <integer>230</integer>
                </dict>
                <dict>
                  <key>segmentType</key>
                  <string>line</string>
                  <key>smooth</key>
                  <true/>
                  <key>x</key>
                  <integer>79</integer>
                  <key>y</key>
                  <integer>69</integer>
                </dict>
                <dict>
                  <key>smooth</key>
                  <false/>
                  <key>x</key>
                  <integer>79</integer>
                  <key>y</key>
                  <integer>24</integer>
                </dict>
                <dict>
                  <key>smooth</key>
                  <false/>
                  <key>x</key>
                  <integer>68</integer>
                  <key>y</key>
                  <integer>10</integer>
                </dict>
                <dict>
                  <key>segmentType</key>
                  <string>curve</string>
                  <key>smooth</key>
                  <true/>
                  <key>x</key>
                  <integer>33</integer>
                  <key>y</key>
                  <integer>10</integer>
                </dict>
                <dict>
                  <key>smooth</key>
                  <false/>
                  <key>x</key>
                  <integer>30</integer>
                  <key>y</key>
                  <integer>10</integer>
                </dict>
                <dict>
                  <key>smooth</key>
                  <false/>
                  <key>x</key>
                  <integer>30</integer>
                  <key>y</key>
                  <integer>0</integer>
                </dict>
                <dict>
                  <key>segmentType</key>
                  <string>curve</string>
                  <key>smooth</key>
                  <true/>
                  <key>x</key>
                  <integer>33</integer>
                  <key>y</key>
                  <integer>0</integer>
                </dict>
              </array>
            </dict>
          </array>
          <key>lib</key>
          <dict>
          </dict>
          <key>name</key>
          <string>m</string>
          <key>unicodes</key>
          <array>
          </array>
          <key>width</key>
          <integer>664</integer>
        </dict>
      </dict>
    </dict>
  </lib>
</glyph>
