<?xml version="1.0" encoding="UTF-8"?>
<glyph name="ncaron.ss13.sc.ss05" format="1">
  <advance width="515"/>
  <outline>
    <component base="n.sc.ss05"/>
    <component base="caroncomb.sc.ss13" xOffset="152"/>
  </outline>
</glyph>
