<?xml version="1.0" encoding="UTF-8"?>
<glyph name="Ocaron" format="1">
  <advance width="655"/>
  <unicode hex="01D1"/>
  <outline>
    <component base="O"/>
    <component base="caron.case" xOffset="214" yOffset="204"/>
  </outline>
</glyph>
