<?xml version="1.0" encoding="UTF-8"?>
<glyph name="Ograve" format="1">
  <advance width="655"/>
  <unicode hex="00D2"/>
  <outline>
    <component base="O"/>
    <component base="gravecomb.case" xOffset="206" yOffset="204"/>
  </outline>
</glyph>
