<?xml version="1.0" encoding="UTF-8"?>
<glyph name="Rdotbelow.short.c2sc.ss01" format="1">
  <advance width="463"/>
  <outline>
    <component base="r.sc.ss01"/>
    <component base="dotbelowcomb" xOffset="173"/>
  </outline>
  <lib>
    <dict>
      <key>com.schriftgestaltung.Glyphs.ColorIndex</key>
      <integer>8</integer>
      <key>public.markColor</key>
      <string>0.5,0.09,0.79,1</string>
    </dict>
  </lib>
</glyph>
