<?xml version="1.0" encoding="UTF-8"?>
<glyph name="U-cy" format="1">
  <advance width="544"/>
  <unicode hex="0423"/>
  <outline>
    <contour>
      <point x="268" y="133" type="line" smooth="yes"/>
      <point x="231" y="63"/>
      <point x="144" y="10"/>
      <point x="68" y="10" type="curve" smooth="yes"/>
      <point x="65" y="10"/>
      <point x="65" y="0"/>
      <point x="68" y="0" type="curve" smooth="yes"/>
      <point x="230" y="0" type="line" smooth="yes"/>
      <point x="253" y="0"/>
      <point x="246" y="32"/>
      <point x="289" y="121" type="curve" smooth="yes"/>
      <point x="445" y="444" type="line" smooth="yes"/>
      <point x="471" y="496"/>
      <point x="507" y="524"/>
      <point x="549" y="524" type="curve" smooth="yes"/>
      <point x="552" y="524"/>
      <point x="552" y="534"/>
      <point x="549" y="534" type="curve" smooth="yes"/>
      <point x="516" y="534"/>
      <point x="499" y="532"/>
      <point x="463" y="532" type="curve" smooth="yes"/>
      <point x="419" y="532"/>
      <point x="397" y="534"/>
      <point x="367" y="534" type="curve" smooth="yes"/>
      <point x="364" y="534"/>
      <point x="364" y="524"/>
      <point x="367" y="524" type="curve" smooth="yes"/>
      <point x="419" y="524"/>
      <point x="442" y="489"/>
      <point x="419" y="444" type="curve" smooth="yes"/>
    </contour>
    <contour>
      <point x="321" y="211" type="line"/>
      <point x="188" y="472" type="line" smooth="yes"/>
      <point x="167" y="513"/>
      <point x="189" y="524"/>
      <point x="233" y="524" type="curve" smooth="yes"/>
      <point x="236" y="524"/>
      <point x="236" y="534"/>
      <point x="233" y="534" type="curve" smooth="yes"/>
      <point x="211" y="534"/>
      <point x="186" y="532"/>
      <point x="107" y="532" type="curve" smooth="yes"/>
      <point x="42" y="532"/>
      <point x="43" y="534"/>
      <point x="14" y="534" type="curve" smooth="yes"/>
      <point x="11" y="534"/>
      <point x="11" y="524"/>
      <point x="14" y="524" type="curve" smooth="yes"/>
      <point x="48" y="524"/>
      <point x="64" y="507"/>
      <point x="85" y="463" type="curve" smooth="yes"/>
      <point x="272" y="110" type="line"/>
    </contour>
    <contour>
      <point x="300" y="534" type="move" name="top"/>
    </contour>
  </outline>
  <lib>
    <dict>
      <key>com.schriftgestaltung.Glyphs.rightMetricsKey</key>
      <string>V</string>
      <key>com.typemytype.robofont.layerData</key>
      <dict>
        <key>background</key>
        <dict>
          <key>anchors</key>
          <array>
          </array>
          <key>components</key>
          <array>
          </array>
          <key>contours</key>
          <array>
            <dict>
              <key>points</key>
              <array>
                <dict>
                  <key>smooth</key>
                  <false/>
                  <key>x</key>
                  <integer>556</integer>
                  <key>y</key>
                  <integer>534</integer>
                </dict>
                <dict>
                  <key>smooth</key>
                  <false/>
                  <key>x</key>
                  <integer>541</integer>
                  <key>y</key>
                  <integer>532</integer>
                </dict>
                <dict>
                  <key>segmentType</key>
                  <string>curve</string>
                  <key>smooth</key>
                  <true/>
                  <key>x</key>
                  <integer>509</integer>
                  <key>y</key>
                  <integer>532</integer>
                </dict>
                <dict>
                  <key>smooth</key>
                  <false/>
                  <key>x</key>
                  <integer>461</integer>
                  <key>y</key>
                  <integer>532</integer>
                </dict>
                <dict>
                  <key>smooth</key>
                  <false/>
                  <key>x</key>
                  <integer>436</integer>
                  <key>y</key>
                  <integer>534</integer>
                </dict>
                <dict>
                  <key>segmentType</key>
                  <string>curve</string>
                  <key>smooth</key>
                  <true/>
                  <key>x</key>
                  <integer>403</integer>
                  <key>y</key>
                  <integer>534</integer>
                </dict>
                <dict>
                  <key>smooth</key>
                  <false/>
                  <key>x</key>
                  <integer>400</integer>
                  <key>y</key>
                  <integer>534</integer>
                </dict>
                <dict>
                  <key>smooth</key>
                  <false/>
                  <key>x</key>
                  <integer>400</integer>
                  <key>y</key>
                  <integer>524</integer>
                </dict>
                <dict>
                  <key>segmentType</key>
                  <string>curve</string>
                  <key>smooth</key>
                  <true/>
                  <key>x</key>
                  <integer>403</integer>
                  <key>y</key>
                  <integer>524</integer>
                </dict>
                <dict>
                  <key>smooth</key>
                  <false/>
                  <key>x</key>
                  <integer>459</integer>
                  <key>y</key>
                  <integer>524</integer>
                </dict>
                <dict>
                  <key>smooth</key>
                  <false/>
                  <key>x</key>
                  <integer>477</integer>
                  <key>y</key>
                  <integer>481</integer>
                </dict>
                <dict>
                  <key>segmentType</key>
                  <string>curve</string>
                  <key>smooth</key>
                  <true/>
                  <key>x</key>
                  <integer>456</integer>
                  <key>y</key>
                  <integer>426</integer>
                </dict>
                <dict>
                  <key>segmentType</key>
                  <string>line</string>
                  <key>smooth</key>
                  <false/>
                  <key>x</key>
                  <integer>313</integer>
                  <key>y</key>
                  <integer>46</integer>
                </dict>
                <dict>
                  <key>segmentType</key>
                  <string>line</string>
                  <key>smooth</key>
                  <false/>
                  <key>x</key>
                  <integer>353</integer>
                  <key>y</key>
                  <integer>107</integer>
                </dict>
                <dict>
                  <key>segmentType</key>
                  <string>line</string>
                  <key>smooth</key>
                  <true/>
                  <key>x</key>
                  <integer>192</integer>
                  <key>y</key>
                  <integer>448</integer>
                </dict>
                <dict>
                  <key>smooth</key>
                  <false/>
                  <key>x</key>
                  <integer>170</integer>
                  <key>y</key>
                  <integer>494</integer>
                </dict>
                <dict>
                  <key>smooth</key>
                  <false/>
                  <key>x</key>
                  <integer>188</integer>
                  <key>y</key>
                  <integer>524</integer>
                </dict>
                <dict>
                  <key>segmentType</key>
                  <string>curve</string>
                  <key>smooth</key>
                  <true/>
                  <key>x</key>
                  <integer>237</integer>
                  <key>y</key>
                  <integer>524</integer>
                </dict>
                <dict>
                  <key>smooth</key>
                  <false/>
                  <key>x</key>
                  <integer>240</integer>
                  <key>y</key>
                  <integer>524</integer>
                </dict>
                <dict>
                  <key>smooth</key>
                  <false/>
                  <key>x</key>
                  <integer>240</integer>
                  <key>y</key>
                  <integer>534</integer>
                </dict>
                <dict>
                  <key>segmentType</key>
                  <string>curve</string>
                  <key>smooth</key>
                  <true/>
                  <key>x</key>
                  <integer>237</integer>
                  <key>y</key>
                  <integer>534</integer>
                </dict>
                <dict>
                  <key>smooth</key>
                  <false/>
                  <key>x</key>
                  <integer>209</integer>
                  <key>y</key>
                  <integer>534</integer>
                </dict>
                <dict>
                  <key>smooth</key>
                  <false/>
                  <key>x</key>
                  <integer>178</integer>
                  <key>y</key>
                  <integer>532</integer>
                </dict>
                <dict>
                  <key>segmentType</key>
                  <string>curve</string>
                  <key>smooth</key>
                  <true/>
                  <key>x</key>
                  <integer>83</integer>
                  <key>y</key>
                  <integer>532</integer>
                </dict>
                <dict>
                  <key>smooth</key>
                  <false/>
                  <key>x</key>
                  <integer>40</integer>
                  <key>y</key>
                  <integer>532</integer>
                </dict>
                <dict>
                  <key>smooth</key>
                  <false/>
                  <key>x</key>
                  <integer>40</integer>
                  <key>y</key>
                  <integer>534</integer>
                </dict>
                <dict>
                  <key>segmentType</key>
                  <string>curve</string>
                  <key>smooth</key>
                  <true/>
                  <key>x</key>
                  <integer>20</integer>
                  <key>y</key>
                  <integer>534</integer>
                </dict>
                <dict>
                  <key>smooth</key>
                  <false/>
                  <key>x</key>
                  <integer>17</integer>
                  <key>y</key>
                  <integer>534</integer>
                </dict>
                <dict>
                  <key>smooth</key>
                  <false/>
                  <key>x</key>
                  <integer>17</integer>
                  <key>y</key>
                  <integer>524</integer>
                </dict>
                <dict>
                  <key>segmentType</key>
                  <string>curve</string>
                  <key>smooth</key>
                  <true/>
                  <key>x</key>
                  <integer>20</integer>
                  <key>y</key>
                  <integer>524</integer>
                </dict>
                <dict>
                  <key>smooth</key>
                  <false/>
                  <key>x</key>
                  <integer>47</integer>
                  <key>y</key>
                  <integer>524</integer>
                </dict>
                <dict>
                  <key>smooth</key>
                  <false/>
                  <key>x</key>
                  <integer>66</integer>
                  <key>y</key>
                  <integer>503</integer>
                </dict>
                <dict>
                  <key>segmentType</key>
                  <string>curve</string>
                  <key>smooth</key>
                  <true/>
                  <key>x</key>
                  <integer>85</integer>
                  <key>y</key>
                  <integer>463</integer>
                </dict>
                <dict>
                  <key>segmentType</key>
                  <string>line</string>
                  <key>smooth</key>
                  <true/>
                  <key>x</key>
                  <integer>303</integer>
                  <key>y</key>
                  <integer>1</integer>
                </dict>
                <dict>
                  <key>smooth</key>
                  <false/>
                  <key>x</key>
                  <integer>305</integer>
                  <key>y</key>
                  <integer>-3</integer>
                </dict>
                <dict>
                  <key>smooth</key>
                  <false/>
                  <key>x</key>
                  <integer>320</integer>
                  <key>y</key>
                  <integer>-3</integer>
                </dict>
                <dict>
                  <key>segmentType</key>
                  <string>curve</string>
                  <key>smooth</key>
                  <true/>
                  <key>x</key>
                  <integer>322</integer>
                  <key>y</key>
                  <integer>1</integer>
                </dict>
                <dict>
                  <key>segmentType</key>
                  <string>line</string>
                  <key>smooth</key>
                  <true/>
                  <key>x</key>
                  <integer>480</integer>
                  <key>y</key>
                  <integer>423</integer>
                </dict>
                <dict>
                  <key>smooth</key>
                  <false/>
                  <key>x</key>
                  <integer>503</integer>
                  <key>y</key>
                  <integer>485</integer>
                </dict>
                <dict>
                  <key>smooth</key>
                  <false/>
                  <key>x</key>
                  <integer>543</integer>
                  <key>y</key>
                  <integer>524</integer>
                </dict>
                <dict>
                  <key>segmentType</key>
                  <string>curve</string>
                  <key>smooth</key>
                  <true/>
                  <key>x</key>
                  <integer>585</integer>
                  <key>y</key>
                  <integer>524</integer>
                </dict>
                <dict>
                  <key>smooth</key>
                  <false/>
                  <key>x</key>
                  <integer>588</integer>
                  <key>y</key>
                  <integer>524</integer>
                </dict>
                <dict>
                  <key>smooth</key>
                  <false/>
                  <key>x</key>
                  <integer>588</integer>
                  <key>y</key>
                  <integer>534</integer>
                </dict>
                <dict>
                  <key>segmentType</key>
                  <string>curve</string>
                  <key>smooth</key>
                  <true/>
                  <key>x</key>
                  <integer>585</integer>
                  <key>y</key>
                  <integer>534</integer>
                </dict>
              </array>
            </dict>
          </array>
          <key>lib</key>
          <dict>
          </dict>
          <key>name</key>
          <string>U-cy</string>
          <key>unicodes</key>
          <array>
          </array>
          <key>width</key>
          <integer>544</integer>
        </dict>
      </dict>
    </dict>
  </lib>
</glyph>
