<?xml version="1.0" encoding="UTF-8"?>
<glyph name="Udieresiscaron.ss01" format="1">
  <advance width="648"/>
  <outline>
    <component base="U.ss01"/>
    <component base="caron.case.dieresis" xOffset="186" yOffset="204"/>
  </outline>
</glyph>
