<?xml version="1.0" encoding="UTF-8"?>
<glyph name="circumflexcomb_hookabovecomb" format="1">
  <advance width="303"/>
  <outline>
    <component base="circumflexcomb.case" xOffset="53" yOffset="-184"/>
    <component base="hookabovecomb.mini" xOffset="107" yOffset="-95"/>
    <contour>
      <point x="69" y="530" type="move" name="top"/>
    </contour>
    <contour>
      <point x="137" y="330" type="move" name="_top"/>
    </contour>
  </outline>
  <lib>
    <dict>
      <key>com.schriftgestaltung.Glyphs.ColorIndex</key>
      <integer>9</integer>
      <key>public.markColor</key>
      <string>0.98,0.36,0.67,1</string>
    </dict>
  </lib>
</glyph>
