<?xml version="1.0" encoding="UTF-8"?>
<glyph name="J.loclNLD" format="1">
  <advance width="288"/>
  <outline>
    <component base="J"/>
  </outline>
  <lib>
    <dict>
      <key>com.schriftgestaltung.Glyphs.ColorIndex</key>
      <integer>6</integer>
      <key>com.schriftgestaltung.Glyphs.rightMetricsKey</key>
      <string>J</string>
      <key>com.typemytype.robofont.layerData</key>
      <dict>
        <key>Bold Jan 29 15, 12:22</key>
        <dict>
          <key>anchors</key>
          <array>
            <dict>
              <key>name</key>
              <string>top</string>
              <key>x</key>
              <integer>130</integer>
              <key>y</key>
              <integer>534</integer>
            </dict>
          </array>
          <key>components</key>
          <array>
          </array>
          <key>contours</key>
          <array>
            <dict>
              <key>points</key>
              <array>
                <dict>
                  <key>smooth</key>
                  <false/>
                  <key>x</key>
                  <integer>201</integer>
                  <key>y</key>
                  <integer>534</integer>
                </dict>
                <dict>
                  <key>smooth</key>
                  <false/>
                  <key>x</key>
                  <integer>171</integer>
                  <key>y</key>
                  <integer>532</integer>
                </dict>
                <dict>
                  <key>segmentType</key>
                  <string>curve</string>
                  <key>smooth</key>
                  <true/>
                  <key>x</key>
                  <integer>135</integer>
                  <key>y</key>
                  <integer>532</integer>
                </dict>
                <dict>
                  <key>smooth</key>
                  <false/>
                  <key>x</key>
                  <integer>95</integer>
                  <key>y</key>
                  <integer>532</integer>
                </dict>
                <dict>
                  <key>smooth</key>
                  <false/>
                  <key>x</key>
                  <integer>58</integer>
                  <key>y</key>
                  <integer>534</integer>
                </dict>
                <dict>
                  <key>segmentType</key>
                  <string>curve</string>
                  <key>smooth</key>
                  <true/>
                  <key>x</key>
                  <integer>26</integer>
                  <key>y</key>
                  <integer>534</integer>
                </dict>
                <dict>
                  <key>smooth</key>
                  <false/>
                  <key>x</key>
                  <integer>23</integer>
                  <key>y</key>
                  <integer>534</integer>
                </dict>
                <dict>
                  <key>smooth</key>
                  <false/>
                  <key>x</key>
                  <integer>23</integer>
                  <key>y</key>
                  <integer>524</integer>
                </dict>
                <dict>
                  <key>segmentType</key>
                  <string>curve</string>
                  <key>smooth</key>
                  <true/>
                  <key>x</key>
                  <integer>26</integer>
                  <key>y</key>
                  <integer>524</integer>
                </dict>
                <dict>
                  <key>smooth</key>
                  <false/>
                  <key>x</key>
                  <integer>100</integer>
                  <key>y</key>
                  <integer>524</integer>
                </dict>
                <dict>
                  <key>smooth</key>
                  <false/>
                  <key>x</key>
                  <integer>113</integer>
                  <key>y</key>
                  <integer>514</integer>
                </dict>
                <dict>
                  <key>segmentType</key>
                  <string>curve</string>
                  <key>smooth</key>
                  <true/>
                  <key>x</key>
                  <integer>113</integer>
                  <key>y</key>
                  <integer>465</integer>
                </dict>
                <dict>
                  <key>segmentType</key>
                  <string>line</string>
                  <key>smooth</key>
                  <true/>
                  <key>x</key>
                  <integer>113</integer>
                  <key>y</key>
                  <integer>-21</integer>
                </dict>
                <dict>
                  <key>smooth</key>
                  <false/>
                  <key>x</key>
                  <integer>113</integer>
                  <key>y</key>
                  <integer>-105</integer>
                </dict>
                <dict>
                  <key>smooth</key>
                  <false/>
                  <key>x</key>
                  <integer>91</integer>
                  <key>y</key>
                  <integer>-150</integer>
                </dict>
                <dict>
                  <key>segmentType</key>
                  <string>curve</string>
                  <key>smooth</key>
                  <true/>
                  <key>x</key>
                  <integer>43</integer>
                  <key>y</key>
                  <integer>-150</integer>
                </dict>
                <dict>
                  <key>smooth</key>
                  <false/>
                  <key>x</key>
                  <integer>-1</integer>
                  <key>y</key>
                  <integer>-150</integer>
                </dict>
                <dict>
                  <key>smooth</key>
                  <false/>
                  <key>x</key>
                  <integer>15</integer>
                  <key>y</key>
                  <integer>-89</integer>
                </dict>
                <dict>
                  <key>segmentType</key>
                  <string>curve</string>
                  <key>smooth</key>
                  <true/>
                  <key>x</key>
                  <integer>-21</integer>
                  <key>y</key>
                  <integer>-89</integer>
                </dict>
                <dict>
                  <key>smooth</key>
                  <false/>
                  <key>x</key>
                  <integer>-35</integer>
                  <key>y</key>
                  <integer>-89</integer>
                </dict>
                <dict>
                  <key>smooth</key>
                  <false/>
                  <key>x</key>
                  <integer>-44</integer>
                  <key>y</key>
                  <integer>-99</integer>
                </dict>
                <dict>
                  <key>segmentType</key>
                  <string>curve</string>
                  <key>smooth</key>
                  <true/>
                  <key>x</key>
                  <integer>-44</integer>
                  <key>y</key>
                  <integer>-116</integer>
                </dict>
                <dict>
                  <key>smooth</key>
                  <false/>
                  <key>x</key>
                  <integer>-44</integer>
                  <key>y</key>
                  <integer>-141</integer>
                </dict>
                <dict>
                  <key>smooth</key>
                  <false/>
                  <key>x</key>
                  <integer>-18</integer>
                  <key>y</key>
                  <integer>-163</integer>
                </dict>
                <dict>
                  <key>segmentType</key>
                  <string>curve</string>
                  <key>smooth</key>
                  <true/>
                  <key>x</key>
                  <integer>21</integer>
                  <key>y</key>
                  <integer>-163</integer>
                </dict>
                <dict>
                  <key>smooth</key>
                  <false/>
                  <key>x</key>
                  <integer>119</integer>
                  <key>y</key>
                  <integer>-163</integer>
                </dict>
                <dict>
                  <key>smooth</key>
                  <false/>
                  <key>x</key>
                  <integer>159</integer>
                  <key>y</key>
                  <integer>-98</integer>
                </dict>
                <dict>
                  <key>segmentType</key>
                  <string>curve</string>
                  <key>smooth</key>
                  <true/>
                  <key>x</key>
                  <integer>159</integer>
                  <key>y</key>
                  <integer>49</integer>
                </dict>
                <dict>
                  <key>segmentType</key>
                  <string>line</string>
                  <key>smooth</key>
                  <true/>
                  <key>x</key>
                  <integer>159</integer>
                  <key>y</key>
                  <integer>463</integer>
                </dict>
                <dict>
                  <key>smooth</key>
                  <false/>
                  <key>x</key>
                  <integer>159</integer>
                  <key>y</key>
                  <integer>512</integer>
                </dict>
                <dict>
                  <key>smooth</key>
                  <false/>
                  <key>x</key>
                  <integer>168</integer>
                  <key>y</key>
                  <integer>524</integer>
                </dict>
                <dict>
                  <key>segmentType</key>
                  <string>curve</string>
                  <key>smooth</key>
                  <true/>
                  <key>x</key>
                  <integer>225</integer>
                  <key>y</key>
                  <integer>524</integer>
                </dict>
                <dict>
                  <key>smooth</key>
                  <false/>
                  <key>x</key>
                  <integer>228</integer>
                  <key>y</key>
                  <integer>524</integer>
                </dict>
                <dict>
                  <key>smooth</key>
                  <false/>
                  <key>x</key>
                  <integer>228</integer>
                  <key>y</key>
                  <integer>534</integer>
                </dict>
                <dict>
                  <key>segmentType</key>
                  <string>curve</string>
                  <key>smooth</key>
                  <true/>
                  <key>x</key>
                  <integer>225</integer>
                  <key>y</key>
                  <integer>534</integer>
                </dict>
              </array>
            </dict>
          </array>
          <key>lib</key>
          <dict>
          </dict>
          <key>name</key>
          <string>J.loclNLD</string>
          <key>unicodes</key>
          <array>
          </array>
          <key>width</key>
          <integer>264</integer>
        </dict>
        <key>background</key>
        <dict>
          <key>anchors</key>
          <array>
          </array>
          <key>components</key>
          <array>
          </array>
          <key>contours</key>
          <array>
            <dict>
              <key>points</key>
              <array>
                <dict>
                  <key>segmentType</key>
                  <string>move</string>
                  <key>smooth</key>
                  <true/>
                  <key>x</key>
                  <integer>45</integer>
                  <key>y</key>
                  <integer>-205</integer>
                </dict>
              </array>
            </dict>
          </array>
          <key>lib</key>
          <dict>
          </dict>
          <key>name</key>
          <string>J.loclNLD</string>
          <key>unicodes</key>
          <array>
          </array>
          <key>width</key>
          <integer>288</integer>
        </dict>
      </dict>
      <key>public.markColor</key>
      <string>0,0.67,0.91,1</string>
    </dict>
  </lib>
</glyph>
