<?xml version="1.0" encoding="UTF-8"?>
<glyph name="liraTurkish" format="1">
  <advance width="370"/>
  <unicode hex="20BA"/>
  <outline>
    <contour>
      <point x="120" y="0" type="line" smooth="yes"/>
      <point x="296" y="0"/>
      <point x="296" y="65"/>
      <point x="333" y="65" type="curve" smooth="yes"/>
      <point x="340" y="65"/>
      <point x="344" y="61"/>
      <point x="344" y="51" type="curve" smooth="yes"/>
      <point x="344" y="46"/>
      <point x="353" y="46"/>
      <point x="353" y="51" type="curve" smooth="yes"/>
      <point x="353" y="86"/>
      <point x="352" y="121"/>
      <point x="352" y="209" type="curve" smooth="yes"/>
      <point x="352" y="213"/>
      <point x="343" y="213"/>
      <point x="342" y="210" type="curve" smooth="yes"/>
      <point x="321" y="87"/>
      <point x="261" y="23"/>
      <point x="191" y="23" type="curve" smooth="yes"/>
      <point x="174" y="23"/>
      <point x="167" y="27"/>
      <point x="167" y="73" type="curve" smooth="yes"/>
      <point x="166" y="330" type="line" smooth="yes"/>
      <point x="166" y="379"/>
      <point x="175" y="390"/>
      <point x="216" y="390" type="curve" smooth="yes"/>
      <point x="219" y="390"/>
      <point x="219" y="400"/>
      <point x="216" y="400" type="curve" smooth="yes"/>
      <point x="193" y="400"/>
      <point x="162" y="398"/>
      <point x="128" y="398" type="curve" smooth="yes"/>
      <point x="96" y="398"/>
      <point x="65" y="400"/>
      <point x="41" y="400" type="curve" smooth="yes"/>
      <point x="38" y="400"/>
      <point x="38" y="390"/>
      <point x="41" y="390" type="curve" smooth="yes"/>
      <point x="82" y="390"/>
      <point x="91" y="380"/>
      <point x="91" y="331" type="curve" smooth="yes"/>
      <point x="91" y="69" type="line" smooth="yes"/>
      <point x="91" y="20"/>
      <point x="82" y="10"/>
      <point x="41" y="10" type="curve" smooth="yes"/>
      <point x="38" y="10"/>
      <point x="38" y="0"/>
      <point x="41" y="0" type="curve" smooth="yes"/>
    </contour>
    <contour>
      <point x="249" y="269" type="line" smooth="yes"/>
      <point x="253" y="271"/>
      <point x="241" y="291"/>
      <point x="237" y="289" type="curve" smooth="yes"/>
      <point x="40" y="181" type="line" smooth="yes"/>
      <point x="36" y="179"/>
      <point x="48" y="159"/>
      <point x="52" y="161" type="curve" smooth="yes"/>
    </contour>
    <contour>
      <point x="249" y="204" type="line" smooth="yes"/>
      <point x="253" y="206"/>
      <point x="241" y="226"/>
      <point x="237" y="224" type="curve" smooth="yes"/>
      <point x="40" y="116" type="line" smooth="yes"/>
      <point x="36" y="114"/>
      <point x="48" y="94"/>
      <point x="52" y="96" type="curve" smooth="yes"/>
    </contour>
  </outline>
  <lib>
    <dict>
      <key>com.schriftgestaltung.Glyphs.ColorIndex</key>
      <integer>9</integer>
      <key>com.typemytype.robofont.layerData</key>
      <dict>
        <key>background</key>
        <dict>
          <key>anchors</key>
          <array>
          </array>
          <key>components</key>
          <array>
          </array>
          <key>contours</key>
          <array>
            <dict>
              <key>points</key>
              <array>
                <dict>
                  <key>segmentType</key>
                  <string>line</string>
                  <key>smooth</key>
                  <true/>
                  <key>x</key>
                  <integer>130</integer>
                  <key>y</key>
                  <integer>0</integer>
                </dict>
                <dict>
                  <key>smooth</key>
                  <false/>
                  <key>x</key>
                  <integer>285</integer>
                  <key>y</key>
                  <integer>0</integer>
                </dict>
                <dict>
                  <key>smooth</key>
                  <false/>
                  <key>x</key>
                  <integer>291</integer>
                  <key>y</key>
                  <integer>54</integer>
                </dict>
                <dict>
                  <key>segmentType</key>
                  <string>curve</string>
                  <key>smooth</key>
                  <true/>
                  <key>x</key>
                  <integer>314</integer>
                  <key>y</key>
                  <integer>54</integer>
                </dict>
                <dict>
                  <key>smooth</key>
                  <false/>
                  <key>x</key>
                  <integer>321</integer>
                  <key>y</key>
                  <integer>54</integer>
                </dict>
                <dict>
                  <key>smooth</key>
                  <false/>
                  <key>x</key>
                  <integer>324</integer>
                  <key>y</key>
                  <integer>50</integer>
                </dict>
                <dict>
                  <key>segmentType</key>
                  <string>curve</string>
                  <key>smooth</key>
                  <true/>
                  <key>x</key>
                  <integer>324</integer>
                  <key>y</key>
                  <integer>40</integer>
                </dict>
                <dict>
                  <key>smooth</key>
                  <false/>
                  <key>x</key>
                  <integer>324</integer>
                  <key>y</key>
                  <integer>35</integer>
                </dict>
                <dict>
                  <key>smooth</key>
                  <false/>
                  <key>x</key>
                  <integer>333</integer>
                  <key>y</key>
                  <integer>35</integer>
                </dict>
                <dict>
                  <key>segmentType</key>
                  <string>curve</string>
                  <key>smooth</key>
                  <true/>
                  <key>x</key>
                  <integer>333</integer>
                  <key>y</key>
                  <integer>40</integer>
                </dict>
                <dict>
                  <key>smooth</key>
                  <false/>
                  <key>x</key>
                  <integer>333</integer>
                  <key>y</key>
                  <integer>83</integer>
                </dict>
                <dict>
                  <key>smooth</key>
                  <false/>
                  <key>x</key>
                  <integer>335</integer>
                  <key>y</key>
                  <integer>123</integer>
                </dict>
                <dict>
                  <key>segmentType</key>
                  <string>curve</string>
                  <key>smooth</key>
                  <true/>
                  <key>x</key>
                  <integer>338</integer>
                  <key>y</key>
                  <integer>167</integer>
                </dict>
                <dict>
                  <key>smooth</key>
                  <false/>
                  <key>x</key>
                  <integer>338</integer>
                  <key>y</key>
                  <integer>169</integer>
                </dict>
                <dict>
                  <key>smooth</key>
                  <false/>
                  <key>x</key>
                  <integer>329</integer>
                  <key>y</key>
                  <integer>171</integer>
                </dict>
                <dict>
                  <key>segmentType</key>
                  <string>curve</string>
                  <key>smooth</key>
                  <true/>
                  <key>x</key>
                  <integer>328</integer>
                  <key>y</key>
                  <integer>168</integer>
                </dict>
                <dict>
                  <key>smooth</key>
                  <false/>
                  <key>x</key>
                  <integer>287</integer>
                  <key>y</key>
                  <integer>62</integer>
                </dict>
                <dict>
                  <key>smooth</key>
                  <false/>
                  <key>x</key>
                  <integer>254</integer>
                  <key>y</key>
                  <integer>23</integer>
                </dict>
                <dict>
                  <key>segmentType</key>
                  <string>curve</string>
                  <key>smooth</key>
                  <true/>
                  <key>x</key>
                  <integer>192</integer>
                  <key>y</key>
                  <integer>23</integer>
                </dict>
                <dict>
                  <key>smooth</key>
                  <false/>
                  <key>x</key>
                  <integer>174</integer>
                  <key>y</key>
                  <integer>23</integer>
                </dict>
                <dict>
                  <key>smooth</key>
                  <false/>
                  <key>x</key>
                  <integer>167</integer>
                  <key>y</key>
                  <integer>26</integer>
                </dict>
                <dict>
                  <key>segmentType</key>
                  <string>curve</string>
                  <key>smooth</key>
                  <true/>
                  <key>x</key>
                  <integer>167</integer>
                  <key>y</key>
                  <integer>73</integer>
                </dict>
                <dict>
                  <key>segmentType</key>
                  <string>line</string>
                  <key>smooth</key>
                  <true/>
                  <key>x</key>
                  <integer>166</integer>
                  <key>y</key>
                  <integer>260</integer>
                </dict>
                <dict>
                  <key>smooth</key>
                  <false/>
                  <key>x</key>
                  <integer>166</integer>
                  <key>y</key>
                  <integer>309</integer>
                </dict>
                <dict>
                  <key>smooth</key>
                  <false/>
                  <key>x</key>
                  <integer>175</integer>
                  <key>y</key>
                  <integer>320</integer>
                </dict>
                <dict>
                  <key>segmentType</key>
                  <string>curve</string>
                  <key>smooth</key>
                  <true/>
                  <key>x</key>
                  <integer>216</integer>
                  <key>y</key>
                  <integer>320</integer>
                </dict>
                <dict>
                  <key>smooth</key>
                  <false/>
                  <key>x</key>
                  <integer>219</integer>
                  <key>y</key>
                  <integer>320</integer>
                </dict>
                <dict>
                  <key>smooth</key>
                  <false/>
                  <key>x</key>
                  <integer>219</integer>
                  <key>y</key>
                  <integer>330</integer>
                </dict>
                <dict>
                  <key>segmentType</key>
                  <string>curve</string>
                  <key>smooth</key>
                  <true/>
                  <key>x</key>
                  <integer>216</integer>
                  <key>y</key>
                  <integer>330</integer>
                </dict>
                <dict>
                  <key>smooth</key>
                  <false/>
                  <key>x</key>
                  <integer>193</integer>
                  <key>y</key>
                  <integer>330</integer>
                </dict>
                <dict>
                  <key>smooth</key>
                  <false/>
                  <key>x</key>
                  <integer>162</integer>
                  <key>y</key>
                  <integer>328</integer>
                </dict>
                <dict>
                  <key>segmentType</key>
                  <string>curve</string>
                  <key>smooth</key>
                  <true/>
                  <key>x</key>
                  <integer>128</integer>
                  <key>y</key>
                  <integer>328</integer>
                </dict>
                <dict>
                  <key>smooth</key>
                  <false/>
                  <key>x</key>
                  <integer>96</integer>
                  <key>y</key>
                  <integer>328</integer>
                </dict>
                <dict>
                  <key>smooth</key>
                  <false/>
                  <key>x</key>
                  <integer>65</integer>
                  <key>y</key>
                  <integer>330</integer>
                </dict>
                <dict>
                  <key>segmentType</key>
                  <string>curve</string>
                  <key>smooth</key>
                  <true/>
                  <key>x</key>
                  <integer>41</integer>
                  <key>y</key>
                  <integer>330</integer>
                </dict>
                <dict>
                  <key>smooth</key>
                  <false/>
                  <key>x</key>
                  <integer>38</integer>
                  <key>y</key>
                  <integer>330</integer>
                </dict>
                <dict>
                  <key>smooth</key>
                  <false/>
                  <key>x</key>
                  <integer>38</integer>
                  <key>y</key>
                  <integer>320</integer>
                </dict>
                <dict>
                  <key>segmentType</key>
                  <string>curve</string>
                  <key>smooth</key>
                  <true/>
                  <key>x</key>
                  <integer>41</integer>
                  <key>y</key>
                  <integer>320</integer>
                </dict>
                <dict>
                  <key>smooth</key>
                  <false/>
                  <key>x</key>
                  <integer>82</integer>
                  <key>y</key>
                  <integer>320</integer>
                </dict>
                <dict>
                  <key>smooth</key>
                  <false/>
                  <key>x</key>
                  <integer>91</integer>
                  <key>y</key>
                  <integer>310</integer>
                </dict>
                <dict>
                  <key>segmentType</key>
                  <string>curve</string>
                  <key>smooth</key>
                  <true/>
                  <key>x</key>
                  <integer>91</integer>
                  <key>y</key>
                  <integer>261</integer>
                </dict>
                <dict>
                  <key>segmentType</key>
                  <string>line</string>
                  <key>smooth</key>
                  <true/>
                  <key>x</key>
                  <integer>91</integer>
                  <key>y</key>
                  <integer>69</integer>
                </dict>
                <dict>
                  <key>smooth</key>
                  <false/>
                  <key>x</key>
                  <integer>91</integer>
                  <key>y</key>
                  <integer>20</integer>
                </dict>
                <dict>
                  <key>smooth</key>
                  <false/>
                  <key>x</key>
                  <integer>82</integer>
                  <key>y</key>
                  <integer>10</integer>
                </dict>
                <dict>
                  <key>segmentType</key>
                  <string>curve</string>
                  <key>smooth</key>
                  <true/>
                  <key>x</key>
                  <integer>41</integer>
                  <key>y</key>
                  <integer>10</integer>
                </dict>
                <dict>
                  <key>smooth</key>
                  <false/>
                  <key>x</key>
                  <integer>38</integer>
                  <key>y</key>
                  <integer>10</integer>
                </dict>
                <dict>
                  <key>smooth</key>
                  <false/>
                  <key>x</key>
                  <integer>38</integer>
                  <key>y</key>
                  <integer>0</integer>
                </dict>
                <dict>
                  <key>segmentType</key>
                  <string>curve</string>
                  <key>smooth</key>
                  <true/>
                  <key>x</key>
                  <integer>41</integer>
                  <key>y</key>
                  <integer>0</integer>
                </dict>
              </array>
            </dict>
            <dict>
              <key>points</key>
              <array>
                <dict>
                  <key>segmentType</key>
                  <string>line</string>
                  <key>smooth</key>
                  <true/>
                  <key>x</key>
                  <integer>249</integer>
                  <key>y</key>
                  <integer>264</integer>
                </dict>
                <dict>
                  <key>smooth</key>
                  <false/>
                  <key>x</key>
                  <integer>253</integer>
                  <key>y</key>
                  <integer>266</integer>
                </dict>
                <dict>
                  <key>smooth</key>
                  <false/>
                  <key>x</key>
                  <integer>241</integer>
                  <key>y</key>
                  <integer>286</integer>
                </dict>
                <dict>
                  <key>segmentType</key>
                  <string>curve</string>
                  <key>smooth</key>
                  <true/>
                  <key>x</key>
                  <integer>237</integer>
                  <key>y</key>
                  <integer>284</integer>
                </dict>
                <dict>
                  <key>segmentType</key>
                  <string>line</string>
                  <key>smooth</key>
                  <true/>
                  <key>x</key>
                  <integer>40</integer>
                  <key>y</key>
                  <integer>176</integer>
                </dict>
                <dict>
                  <key>smooth</key>
                  <false/>
                  <key>x</key>
                  <integer>36</integer>
                  <key>y</key>
                  <integer>174</integer>
                </dict>
                <dict>
                  <key>smooth</key>
                  <false/>
                  <key>x</key>
                  <integer>48</integer>
                  <key>y</key>
                  <integer>154</integer>
                </dict>
                <dict>
                  <key>segmentType</key>
                  <string>curve</string>
                  <key>smooth</key>
                  <true/>
                  <key>x</key>
                  <integer>52</integer>
                  <key>y</key>
                  <integer>156</integer>
                </dict>
              </array>
            </dict>
            <dict>
              <key>points</key>
              <array>
                <dict>
                  <key>segmentType</key>
                  <string>line</string>
                  <key>smooth</key>
                  <true/>
                  <key>x</key>
                  <integer>249</integer>
                  <key>y</key>
                  <integer>204</integer>
                </dict>
                <dict>
                  <key>smooth</key>
                  <false/>
                  <key>x</key>
                  <integer>253</integer>
                  <key>y</key>
                  <integer>206</integer>
                </dict>
                <dict>
                  <key>smooth</key>
                  <false/>
                  <key>x</key>
                  <integer>241</integer>
                  <key>y</key>
                  <integer>226</integer>
                </dict>
                <dict>
                  <key>segmentType</key>
                  <string>curve</string>
                  <key>smooth</key>
                  <true/>
                  <key>x</key>
                  <integer>237</integer>
                  <key>y</key>
                  <integer>224</integer>
                </dict>
                <dict>
                  <key>segmentType</key>
                  <string>line</string>
                  <key>smooth</key>
                  <true/>
                  <key>x</key>
                  <integer>40</integer>
                  <key>y</key>
                  <integer>116</integer>
                </dict>
                <dict>
                  <key>smooth</key>
                  <false/>
                  <key>x</key>
                  <integer>36</integer>
                  <key>y</key>
                  <integer>114</integer>
                </dict>
                <dict>
                  <key>smooth</key>
                  <false/>
                  <key>x</key>
                  <integer>48</integer>
                  <key>y</key>
                  <integer>94</integer>
                </dict>
                <dict>
                  <key>segmentType</key>
                  <string>curve</string>
                  <key>smooth</key>
                  <true/>
                  <key>x</key>
                  <integer>52</integer>
                  <key>y</key>
                  <integer>96</integer>
                </dict>
              </array>
            </dict>
          </array>
          <key>lib</key>
          <dict>
          </dict>
          <key>name</key>
          <string>liraTurkish</string>
          <key>unicodes</key>
          <array>
          </array>
          <key>width</key>
          <integer>370</integer>
        </dict>
      </dict>
      <key>public.markColor</key>
      <string>0.98,0.36,0.67,1</string>
    </dict>
  </lib>
</glyph>
