<?xml version="1.0" encoding="UTF-8"?>
<glyph name="nine.tf" format="1">
  <advance width="420"/>
  <outline>
    <component base="nine.lf" xOffset="7"/>
  </outline>
  <lib>
    <dict>
      <key>com.typemytype.robofont.layerData</key>
      <dict>
        <key>background</key>
        <dict>
          <key>anchors</key>
          <array>
          </array>
          <key>components</key>
          <array>
          </array>
          <key>contours</key>
          <array>
            <dict>
              <key>points</key>
              <array>
                <dict>
                  <key>smooth</key>
                  <false/>
                  <key>x</key>
                  <integer>225</integer>
                  <key>y</key>
                  <integer>247</integer>
                </dict>
                <dict>
                  <key>smooth</key>
                  <false/>
                  <key>x</key>
                  <integer>262</integer>
                  <key>y</key>
                  <integer>264</integer>
                </dict>
                <dict>
                  <key>segmentType</key>
                  <string>curve</string>
                  <key>smooth</key>
                  <true/>
                  <key>x</key>
                  <integer>287</integer>
                  <key>y</key>
                  <integer>296</integer>
                </dict>
                <dict>
                  <key>smooth</key>
                  <false/>
                  <key>x</key>
                  <integer>289</integer>
                  <key>y</key>
                  <integer>299</integer>
                </dict>
                <dict>
                  <key>smooth</key>
                  <false/>
                  <key>x</key>
                  <integer>281</integer>
                  <key>y</key>
                  <integer>305</integer>
                </dict>
                <dict>
                  <key>segmentType</key>
                  <string>curve</string>
                  <key>smooth</key>
                  <true/>
                  <key>x</key>
                  <integer>278</integer>
                  <key>y</key>
                  <integer>302</integer>
                </dict>
                <dict>
                  <key>smooth</key>
                  <false/>
                  <key>x</key>
                  <integer>249</integer>
                  <key>y</key>
                  <integer>275</integer>
                </dict>
                <dict>
                  <key>smooth</key>
                  <false/>
                  <key>x</key>
                  <integer>230</integer>
                  <key>y</key>
                  <integer>268</integer>
                </dict>
                <dict>
                  <key>segmentType</key>
                  <string>curve</string>
                  <key>smooth</key>
                  <true/>
                  <key>x</key>
                  <integer>207</integer>
                  <key>y</key>
                  <integer>268</integer>
                </dict>
                <dict>
                  <key>smooth</key>
                  <false/>
                  <key>x</key>
                  <integer>142</integer>
                  <key>y</key>
                  <integer>268</integer>
                </dict>
                <dict>
                  <key>smooth</key>
                  <false/>
                  <key>x</key>
                  <integer>96</integer>
                  <key>y</key>
                  <integer>327</integer>
                </dict>
                <dict>
                  <key>segmentType</key>
                  <string>curve</string>
                  <key>smooth</key>
                  <true/>
                  <key>x</key>
                  <integer>96</integer>
                  <key>y</key>
                  <integer>416</integer>
                </dict>
                <dict>
                  <key>smooth</key>
                  <false/>
                  <key>x</key>
                  <integer>96</integer>
                  <key>y</key>
                  <integer>486</integer>
                </dict>
                <dict>
                  <key>smooth</key>
                  <false/>
                  <key>x</key>
                  <integer>124</integer>
                  <key>y</key>
                  <integer>529</integer>
                </dict>
                <dict>
                  <key>segmentType</key>
                  <string>curve</string>
                  <key>smooth</key>
                  <true/>
                  <key>x</key>
                  <integer>189</integer>
                  <key>y</key>
                  <integer>529</integer>
                </dict>
                <dict>
                  <key>smooth</key>
                  <false/>
                  <key>x</key>
                  <integer>289</integer>
                  <key>y</key>
                  <integer>529</integer>
                </dict>
                <dict>
                  <key>smooth</key>
                  <false/>
                  <key>x</key>
                  <integer>326</integer>
                  <key>y</key>
                  <integer>425</integer>
                </dict>
                <dict>
                  <key>segmentType</key>
                  <string>curve</string>
                  <key>smooth</key>
                  <true/>
                  <key>x</key>
                  <integer>326</integer>
                  <key>y</key>
                  <integer>325</integer>
                </dict>
                <dict>
                  <key>smooth</key>
                  <false/>
                  <key>x</key>
                  <integer>326</integer>
                  <key>y</key>
                  <integer>183</integer>
                </dict>
                <dict>
                  <key>smooth</key>
                  <false/>
                  <key>x</key>
                  <integer>252</integer>
                  <key>y</key>
                  <integer>26</integer>
                </dict>
                <dict>
                  <key>segmentType</key>
                  <string>curve</string>
                  <key>smooth</key>
                  <true/>
                  <key>x</key>
                  <integer>101</integer>
                  <key>y</key>
                  <integer>-1</integer>
                </dict>
                <dict>
                  <key>smooth</key>
                  <false/>
                  <key>x</key>
                  <integer>97</integer>
                  <key>y</key>
                  <integer>-2</integer>
                </dict>
                <dict>
                  <key>smooth</key>
                  <false/>
                  <key>x</key>
                  <integer>99</integer>
                  <key>y</key>
                  <integer>-11</integer>
                </dict>
                <dict>
                  <key>segmentType</key>
                  <string>curve</string>
                  <key>smooth</key>
                  <true/>
                  <key>x</key>
                  <integer>103</integer>
                  <key>y</key>
                  <integer>-10</integer>
                </dict>
                <dict>
                  <key>smooth</key>
                  <false/>
                  <key>x</key>
                  <integer>274</integer>
                  <key>y</key>
                  <integer>0</integer>
                </dict>
                <dict>
                  <key>smooth</key>
                  <false/>
                  <key>x</key>
                  <integer>373</integer>
                  <key>y</key>
                  <integer>175</integer>
                </dict>
                <dict>
                  <key>segmentType</key>
                  <string>curve</string>
                  <key>smooth</key>
                  <true/>
                  <key>x</key>
                  <integer>373</integer>
                  <key>y</key>
                  <integer>340</integer>
                </dict>
                <dict>
                  <key>smooth</key>
                  <false/>
                  <key>x</key>
                  <integer>373</integer>
                  <key>y</key>
                  <integer>457</integer>
                </dict>
                <dict>
                  <key>smooth</key>
                  <false/>
                  <key>x</key>
                  <integer>324</integer>
                  <key>y</key>
                  <integer>544</integer>
                </dict>
                <dict>
                  <key>segmentType</key>
                  <string>curve</string>
                  <key>smooth</key>
                  <true/>
                  <key>x</key>
                  <integer>212</integer>
                  <key>y</key>
                  <integer>544</integer>
                </dict>
                <dict>
                  <key>smooth</key>
                  <false/>
                  <key>x</key>
                  <integer>118</integer>
                  <key>y</key>
                  <integer>544</integer>
                </dict>
                <dict>
                  <key>smooth</key>
                  <false/>
                  <key>x</key>
                  <integer>49</integer>
                  <key>y</key>
                  <integer>482</integer>
                </dict>
                <dict>
                  <key>segmentType</key>
                  <string>curve</string>
                  <key>smooth</key>
                  <true/>
                  <key>x</key>
                  <integer>49</integer>
                  <key>y</key>
                  <integer>391</integer>
                </dict>
                <dict>
                  <key>smooth</key>
                  <false/>
                  <key>x</key>
                  <integer>49</integer>
                  <key>y</key>
                  <integer>316</integer>
                </dict>
                <dict>
                  <key>smooth</key>
                  <false/>
                  <key>x</key>
                  <integer>95</integer>
                  <key>y</key>
                  <integer>247</integer>
                </dict>
                <dict>
                  <key>segmentType</key>
                  <string>curve</string>
                  <key>smooth</key>
                  <true/>
                  <key>x</key>
                  <integer>182</integer>
                  <key>y</key>
                  <integer>247</integer>
                </dict>
              </array>
            </dict>
          </array>
          <key>lib</key>
          <dict>
          </dict>
          <key>name</key>
          <string>nine.tf</string>
          <key>unicodes</key>
          <array>
          </array>
          <key>width</key>
          <integer>420</integer>
        </dict>
      </dict>
    </dict>
  </lib>
</glyph>
