<?xml version="1.0" encoding="UTF-8"?>
<glyph name="Yacute.ss13" format="1">
  <advance width="493"/>
  <outline>
    <component base="Y"/>
    <component base="acutecomb.case.ss13" xOffset="193"/>
  </outline>
</glyph>
