<?xml version="1.0" encoding="UTF-8"?>
<glyph name="AE" format="1">
  <advance width="745"/>
  <unicode hex="00C6"/>
  <outline>
    <contour>
      <point x="34" y="0"/>
      <point x="50" y="3"/>
      <point x="86" y="3" type="curve" smooth="yes"/>
      <point x="130" y="3"/>
      <point x="153" y="0"/>
      <point x="187" y="0" type="curve" smooth="yes"/>
      <point x="192" y="0"/>
      <point x="192" y="10"/>
      <point x="187" y="10" type="curve" smooth="yes"/>
      <point x="114" y="10"/>
      <point x="101" y="40"/>
      <point x="146" y="105" type="curve" smooth="yes"/>
      <point x="432" y="516" type="line"/>
      <point x="413" y="503" type="line"/>
      <point x="413" y="69" type="line" smooth="yes"/>
      <point x="413" y="20"/>
      <point x="402" y="10"/>
      <point x="337" y="10" type="curve" smooth="yes"/>
      <point x="334" y="10"/>
      <point x="334" y="0"/>
      <point x="337" y="0" type="curve" smooth="yes"/>
      <point x="680" y="0" type="line" smooth="yes"/>
      <point x="690" y="0"/>
      <point x="693" y="3"/>
      <point x="693" y="13" type="curve" smooth="yes"/>
      <point x="693" y="48"/>
      <point x="697" y="94"/>
      <point x="701" y="124" type="curve" smooth="yes"/>
      <point x="701" y="127"/>
      <point x="691" y="128"/>
      <point x="691" y="125" type="curve" smooth="yes"/>
      <point x="682" y="60"/>
      <point x="646" y="16"/>
      <point x="601" y="16" type="curve" smooth="yes"/>
      <point x="532" y="16" type="line" smooth="yes"/>
      <point x="469" y="16"/>
      <point x="458" y="25"/>
      <point x="458" y="73" type="curve" smooth="yes"/>
      <point x="458" y="464" type="line" smooth="yes"/>
      <point x="458" y="510"/>
      <point x="469" y="518"/>
      <point x="532" y="518" type="curve" smooth="yes"/>
      <point x="581" y="518" type="line" smooth="yes"/>
      <point x="631" y="518"/>
      <point x="665" y="480"/>
      <point x="665" y="423" type="curve" smooth="yes"/>
      <point x="665" y="420"/>
      <point x="675" y="420"/>
      <point x="675" y="423" type="curve" smooth="yes"/>
      <point x="673" y="527" type="line" smooth="yes"/>
      <point x="673" y="532"/>
      <point x="671" y="534"/>
      <point x="665" y="534" type="curve" smooth="yes"/>
      <point x="337" y="534" type="line" smooth="yes"/>
      <point x="334" y="534"/>
      <point x="334" y="524"/>
      <point x="337" y="524" type="curve" smooth="yes"/>
      <point x="408" y="524"/>
      <point x="413" y="521"/>
      <point x="392" y="491" type="curve" smooth="yes"/>
      <point x="129" y="113" type="line" smooth="yes"/>
      <point x="85" y="50"/>
      <point x="37" y="10"/>
      <point x="4" y="10" type="curve" smooth="yes"/>
      <point x="-1" y="10"/>
      <point x="-1" y="0"/>
      <point x="4" y="0" type="curve" smooth="yes"/>
    </contour>
    <contour>
      <point x="443" y="270" type="line"/>
      <point x="437" y="286" type="line"/>
      <point x="261" y="286" type="line"/>
      <point x="248" y="270" type="line"/>
    </contour>
    <contour>
      <point x="632" y="198"/>
      <point x="642" y="198"/>
      <point x="642" y="201" type="curve" smooth="yes"/>
      <point x="642" y="229"/>
      <point x="640" y="252"/>
      <point x="640" y="278" type="curve" smooth="yes"/>
      <point x="640" y="298"/>
      <point x="641" y="312"/>
      <point x="641" y="345" type="curve" smooth="yes"/>
      <point x="641" y="348"/>
      <point x="631" y="348"/>
      <point x="631" y="345" type="curve" smooth="yes"/>
      <point x="631" y="302"/>
      <point x="613" y="286"/>
      <point x="561" y="286" type="curve" smooth="yes"/>
      <point x="437" y="286" type="line"/>
      <point x="437" y="270" type="line" smooth="yes"/>
      <point x="558" y="270" type="line" smooth="yes"/>
      <point x="613" y="270"/>
      <point x="632" y="252"/>
      <point x="632" y="201" type="curve" smooth="yes"/>
    </contour>
    <contour>
      <point x="495" y="534" type="move" name="top"/>
    </contour>
  </outline>
  <lib>
    <dict>
      <key>com.schriftgestaltung.Glyphs.layer.rightMetricsKey</key>
      <string>==E</string>
      <key>com.schriftgestaltung.Glyphs.rightMetricsKey</key>
      <string>E</string>
    </dict>
  </lib>
</glyph>
