<?xml version="1.0" encoding="UTF-8"?>
<glyph name="aacute.loclHUN.ss03.ss13" format="1">
  <advance width="419"/>
  <outline>
    <component base="a.ss03"/>
    <component base="acutecomb" xOffset="158"/>
  </outline>
</glyph>
