<?xml version="1.0" encoding="UTF-8"?>
<glyph name="adieresis.ss04" format="1">
  <advance width="358"/>
  <outline>
    <component base="a"/>
    <component base="dieresis.ss04" xOffset="92"/>
  </outline>
</glyph>
