<?xml version="1.0" encoding="UTF-8"?>
<glyph name="alpha-latin.sc.ss05" format="1">
  <advance width="479"/>
  <outline>
    <component base="a.sc"/>
  </outline>
  <lib>
    <dict>
      <key>com.schriftgestaltung.Glyphs.ColorIndex</key>
      <integer>8</integer>
      <key>public.markColor</key>
      <string>0.5,0.09,0.79,1</string>
    </dict>
  </lib>
</glyph>
