<?xml version="1.0" encoding="UTF-8"?>
<glyph name="oe" format="1">
  <advance width="586"/>
  <unicode hex="0153"/>
  <outline>
    <contour>
      <point x="263" y="-11"/>
      <point x="333" y="64"/>
      <point x="333" y="177" type="curve" smooth="yes"/>
      <point x="333" y="264"/>
      <point x="282" y="341"/>
      <point x="191" y="341" type="curve" smooth="yes"/>
      <point x="115" y="341"/>
      <point x="22" y="287"/>
      <point x="22" y="169" type="curve" smooth="yes"/>
      <point x="22" y="73"/>
      <point x="83" y="-11"/>
      <point x="175" y="-11" type="curve" smooth="yes"/>
    </contour>
    <contour>
      <point x="125" y="4"/>
      <point x="70" y="91"/>
      <point x="70" y="194" type="curve" smooth="yes"/>
      <point x="70" y="280"/>
      <point x="106" y="325"/>
      <point x="163" y="325" type="curve" smooth="yes"/>
      <point x="238" y="325"/>
      <point x="289" y="254"/>
      <point x="289" y="145" type="curve" smooth="yes"/>
      <point x="289" y="54"/>
      <point x="253" y="4"/>
      <point x="198" y="4" type="curve" smooth="yes"/>
    </contour>
    <contour>
      <point x="483" y="-10"/>
      <point x="519" y="3"/>
      <point x="556" y="38" type="curve" smooth="yes"/>
      <point x="559" y="41"/>
      <point x="553" y="48"/>
      <point x="550" y="46" type="curve" smooth="yes"/>
      <point x="527" y="25"/>
      <point x="498" y="17"/>
      <point x="471" y="17" type="curve" smooth="yes"/>
      <point x="388" y="17"/>
      <point x="333" y="77"/>
      <point x="333" y="177" type="curve" smooth="yes"/>
      <point x="333" y="261"/>
      <point x="371" y="321"/>
      <point x="439" y="321" type="curve" smooth="yes"/>
      <point x="479" y="321"/>
      <point x="505" y="291"/>
      <point x="500" y="234" type="curve"/>
      <point x="542" y="234" type="line" smooth="yes"/>
      <point x="550" y="234"/>
      <point x="552" y="240"/>
      <point x="552" y="253" type="curve" smooth="yes"/>
      <point x="552" y="305"/>
      <point x="522" y="338"/>
      <point x="468" y="338" type="curve" smooth="yes"/>
      <point x="365" y="338"/>
      <point x="289" y="248"/>
      <point x="289" y="145" type="curve" smooth="yes"/>
      <point x="289" y="60"/>
      <point x="340" y="-10"/>
      <point x="444" y="-10" type="curve" smooth="yes"/>
    </contour>
    <contour>
      <point x="510" y="234" type="line"/>
      <point x="510" y="247" type="line"/>
      <point x="323" y="243" type="line"/>
      <point x="324" y="233" type="line"/>
    </contour>
    <contour>
      <point x="687" y="10" type="move" name="ogonek"/>
    </contour>
    <contour>
      <point x="546" y="0" type="move" name="bottom"/>
    </contour>
    <contour>
      <point x="560" y="330" type="move" name="top"/>
    </contour>
  </outline>
  <lib>
    <dict>
      <key>com.schriftgestaltung.Glyphs.layer.leftMetricsKey</key>
      <string>==o-10</string>
      <key>com.schriftgestaltung.Glyphs.layer.rightMetricsKey</key>
      <string>==e-5</string>
      <key>com.schriftgestaltung.Glyphs.leftMetricsKey</key>
      <string>o</string>
      <key>com.schriftgestaltung.Glyphs.rightMetricsKey</key>
      <string>e</string>
    </dict>
  </lib>
</glyph>
