<?xml version="1.0" encoding="UTF-8"?>
<glyph name="T_T.liga" format="1">
  <advance width="980"/>
  <outline>
    <contour>
      <point x="934" y="538"/>
      <point x="914" y="534"/>
      <point x="876" y="534" type="curve" smooth="yes"/>
      <point x="832" y="534"/>
      <point x="791" y="532"/>
      <point x="711" y="532" type="curve" smooth="yes"/>
      <point x="651" y="532"/>
      <point x="595" y="533"/>
      <point x="549" y="534" type="curve" smooth="yes"/>
      <point x="501" y="535"/>
      <point x="500" y="534"/>
      <point x="502" y="557" type="curve" smooth="yes"/>
      <point x="502" y="561"/>
      <point x="492" y="561"/>
      <point x="492" y="557" type="curve" smooth="yes"/>
      <point x="490" y="534"/>
      <point x="490" y="534"/>
      <point x="426" y="534" type="curve" smooth="yes"/>
      <point x="385" y="534"/>
      <point x="346" y="532"/>
      <point x="271" y="532" type="curve" smooth="yes"/>
      <point x="207" y="532"/>
      <point x="148" y="533"/>
      <point x="99" y="534" type="curve" smooth="yes"/>
      <point x="83" y="534"/>
      <point x="54" y="536"/>
      <point x="54" y="553" type="curve" smooth="yes"/>
      <point x="54" y="559"/>
      <point x="44" y="558"/>
      <point x="44" y="553" type="curve" smooth="yes"/>
      <point x="44" y="516"/>
      <point x="36" y="431"/>
      <point x="32" y="403" type="curve" smooth="yes"/>
      <point x="32" y="400"/>
      <point x="42" y="400"/>
      <point x="42" y="403" type="curve" smooth="yes"/>
      <point x="54" y="492"/>
      <point x="82" y="521"/>
      <point x="154" y="521" type="curve" smooth="yes"/>
      <point x="234" y="521"/>
      <point x="249" y="521"/>
      <point x="249" y="465" type="curve" smooth="yes"/>
      <point x="249" y="69" type="line" smooth="yes"/>
      <point x="249" y="20"/>
      <point x="235" y="10"/>
      <point x="162" y="10" type="curve" smooth="yes"/>
      <point x="159" y="10"/>
      <point x="159" y="0"/>
      <point x="162" y="0" type="curve" smooth="yes"/>
      <point x="192" y="0"/>
      <point x="230" y="2"/>
      <point x="271" y="2" type="curve" smooth="yes"/>
      <point x="311" y="2"/>
      <point x="344" y="0"/>
      <point x="371" y="0" type="curve" smooth="yes"/>
      <point x="374" y="0"/>
      <point x="374" y="10"/>
      <point x="371" y="10" type="curve" smooth="yes"/>
      <point x="305" y="10"/>
      <point x="295" y="20"/>
      <point x="295" y="69" type="curve" smooth="yes"/>
      <point x="295" y="463" type="line" smooth="yes"/>
      <point x="295" y="515"/>
      <point x="307" y="521"/>
      <point x="378" y="521" type="curve" smooth="yes"/>
      <point x="491" y="521"/>
      <point x="492" y="520"/>
      <point x="489" y="403" type="curve" smooth="yes"/>
      <point x="489" y="400"/>
      <point x="499" y="400"/>
      <point x="499" y="403" type="curve" smooth="yes"/>
      <point x="502" y="520"/>
      <point x="503" y="521"/>
      <point x="604" y="521" type="curve" smooth="yes"/>
      <point x="676" y="521"/>
      <point x="689" y="518"/>
      <point x="689" y="465" type="curve" smooth="yes"/>
      <point x="689" y="69" type="line" smooth="yes"/>
      <point x="689" y="20"/>
      <point x="675" y="10"/>
      <point x="602" y="10" type="curve" smooth="yes"/>
      <point x="599" y="10"/>
      <point x="599" y="0"/>
      <point x="602" y="0" type="curve" smooth="yes"/>
      <point x="632" y="0"/>
      <point x="670" y="2"/>
      <point x="711" y="2" type="curve" smooth="yes"/>
      <point x="755" y="2"/>
      <point x="791" y="0"/>
      <point x="821" y="0" type="curve" smooth="yes"/>
      <point x="824" y="0"/>
      <point x="824" y="10"/>
      <point x="821" y="10" type="curve" smooth="yes"/>
      <point x="746" y="10"/>
      <point x="735" y="20"/>
      <point x="735" y="69" type="curve" smooth="yes"/>
      <point x="735" y="463" type="line" smooth="yes"/>
      <point x="735" y="518"/>
      <point x="747" y="521"/>
      <point x="828" y="521" type="curve" smooth="yes"/>
      <point x="907" y="521"/>
      <point x="932" y="492"/>
      <point x="932" y="403" type="curve" smooth="yes"/>
      <point x="932" y="400"/>
      <point x="942" y="400"/>
      <point x="942" y="403" type="curve" smooth="yes"/>
      <point x="942" y="429"/>
      <point x="946" y="522"/>
      <point x="950" y="556" type="curve" smooth="yes"/>
      <point x="950" y="560"/>
      <point x="941" y="560"/>
      <point x="940" y="556" type="curve" smooth="yes"/>
    </contour>
    <contour>
      <point x="810" y="267" type="move" name="center"/>
    </contour>
    <contour>
      <point x="815" y="0" type="move" name="bottom"/>
    </contour>
    <contour>
      <point x="810" y="534" type="move" name="top"/>
    </contour>
  </outline>
  <lib>
    <dict>
      <key>com.schriftgestaltung.Glyphs.layer.leftMetricsKey</key>
      <string>==T</string>
      <key>com.schriftgestaltung.Glyphs.layer.rightMetricsKey</key>
      <string>==T</string>
      <key>com.schriftgestaltung.Glyphs.leftMetricsKey</key>
      <string>T</string>
      <key>com.schriftgestaltung.Glyphs.rightMetricsKey</key>
      <string>T</string>
    </dict>
  </lib>
</glyph>
