<?xml version="1.0" encoding="UTF-8"?>
<glyph name="Udieresis.ss01.ss04" format="1">
  <advance width="653"/>
  <outline>
    <component base="U.ss01"/>
    <component base="dieresis.case.ss04" xOffset="259"/>
  </outline>
</glyph>
