<?xml version="1.0" encoding="UTF-8"?>
<glyph name="udieresis.sc.ss01.ss04" format="1">
  <advance width="530"/>
  <outline>
    <component base="u.sc.ss01"/>
    <component base="dieresis.case.ss04" xOffset="192" yOffset="74"/>
  </outline>
</glyph>
