<?xml version="1.0" encoding="UTF-8"?>
<glyph name="umacron-cy.sc" format="1">
  <advance width="419"/>
  <outline>
    <component base="u-cy.sc"/>
    <component base="macroncomb" xOffset="69" yOffset="70"/>
  </outline>
</glyph>
