<?xml version="1.0" encoding="UTF-8"?>
<glyph name="umacron.sc.ss03" format="1">
  <advance width="530"/>
  <outline>
    <component base="u.sc.ss01"/>
    <component base="macron" xOffset="112" yOffset="70"/>
  </outline>
</glyph>
