<?xml version="1.0" encoding="UTF-8"?>
<glyph name="yacute.sc" format="1">
  <advance width="398"/>
  <outline>
    <component base="y.sc"/>
    <component base="acute.sc" xOffset="98" yOffset="70"/>
  </outline>
</glyph>
