<?xml version="1.0" encoding="UTF-8"?>
<glyph name="ycircumflex.sc.ss13" format="1">
  <advance width="398"/>
  <outline>
    <component base="y.sc"/>
    <component base="circumflexcomb.sc.ss13" xOffset="87"/>
  </outline>
</glyph>
