<?xml version="1.0" encoding="UTF-8"?>
<glyph name="aring.ss07" format="1">
  <advance width="323"/>
  <outline>
    <component base="a.ss07"/>
    <component base="ring" xOffset="51"/>
  </outline>
</glyph>
