<?xml version="1.0" encoding="UTF-8"?>
<glyph name="Eth" format="1">
  <advance width="522"/>
  <unicode hex="00D0"/>
  <outline>
    <contour>
      <point x="269" y="258" type="line" smooth="yes"/>
      <point x="274" y="258"/>
      <point x="274" y="274"/>
      <point x="269" y="274" type="curve" smooth="yes"/>
      <point x="45" y="274" type="line" smooth="yes"/>
      <point x="40" y="274"/>
      <point x="40" y="258"/>
      <point x="45" y="258" type="curve" smooth="yes"/>
    </contour>
    <component base="D"/>
  </outline>
  <lib>
    <dict>
      <key>com.typemytype.robofont.layerData</key>
      <dict>
        <key>Regular Nov 27 14, 14:50</key>
        <dict>
          <key>anchors</key>
          <array>
          </array>
          <key>components</key>
          <array>
            <dict>
              <key>baseGlyph</key>
              <string>D</string>
              <key>transformation</key>
              <array>
                <integer>1</integer>
                <integer>0</integer>
                <integer>0</integer>
                <integer>1</integer>
                <integer>0</integer>
                <integer>0</integer>
              </array>
            </dict>
          </array>
          <key>contours</key>
          <array>
            <dict>
              <key>points</key>
              <array>
                <dict>
                  <key>segmentType</key>
                  <string>line</string>
                  <key>smooth</key>
                  <true/>
                  <key>x</key>
                  <integer>220</integer>
                  <key>y</key>
                  <integer>258</integer>
                </dict>
                <dict>
                  <key>smooth</key>
                  <false/>
                  <key>x</key>
                  <integer>225</integer>
                  <key>y</key>
                  <integer>258</integer>
                </dict>
                <dict>
                  <key>smooth</key>
                  <false/>
                  <key>x</key>
                  <integer>225</integer>
                  <key>y</key>
                  <integer>274</integer>
                </dict>
                <dict>
                  <key>segmentType</key>
                  <string>curve</string>
                  <key>smooth</key>
                  <true/>
                  <key>x</key>
                  <integer>220</integer>
                  <key>y</key>
                  <integer>274</integer>
                </dict>
                <dict>
                  <key>segmentType</key>
                  <string>line</string>
                  <key>smooth</key>
                  <true/>
                  <key>x</key>
                  <integer>45</integer>
                  <key>y</key>
                  <integer>274</integer>
                </dict>
                <dict>
                  <key>smooth</key>
                  <false/>
                  <key>x</key>
                  <integer>40</integer>
                  <key>y</key>
                  <integer>274</integer>
                </dict>
                <dict>
                  <key>smooth</key>
                  <false/>
                  <key>x</key>
                  <integer>40</integer>
                  <key>y</key>
                  <integer>258</integer>
                </dict>
                <dict>
                  <key>segmentType</key>
                  <string>curve</string>
                  <key>smooth</key>
                  <true/>
                  <key>x</key>
                  <integer>45</integer>
                  <key>y</key>
                  <integer>258</integer>
                </dict>
              </array>
            </dict>
          </array>
          <key>lib</key>
          <dict>
          </dict>
          <key>name</key>
          <string>Eth</string>
          <key>unicodes</key>
          <array>
          </array>
          <key>width</key>
          <integer>588</integer>
        </dict>
        <key>background</key>
        <dict>
          <key>anchors</key>
          <array>
          </array>
          <key>components</key>
          <array>
            <dict>
              <key>baseGlyph</key>
              <string>D</string>
              <key>transformation</key>
              <array>
                <integer>1</integer>
                <integer>0</integer>
                <integer>0</integer>
                <integer>1</integer>
                <integer>0</integer>
                <integer>0</integer>
              </array>
            </dict>
          </array>
          <key>contours</key>
          <array>
            <dict>
              <key>points</key>
              <array>
                <dict>
                  <key>segmentType</key>
                  <string>line</string>
                  <key>smooth</key>
                  <true/>
                  <key>x</key>
                  <integer>220</integer>
                  <key>y</key>
                  <integer>258</integer>
                </dict>
                <dict>
                  <key>smooth</key>
                  <false/>
                  <key>x</key>
                  <integer>225</integer>
                  <key>y</key>
                  <integer>258</integer>
                </dict>
                <dict>
                  <key>smooth</key>
                  <false/>
                  <key>x</key>
                  <integer>225</integer>
                  <key>y</key>
                  <integer>274</integer>
                </dict>
                <dict>
                  <key>segmentType</key>
                  <string>curve</string>
                  <key>smooth</key>
                  <true/>
                  <key>x</key>
                  <integer>220</integer>
                  <key>y</key>
                  <integer>274</integer>
                </dict>
                <dict>
                  <key>segmentType</key>
                  <string>line</string>
                  <key>smooth</key>
                  <true/>
                  <key>x</key>
                  <integer>45</integer>
                  <key>y</key>
                  <integer>274</integer>
                </dict>
                <dict>
                  <key>smooth</key>
                  <false/>
                  <key>x</key>
                  <integer>40</integer>
                  <key>y</key>
                  <integer>274</integer>
                </dict>
                <dict>
                  <key>smooth</key>
                  <false/>
                  <key>x</key>
                  <integer>40</integer>
                  <key>y</key>
                  <integer>258</integer>
                </dict>
                <dict>
                  <key>segmentType</key>
                  <string>curve</string>
                  <key>smooth</key>
                  <true/>
                  <key>x</key>
                  <integer>45</integer>
                  <key>y</key>
                  <integer>258</integer>
                </dict>
              </array>
            </dict>
          </array>
          <key>lib</key>
          <dict>
          </dict>
          <key>name</key>
          <string>Eth</string>
          <key>unicodes</key>
          <array>
          </array>
          <key>width</key>
          <integer>522</integer>
        </dict>
      </dict>
    </dict>
  </lib>
</glyph>
