<?xml version="1.0" encoding="UTF-8"?>
<glyph name="g_ycircumflex.liga.ss03" format="1">
  <advance width="715"/>
  <outline>
    <component base="g.ss03"/>
    <component base="ycircumflex.ss03" xOffset="346"/>
  </outline>
  <lib>
    <dict>
      <key>com.schriftgestaltung.Glyphs.leftMetricsKey</key>
      <string>g</string>
      <key>com.schriftgestaltung.Glyphs.rightMetricsKey</key>
      <string>y</string>
      <key>com.typemytype.robofont.layerData</key>
      <dict>
        <key>Regular Italic Jan 13 15, 23:51</key>
        <dict>
          <key>anchors</key>
          <array>
            <dict>
              <key>name</key>
              <string>top</string>
              <key>x</key>
              <integer>571</integer>
              <key>y</key>
              <integer>330</integer>
            </dict>
            <dict>
              <key>name</key>
              <string>bottom</string>
              <key>x</key>
              <integer>141</integer>
              <key>y</key>
              <integer>0</integer>
            </dict>
          </array>
          <key>components</key>
          <array>
          </array>
          <key>contours</key>
          <array>
            <dict>
              <key>points</key>
              <array>
                <dict>
                  <key>smooth</key>
                  <false/>
                  <key>x</key>
                  <integer>176</integer>
                  <key>y</key>
                  <integer>-240</integer>
                </dict>
                <dict>
                  <key>smooth</key>
                  <false/>
                  <key>x</key>
                  <integer>247</integer>
                  <key>y</key>
                  <integer>-188</integer>
                </dict>
                <dict>
                  <key>segmentType</key>
                  <string>curve</string>
                  <key>smooth</key>
                  <true/>
                  <key>x</key>
                  <integer>258</integer>
                  <key>y</key>
                  <integer>-131</integer>
                </dict>
                <dict>
                  <key>smooth</key>
                  <false/>
                  <key>x</key>
                  <integer>274</integer>
                  <key>y</key>
                  <integer>-47</integer>
                </dict>
                <dict>
                  <key>smooth</key>
                  <false/>
                  <key>x</key>
                  <integer>90</integer>
                  <key>y</key>
                  <integer>28</integer>
                </dict>
                <dict>
                  <key>segmentType</key>
                  <string>curve</string>
                  <key>smooth</key>
                  <true/>
                  <key>x</key>
                  <integer>102</integer>
                  <key>y</key>
                  <integer>91</integer>
                </dict>
                <dict>
                  <key>smooth</key>
                  <false/>
                  <key>x</key>
                  <integer>105</integer>
                  <key>y</key>
                  <integer>108</integer>
                </dict>
                <dict>
                  <key>smooth</key>
                  <false/>
                  <key>x</key>
                  <integer>121</integer>
                  <key>y</key>
                  <integer>123</integer>
                </dict>
                <dict>
                  <key>segmentType</key>
                  <string>curve</string>
                  <key>smooth</key>
                  <false/>
                  <key>x</key>
                  <integer>136</integer>
                  <key>y</key>
                  <integer>132</integer>
                </dict>
                <dict>
                  <key>segmentType</key>
                  <string>line</string>
                  <key>smooth</key>
                  <false/>
                  <key>x</key>
                  <integer>127</integer>
                  <key>y</key>
                  <integer>139</integer>
                </dict>
                <dict>
                  <key>smooth</key>
                  <false/>
                  <key>x</key>
                  <integer>103</integer>
                  <key>y</key>
                  <integer>117</integer>
                </dict>
                <dict>
                  <key>smooth</key>
                  <false/>
                  <key>x</key>
                  <integer>73</integer>
                  <key>y</key>
                  <integer>92</integer>
                </dict>
                <dict>
                  <key>segmentType</key>
                  <string>curve</string>
                  <key>smooth</key>
                  <true/>
                  <key>x</key>
                  <integer>68</integer>
                  <key>y</key>
                  <integer>65</integer>
                </dict>
                <dict>
                  <key>smooth</key>
                  <false/>
                  <key>x</key>
                  <integer>56</integer>
                  <key>y</key>
                  <integer>3</integer>
                </dict>
                <dict>
                  <key>smooth</key>
                  <false/>
                  <key>x</key>
                  <integer>238</integer>
                  <key>y</key>
                  <integer>-64</integer>
                </dict>
                <dict>
                  <key>segmentType</key>
                  <string>curve</string>
                  <key>smooth</key>
                  <true/>
                  <key>x</key>
                  <integer>221</integer>
                  <key>y</key>
                  <integer>-161</integer>
                </dict>
                <dict>
                  <key>smooth</key>
                  <false/>
                  <key>x</key>
                  <integer>215</integer>
                  <key>y</key>
                  <integer>-196</integer>
                </dict>
                <dict>
                  <key>smooth</key>
                  <false/>
                  <key>x</key>
                  <integer>182</integer>
                  <key>y</key>
                  <integer>-218</integer>
                </dict>
                <dict>
                  <key>segmentType</key>
                  <string>curve</string>
                  <key>smooth</key>
                  <true/>
                  <key>x</key>
                  <integer>126</integer>
                  <key>y</key>
                  <integer>-218</integer>
                </dict>
                <dict>
                  <key>smooth</key>
                  <false/>
                  <key>x</key>
                  <integer>63</integer>
                  <key>y</key>
                  <integer>-218</integer>
                </dict>
                <dict>
                  <key>smooth</key>
                  <false/>
                  <key>x</key>
                  <integer>14</integer>
                  <key>y</key>
                  <integer>-178</integer>
                </dict>
                <dict>
                  <key>segmentType</key>
                  <string>curve</string>
                  <key>smooth</key>
                  <true/>
                  <key>x</key>
                  <integer>25</integer>
                  <key>y</key>
                  <integer>-124</integer>
                </dict>
                <dict>
                  <key>smooth</key>
                  <false/>
                  <key>x</key>
                  <integer>37</integer>
                  <key>y</key>
                  <integer>-62</integer>
                </dict>
                <dict>
                  <key>smooth</key>
                  <false/>
                  <key>x</key>
                  <integer>89</integer>
                  <key>y</key>
                  <integer>-23</integer>
                </dict>
                <dict>
                  <key>segmentType</key>
                  <string>curve</string>
                  <key>smooth</key>
                  <false/>
                  <key>x</key>
                  <integer>136</integer>
                  <key>y</key>
                  <integer>12</integer>
                </dict>
                <dict>
                  <key>segmentType</key>
                  <string>line</string>
                  <key>smooth</key>
                  <false/>
                  <key>x</key>
                  <integer>132</integer>
                  <key>y</key>
                  <integer>21</integer>
                </dict>
                <dict>
                  <key>smooth</key>
                  <false/>
                  <key>x</key>
                  <integer>66</integer>
                  <key>y</key>
                  <integer>-23</integer>
                </dict>
                <dict>
                  <key>smooth</key>
                  <false/>
                  <key>x</key>
                  <integer>-5</integer>
                  <key>y</key>
                  <integer>-89</integer>
                </dict>
                <dict>
                  <key>segmentType</key>
                  <string>curve</string>
                  <key>smooth</key>
                  <true/>
                  <key>x</key>
                  <integer>-14</integer>
                  <key>y</key>
                  <integer>-136</integer>
                </dict>
                <dict>
                  <key>smooth</key>
                  <false/>
                  <key>x</key>
                  <integer>-27</integer>
                  <key>y</key>
                  <integer>-202</integer>
                </dict>
                <dict>
                  <key>smooth</key>
                  <false/>
                  <key>x</key>
                  <integer>25</integer>
                  <key>y</key>
                  <integer>-240</integer>
                </dict>
                <dict>
                  <key>segmentType</key>
                  <string>curve</string>
                  <key>smooth</key>
                  <true/>
                  <key>x</key>
                  <integer>95</integer>
                  <key>y</key>
                  <integer>-240</integer>
                </dict>
              </array>
            </dict>
            <dict>
              <key>points</key>
              <array>
                <dict>
                  <key>smooth</key>
                  <false/>
                  <key>x</key>
                  <integer>205</integer>
                  <key>y</key>
                  <integer>124</integer>
                </dict>
                <dict>
                  <key>smooth</key>
                  <false/>
                  <key>x</key>
                  <integer>270</integer>
                  <key>y</key>
                  <integer>156</integer>
                </dict>
                <dict>
                  <key>segmentType</key>
                  <string>curve</string>
                  <key>smooth</key>
                  <true/>
                  <key>x</key>
                  <integer>282</integer>
                  <key>y</key>
                  <integer>214</integer>
                </dict>
                <dict>
                  <key>smooth</key>
                  <false/>
                  <key>x</key>
                  <integer>294</integer>
                  <key>y</key>
                  <integer>271</integer>
                </dict>
                <dict>
                  <key>smooth</key>
                  <false/>
                  <key>x</key>
                  <integer>261</integer>
                  <key>y</key>
                  <integer>336</integer>
                </dict>
                <dict>
                  <key>segmentType</key>
                  <string>curve</string>
                  <key>smooth</key>
                  <true/>
                  <key>x</key>
                  <integer>184</integer>
                  <key>y</key>
                  <integer>336</integer>
                </dict>
                <dict>
                  <key>smooth</key>
                  <false/>
                  <key>x</key>
                  <integer>134</integer>
                  <key>y</key>
                  <integer>336</integer>
                </dict>
                <dict>
                  <key>smooth</key>
                  <false/>
                  <key>x</key>
                  <integer>62</integer>
                  <key>y</key>
                  <integer>305</integer>
                </dict>
                <dict>
                  <key>segmentType</key>
                  <string>curve</string>
                  <key>smooth</key>
                  <true/>
                  <key>x</key>
                  <integer>50</integer>
                  <key>y</key>
                  <integer>236</integer>
                </dict>
                <dict>
                  <key>smooth</key>
                  <false/>
                  <key>x</key>
                  <integer>40</integer>
                  <key>y</key>
                  <integer>182</integer>
                </dict>
                <dict>
                  <key>smooth</key>
                  <false/>
                  <key>x</key>
                  <integer>73</integer>
                  <key>y</key>
                  <integer>124</integer>
                </dict>
                <dict>
                  <key>segmentType</key>
                  <string>curve</string>
                  <key>smooth</key>
                  <true/>
                  <key>x</key>
                  <integer>148</integer>
                  <key>y</key>
                  <integer>124</integer>
                </dict>
              </array>
            </dict>
            <dict>
              <key>points</key>
              <array>
                <dict>
                  <key>smooth</key>
                  <false/>
                  <key>x</key>
                  <integer>105</integer>
                  <key>y</key>
                  <integer>139</integer>
                </dict>
                <dict>
                  <key>smooth</key>
                  <false/>
                  <key>x</key>
                  <integer>77</integer>
                  <key>y</key>
                  <integer>209</integer>
                </dict>
                <dict>
                  <key>segmentType</key>
                  <string>curve</string>
                  <key>smooth</key>
                  <true/>
                  <key>x</key>
                  <integer>87</integer>
                  <key>y</key>
                  <integer>262</integer>
                </dict>
                <dict>
                  <key>smooth</key>
                  <false/>
                  <key>x</key>
                  <integer>94</integer>
                  <key>y</key>
                  <integer>300</integer>
                </dict>
                <dict>
                  <key>smooth</key>
                  <false/>
                  <key>x</key>
                  <integer>123</integer>
                  <key>y</key>
                  <integer>320</integer>
                </dict>
                <dict>
                  <key>segmentType</key>
                  <string>curve</string>
                  <key>smooth</key>
                  <true/>
                  <key>x</key>
                  <integer>160</integer>
                  <key>y</key>
                  <integer>320</integer>
                </dict>
                <dict>
                  <key>smooth</key>
                  <false/>
                  <key>x</key>
                  <integer>232</integer>
                  <key>y</key>
                  <integer>320</integer>
                </dict>
                <dict>
                  <key>smooth</key>
                  <false/>
                  <key>x</key>
                  <integer>256</integer>
                  <key>y</key>
                  <integer>243</integer>
                </dict>
                <dict>
                  <key>segmentType</key>
                  <string>curve</string>
                  <key>smooth</key>
                  <true/>
                  <key>x</key>
                  <integer>245</integer>
                  <key>y</key>
                  <integer>192</integer>
                </dict>
                <dict>
                  <key>smooth</key>
                  <false/>
                  <key>x</key>
                  <integer>236</integer>
                  <key>y</key>
                  <integer>152</integer>
                </dict>
                <dict>
                  <key>smooth</key>
                  <false/>
                  <key>x</key>
                  <integer>196</integer>
                  <key>y</key>
                  <integer>139</integer>
                </dict>
                <dict>
                  <key>segmentType</key>
                  <string>curve</string>
                  <key>smooth</key>
                  <true/>
                  <key>x</key>
                  <integer>167</integer>
                  <key>y</key>
                  <integer>139</integer>
                </dict>
              </array>
            </dict>
            <dict>
              <key>points</key>
              <array>
                <dict>
                  <key>smooth</key>
                  <false/>
                  <key>x</key>
                  <integer>592</integer>
                  <key>y</key>
                  <integer>107</integer>
                </dict>
                <dict>
                  <key>smooth</key>
                  <false/>
                  <key>x</key>
                  <integer>482</integer>
                  <key>y</key>
                  <integer>-104</integer>
                </dict>
                <dict>
                  <key>segmentType</key>
                  <string>curve</string>
                  <key>smooth</key>
                  <true/>
                  <key>x</key>
                  <integer>437</integer>
                  <key>y</key>
                  <integer>-149</integer>
                </dict>
                <dict>
                  <key>smooth</key>
                  <false/>
                  <key>x</key>
                  <integer>413</integer>
                  <key>y</key>
                  <integer>-173</integer>
                </dict>
                <dict>
                  <key>smooth</key>
                  <false/>
                  <key>x</key>
                  <integer>374</integer>
                  <key>y</key>
                  <integer>-190</integer>
                </dict>
                <dict>
                  <key>segmentType</key>
                  <string>curve</string>
                  <key>smooth</key>
                  <true/>
                  <key>x</key>
                  <integer>339</integer>
                  <key>y</key>
                  <integer>-190</integer>
                </dict>
                <dict>
                  <key>smooth</key>
                  <false/>
                  <key>x</key>
                  <integer>323</integer>
                  <key>y</key>
                  <integer>-190</integer>
                </dict>
                <dict>
                  <key>smooth</key>
                  <false/>
                  <key>x</key>
                  <integer>312</integer>
                  <key>y</key>
                  <integer>-195</integer>
                </dict>
                <dict>
                  <key>segmentType</key>
                  <string>curve</string>
                  <key>smooth</key>
                  <true/>
                  <key>x</key>
                  <integer>309</integer>
                  <key>y</key>
                  <integer>-209</integer>
                </dict>
                <dict>
                  <key>smooth</key>
                  <false/>
                  <key>x</key>
                  <integer>306</integer>
                  <key>y</key>
                  <integer>-231</integer>
                </dict>
                <dict>
                  <key>smooth</key>
                  <false/>
                  <key>x</key>
                  <integer>321</integer>
                  <key>y</key>
                  <integer>-240</integer>
                </dict>
                <dict>
                  <key>segmentType</key>
                  <string>curve</string>
                  <key>smooth</key>
                  <true/>
                  <key>x</key>
                  <integer>339</integer>
                  <key>y</key>
                  <integer>-240</integer>
                </dict>
                <dict>
                  <key>smooth</key>
                  <false/>
                  <key>x</key>
                  <integer>443</integer>
                  <key>y</key>
                  <integer>-240</integer>
                </dict>
                <dict>
                  <key>smooth</key>
                  <false/>
                  <key>x</key>
                  <integer>649</integer>
                  <key>y</key>
                  <integer>149</integer>
                </dict>
                <dict>
                  <key>segmentType</key>
                  <string>curve</string>
                  <key>smooth</key>
                  <true/>
                  <key>x</key>
                  <integer>649</integer>
                  <key>y</key>
                  <integer>295</integer>
                </dict>
                <dict>
                  <key>smooth</key>
                  <false/>
                  <key>x</key>
                  <integer>649</integer>
                  <key>y</key>
                  <integer>320</integer>
                </dict>
                <dict>
                  <key>smooth</key>
                  <false/>
                  <key>x</key>
                  <integer>642</integer>
                  <key>y</key>
                  <integer>339</integer>
                </dict>
                <dict>
                  <key>segmentType</key>
                  <string>curve</string>
                  <key>smooth</key>
                  <true/>
                  <key>x</key>
                  <integer>620</integer>
                  <key>y</key>
                  <integer>339</integer>
                </dict>
                <dict>
                  <key>smooth</key>
                  <false/>
                  <key>x</key>
                  <integer>603</integer>
                  <key>y</key>
                  <integer>339</integer>
                </dict>
                <dict>
                  <key>smooth</key>
                  <false/>
                  <key>x</key>
                  <integer>594</integer>
                  <key>y</key>
                  <integer>328</integer>
                </dict>
                <dict>
                  <key>segmentType</key>
                  <string>curve</string>
                  <key>smooth</key>
                  <true/>
                  <key>x</key>
                  <integer>594</integer>
                  <key>y</key>
                  <integer>315</integer>
                </dict>
                <dict>
                  <key>smooth</key>
                  <false/>
                  <key>x</key>
                  <integer>594</integer>
                  <key>y</key>
                  <integer>292</integer>
                </dict>
                <dict>
                  <key>smooth</key>
                  <false/>
                  <key>x</key>
                  <integer>620</integer>
                  <key>y</key>
                  <integer>260</integer>
                </dict>
                <dict>
                  <key>segmentType</key>
                  <string>curve</string>
                  <key>smooth</key>
                  <true/>
                  <key>x</key>
                  <integer>606</integer>
                  <key>y</key>
                  <integer>185</integer>
                </dict>
              </array>
            </dict>
            <dict>
              <key>points</key>
              <array>
                <dict>
                  <key>segmentType</key>
                  <string>line</string>
                  <key>smooth</key>
                  <false/>
                  <key>x</key>
                  <integer>521</integer>
                  <key>y</key>
                  <integer>-34</integer>
                </dict>
                <dict>
                  <key>smooth</key>
                  <false/>
                  <key>x</key>
                  <integer>534</integer>
                  <key>y</key>
                  <integer>168</integer>
                </dict>
                <dict>
                  <key>smooth</key>
                  <false/>
                  <key>x</key>
                  <integer>457</integer>
                  <key>y</key>
                  <integer>338</integer>
                </dict>
                <dict>
                  <key>segmentType</key>
                  <string>curve</string>
                  <key>smooth</key>
                  <true/>
                  <key>x</key>
                  <integer>365</integer>
                  <key>y</key>
                  <integer>338</integer>
                </dict>
                <dict>
                  <key>smooth</key>
                  <false/>
                  <key>x</key>
                  <integer>336</integer>
                  <key>y</key>
                  <integer>338</integer>
                </dict>
                <dict>
                  <key>smooth</key>
                  <false/>
                  <key>x</key>
                  <integer>292</integer>
                  <key>y</key>
                  <integer>313</integer>
                </dict>
                <dict>
                  <key>segmentType</key>
                  <string>curve</string>
                  <key>smooth</key>
                  <true/>
                  <key>x</key>
                  <integer>263</integer>
                  <key>y</key>
                  <integer>265</integer>
                </dict>
                <dict>
                  <key>smooth</key>
                  <false/>
                  <key>x</key>
                  <integer>261</integer>
                  <key>y</key>
                  <integer>260</integer>
                </dict>
                <dict>
                  <key>smooth</key>
                  <false/>
                  <key>x</key>
                  <integer>271</integer>
                  <key>y</key>
                  <integer>257</integer>
                </dict>
                <dict>
                  <key>segmentType</key>
                  <string>curve</string>
                  <key>smooth</key>
                  <true/>
                  <key>x</key>
                  <integer>273</integer>
                  <key>y</key>
                  <integer>262</integer>
                </dict>
                <dict>
                  <key>smooth</key>
                  <false/>
                  <key>x</key>
                  <integer>294</integer>
                  <key>y</key>
                  <integer>293</integer>
                </dict>
                <dict>
                  <key>smooth</key>
                  <false/>
                  <key>x</key>
                  <integer>320</integer>
                  <key>y</key>
                  <integer>308</integer>
                </dict>
                <dict>
                  <key>segmentType</key>
                  <string>curve</string>
                  <key>smooth</key>
                  <true/>
                  <key>x</key>
                  <integer>346</integer>
                  <key>y</key>
                  <integer>308</integer>
                </dict>
                <dict>
                  <key>smooth</key>
                  <false/>
                  <key>x</key>
                  <integer>419</integer>
                  <key>y</key>
                  <integer>308</integer>
                </dict>
                <dict>
                  <key>smooth</key>
                  <false/>
                  <key>x</key>
                  <integer>495</integer>
                  <key>y</key>
                  <integer>158</integer>
                </dict>
                <dict>
                  <key>segmentType</key>
                  <string>curve</string>
                  <key>smooth</key>
                  <false/>
                  <key>x</key>
                  <integer>485</integer>
                  <key>y</key>
                  <integer>-92</integer>
                </dict>
              </array>
            </dict>
          </array>
          <key>lib</key>
          <dict>
          </dict>
          <key>name</key>
          <string>g_ycircumflex.liga.ss03</string>
          <key>unicodes</key>
          <array>
          </array>
          <key>width</key>
          <integer>674</integer>
        </dict>
        <key>background</key>
        <dict>
          <key>anchors</key>
          <array>
          </array>
          <key>components</key>
          <array>
          </array>
          <key>contours</key>
          <array>
            <dict>
              <key>points</key>
              <array>
                <dict>
                  <key>smooth</key>
                  <false/>
                  <key>x</key>
                  <integer>334</integer>
                  <key>y</key>
                  <integer>296</integer>
                </dict>
                <dict>
                  <key>smooth</key>
                  <false/>
                  <key>x</key>
                  <integer>343</integer>
                  <key>y</key>
                  <integer>336</integer>
                </dict>
                <dict>
                  <key>segmentType</key>
                  <string>curve</string>
                  <key>smooth</key>
                  <true/>
                  <key>x</key>
                  <integer>338</integer>
                  <key>y</key>
                  <integer>336</integer>
                </dict>
                <dict>
                  <key>smooth</key>
                  <false/>
                  <key>x</key>
                  <integer>305</integer>
                  <key>y</key>
                  <integer>336</integer>
                </dict>
                <dict>
                  <key>smooth</key>
                  <false/>
                  <key>x</key>
                  <integer>264</integer>
                  <key>y</key>
                  <integer>322</integer>
                </dict>
                <dict>
                  <key>segmentType</key>
                  <string>curve</string>
                  <key>smooth</key>
                  <false/>
                  <key>x</key>
                  <integer>230</integer>
                  <key>y</key>
                  <integer>302</integer>
                </dict>
                <dict>
                  <key>segmentType</key>
                  <string>line</string>
                  <key>smooth</key>
                  <false/>
                  <key>x</key>
                  <integer>231</integer>
                  <key>y</key>
                  <integer>296</integer>
                </dict>
                <dict>
                  <key>smooth</key>
                  <false/>
                  <key>x</key>
                  <integer>264</integer>
                  <key>y</key>
                  <integer>307</integer>
                </dict>
                <dict>
                  <key>smooth</key>
                  <false/>
                  <key>x</key>
                  <integer>304</integer>
                  <key>y</key>
                  <integer>311</integer>
                </dict>
                <dict>
                  <key>segmentType</key>
                  <string>curve</string>
                  <key>smooth</key>
                  <true/>
                  <key>x</key>
                  <integer>331</integer>
                  <key>y</key>
                  <integer>298</integer>
                </dict>
              </array>
            </dict>
          </array>
          <key>lib</key>
          <dict>
          </dict>
          <key>name</key>
          <string>g_ycircumflex.liga.ss03</string>
          <key>unicodes</key>
          <array>
          </array>
          <key>width</key>
          <integer>715</integer>
        </dict>
      </dict>
    </dict>
  </lib>
</glyph>
