<?xml version="1.0" encoding="UTF-8"?>
<glyph name="lcommaaccent.clipped" format="1">
  <advance width="208"/>
  <outline>
    <component base="l.clipped"/>
    <component base="commaaccentcomb" xOffset="21"/>
  </outline>
</glyph>
