<?xml version="1.0" encoding="UTF-8"?>
<glyph name="ldotbelow.clipped" format="1">
  <advance width="208"/>
  <outline>
    <component base="l.clipped"/>
    <component base="dotbelowcomb" xOffset="55"/>
  </outline>
  <lib>
    <dict>
      <key>com.schriftgestaltung.Glyphs.ColorIndex</key>
      <integer>9</integer>
      <key>public.markColor</key>
      <string>0.98,0.36,0.67,1</string>
    </dict>
  </lib>
</glyph>
