<?xml version="1.0" encoding="UTF-8"?>
<glyph name="oslash" format="1">
  <advance width="349"/>
  <unicode hex="00F8"/>
  <outline>
    <contour>
      <point x="342" y="330" type="line" smooth="yes"/>
      <point x="346" y="334"/>
      <point x="333" y="343"/>
      <point x="330" y="340" type="curve" smooth="yes"/>
      <point x="0" y="0" type="line" smooth="yes"/>
      <point x="-4" y="-4"/>
      <point x="8" y="-15"/>
      <point x="11" y="-12" type="curve" smooth="yes"/>
    </contour>
    <component base="o"/>
    <contour>
      <point x="204" y="330" type="move" name="top"/>
    </contour>
  </outline>
</glyph>
