<?xml version="1.0" encoding="UTF-8"?>
<glyph name="perthousand.case" format="1">
  <advance width="770"/>
  <outline>
    <component base="zero.numr"/>
    <component base="fraction" xOffset="229"/>
    <component base="zero.dnom" xOffset="312"/>
    <component base="zero.dnom" xOffset="541"/>
    <contour>
      <point x="127" y="594" type="move" name="top"/>
    </contour>
  </outline>
  <lib>
    <dict>
      <key>com.schriftgestaltung.Glyphs.layer.rightMetricsKey</key>
      <string>==percent</string>
      <key>com.schriftgestaltung.Glyphs.rightMetricsKey</key>
      <string>percent</string>
      <key>com.typemytype.robofont.layerData</key>
      <dict>
        <key>background</key>
        <dict>
          <key>anchors</key>
          <array>
          </array>
          <key>components</key>
          <array>
          </array>
          <key>contours</key>
          <array>
            <dict>
              <key>points</key>
              <array>
                <dict>
                  <key>smooth</key>
                  <false/>
                  <key>x</key>
                  <integer>467</integer>
                  <key>y</key>
                  <integer>259</integer>
                </dict>
                <dict>
                  <key>smooth</key>
                  <false/>
                  <key>x</key>
                  <integer>509</integer>
                  <key>y</key>
                  <integer>307</integer>
                </dict>
                <dict>
                  <key>segmentType</key>
                  <string>curve</string>
                  <key>smooth</key>
                  <true/>
                  <key>x</key>
                  <integer>509</integer>
                  <key>y</key>
                  <integer>368</integer>
                </dict>
                <dict>
                  <key>smooth</key>
                  <false/>
                  <key>x</key>
                  <integer>509</integer>
                  <key>y</key>
                  <integer>429</integer>
                </dict>
                <dict>
                  <key>smooth</key>
                  <false/>
                  <key>x</key>
                  <integer>468</integer>
                  <key>y</key>
                  <integer>479</integer>
                </dict>
                <dict>
                  <key>segmentType</key>
                  <string>curve</string>
                  <key>smooth</key>
                  <true/>
                  <key>x</key>
                  <integer>408</integer>
                  <key>y</key>
                  <integer>479</integer>
                </dict>
                <dict>
                  <key>smooth</key>
                  <false/>
                  <key>x</key>
                  <integer>348</integer>
                  <key>y</key>
                  <integer>479</integer>
                </dict>
                <dict>
                  <key>smooth</key>
                  <false/>
                  <key>x</key>
                  <integer>305</integer>
                  <key>y</key>
                  <integer>430</integer>
                </dict>
                <dict>
                  <key>segmentType</key>
                  <string>curve</string>
                  <key>smooth</key>
                  <true/>
                  <key>x</key>
                  <integer>305</integer>
                  <key>y</key>
                  <integer>370</integer>
                </dict>
                <dict>
                  <key>smooth</key>
                  <false/>
                  <key>x</key>
                  <integer>305</integer>
                  <key>y</key>
                  <integer>308</integer>
                </dict>
                <dict>
                  <key>smooth</key>
                  <false/>
                  <key>x</key>
                  <integer>348</integer>
                  <key>y</key>
                  <integer>259</integer>
                </dict>
                <dict>
                  <key>segmentType</key>
                  <string>curve</string>
                  <key>smooth</key>
                  <true/>
                  <key>x</key>
                  <integer>408</integer>
                  <key>y</key>
                  <integer>259</integer>
                </dict>
              </array>
            </dict>
            <dict>
              <key>points</key>
              <array>
                <dict>
                  <key>smooth</key>
                  <false/>
                  <key>x</key>
                  <integer>365</integer>
                  <key>y</key>
                  <integer>268</integer>
                </dict>
                <dict>
                  <key>smooth</key>
                  <false/>
                  <key>x</key>
                  <integer>345</integer>
                  <key>y</key>
                  <integer>314</integer>
                </dict>
                <dict>
                  <key>segmentType</key>
                  <string>curve</string>
                  <key>smooth</key>
                  <true/>
                  <key>x</key>
                  <integer>345</integer>
                  <key>y</key>
                  <integer>373</integer>
                </dict>
                <dict>
                  <key>smooth</key>
                  <false/>
                  <key>x</key>
                  <integer>345</integer>
                  <key>y</key>
                  <integer>426</integer>
                </dict>
                <dict>
                  <key>smooth</key>
                  <false/>
                  <key>x</key>
                  <integer>359</integer>
                  <key>y</key>
                  <integer>470</integer>
                </dict>
                <dict>
                  <key>segmentType</key>
                  <string>curve</string>
                  <key>smooth</key>
                  <true/>
                  <key>x</key>
                  <integer>403</integer>
                  <key>y</key>
                  <integer>470</integer>
                </dict>
                <dict>
                  <key>smooth</key>
                  <false/>
                  <key>x</key>
                  <integer>443</integer>
                  <key>y</key>
                  <integer>470</integer>
                </dict>
                <dict>
                  <key>smooth</key>
                  <false/>
                  <key>x</key>
                  <integer>469</integer>
                  <key>y</key>
                  <integer>433</integer>
                </dict>
                <dict>
                  <key>segmentType</key>
                  <string>curve</string>
                  <key>smooth</key>
                  <true/>
                  <key>x</key>
                  <integer>469</integer>
                  <key>y</key>
                  <integer>362</integer>
                </dict>
                <dict>
                  <key>smooth</key>
                  <false/>
                  <key>x</key>
                  <integer>469</integer>
                  <key>y</key>
                  <integer>308</integer>
                </dict>
                <dict>
                  <key>smooth</key>
                  <false/>
                  <key>x</key>
                  <integer>458</integer>
                  <key>y</key>
                  <integer>268</integer>
                </dict>
                <dict>
                  <key>segmentType</key>
                  <string>curve</string>
                  <key>smooth</key>
                  <true/>
                  <key>x</key>
                  <integer>414</integer>
                  <key>y</key>
                  <integer>268</integer>
                </dict>
              </array>
            </dict>
          </array>
          <key>lib</key>
          <dict>
          </dict>
          <key>name</key>
          <string>perthousand.case</string>
          <key>unicodes</key>
          <array>
          </array>
          <key>width</key>
          <integer>770</integer>
        </dict>
      </dict>
    </dict>
  </lib>
</glyph>
