<?xml version="1.0" encoding="UTF-8"?>
<glyph name="Racute.short.ss13" format="1">
  <advance width="474"/>
  <outline>
    <component base="R.short"/>
    <component base="acutecomb.case.ss13" xOffset="146"/>
  </outline>
</glyph>
