<?xml version="1.0" encoding="UTF-8"?>
<glyph name="Sacute.loclPLK" format="1">
  <advance width="393"/>
  <outline>
    <component base="S"/>
    <component base="acute.loclPLK" xOffset="191" yOffset="204"/>
  </outline>
</glyph>
