<?xml version="1.0" encoding="UTF-8"?>
<glyph name="softsign-cy" format="1">
  <advance width="320"/>
  <unicode hex="044C"/>
  <outline>
    <contour>
      <point x="217" y="-11"/>
      <point x="280" y="52"/>
      <point x="289" y="111" type="curve" smooth="yes"/>
      <point x="297" y="161"/>
      <point x="267" y="183"/>
      <point x="228" y="183" type="curve" smooth="yes"/>
      <point x="175" y="183"/>
      <point x="106" y="143"/>
      <point x="93" y="77" type="curve"/>
      <point x="104" y="76" type="line"/>
      <point x="116" y="129"/>
      <point x="163" y="159"/>
      <point x="200" y="159" type="curve" smooth="yes"/>
      <point x="230" y="159"/>
      <point x="253" y="140"/>
      <point x="247" y="98" type="curve" smooth="yes"/>
      <point x="243" y="65"/>
      <point x="214" y="3"/>
      <point x="157" y="3" type="curve" smooth="yes"/>
      <point x="122" y="3"/>
      <point x="95" y="26"/>
      <point x="104" y="76" type="curve" smooth="yes"/>
      <point x="135" y="254" type="line" smooth="yes"/>
      <point x="146" y="316"/>
      <point x="140" y="338"/>
      <point x="113" y="338" type="curve" smooth="yes"/>
      <point x="84" y="338"/>
      <point x="55" y="314"/>
      <point x="17" y="271" type="curve" smooth="yes"/>
      <point x="13" y="267"/>
      <point x="20" y="260"/>
      <point x="24" y="264" type="curve" smooth="yes"/>
      <point x="49" y="290"/>
      <point x="70" y="306"/>
      <point x="83" y="306" type="curve" smooth="yes"/>
      <point x="98" y="306"/>
      <point x="105" y="289"/>
      <point x="99" y="254" type="curve" smooth="yes"/>
      <point x="66" y="64" type="line" smooth="yes"/>
      <point x="57" y="14"/>
      <point x="78" y="-11"/>
      <point x="132" y="-11" type="curve" smooth="yes"/>
    </contour>
  </outline>
  <lib>
    <dict>
      <key>com.schriftgestaltung.Glyphs.leftMetricsKey</key>
      <string>en-cy</string>
      <key>com.typemytype.robofont.layerData</key>
      <dict>
        <key>Regular Italic Sep 13 15, 14:13</key>
        <dict>
          <key>anchors</key>
          <array>
          </array>
          <key>components</key>
          <array>
          </array>
          <key>contours</key>
          <array>
            <dict>
              <key>points</key>
              <array>
                <dict>
                  <key>segmentType</key>
                  <string>line</string>
                  <key>smooth</key>
                  <true/>
                  <key>x</key>
                  <integer>64</integer>
                  <key>y</key>
                  <integer>59</integer>
                </dict>
                <dict>
                  <key>smooth</key>
                  <false/>
                  <key>x</key>
                  <integer>57</integer>
                  <key>y</key>
                  <integer>18</integer>
                </dict>
                <dict>
                  <key>smooth</key>
                  <false/>
                  <key>x</key>
                  <integer>78</integer>
                  <key>y</key>
                  <integer>-2</integer>
                </dict>
                <dict>
                  <key>segmentType</key>
                  <string>curve</string>
                  <key>smooth</key>
                  <true/>
                  <key>x</key>
                  <integer>129</integer>
                  <key>y</key>
                  <integer>-2</integer>
                </dict>
                <dict>
                  <key>smooth</key>
                  <false/>
                  <key>x</key>
                  <integer>217</integer>
                  <key>y</key>
                  <integer>-2</integer>
                </dict>
                <dict>
                  <key>smooth</key>
                  <false/>
                  <key>x</key>
                  <integer>279</integer>
                  <key>y</key>
                  <integer>59</integer>
                </dict>
                <dict>
                  <key>segmentType</key>
                  <string>curve</string>
                  <key>smooth</key>
                  <true/>
                  <key>x</key>
                  <integer>289</integer>
                  <key>y</key>
                  <integer>120</integer>
                </dict>
                <dict>
                  <key>smooth</key>
                  <false/>
                  <key>x</key>
                  <integer>296</integer>
                  <key>y</key>
                  <integer>164</integer>
                </dict>
                <dict>
                  <key>smooth</key>
                  <false/>
                  <key>x</key>
                  <integer>274</integer>
                  <key>y</key>
                  <integer>193</integer>
                </dict>
                <dict>
                  <key>segmentType</key>
                  <string>curve</string>
                  <key>smooth</key>
                  <true/>
                  <key>x</key>
                  <integer>231</integer>
                  <key>y</key>
                  <integer>193</integer>
                </dict>
                <dict>
                  <key>smooth</key>
                  <false/>
                  <key>x</key>
                  <integer>197</integer>
                  <key>y</key>
                  <integer>193</integer>
                </dict>
                <dict>
                  <key>smooth</key>
                  <false/>
                  <key>x</key>
                  <integer>114</integer>
                  <key>y</key>
                  <integer>175</integer>
                </dict>
                <dict>
                  <key>segmentType</key>
                  <string>curve</string>
                  <key>smooth</key>
                  <false/>
                  <key>x</key>
                  <integer>97</integer>
                  <key>y</key>
                  <integer>82</integer>
                </dict>
                <dict>
                  <key>segmentType</key>
                  <string>line</string>
                  <key>smooth</key>
                  <false/>
                  <key>x</key>
                  <integer>102</integer>
                  <key>y</key>
                  <integer>71</integer>
                </dict>
                <dict>
                  <key>smooth</key>
                  <false/>
                  <key>x</key>
                  <integer>118</integer>
                  <key>y</key>
                  <integer>152</integer>
                </dict>
                <dict>
                  <key>smooth</key>
                  <false/>
                  <key>x</key>
                  <integer>174</integer>
                  <key>y</key>
                  <integer>169</integer>
                </dict>
                <dict>
                  <key>segmentType</key>
                  <string>curve</string>
                  <key>smooth</key>
                  <true/>
                  <key>x</key>
                  <integer>201</integer>
                  <key>y</key>
                  <integer>169</integer>
                </dict>
                <dict>
                  <key>smooth</key>
                  <false/>
                  <key>x</key>
                  <integer>238</integer>
                  <key>y</key>
                  <integer>169</integer>
                </dict>
                <dict>
                  <key>smooth</key>
                  <false/>
                  <key>x</key>
                  <integer>251</integer>
                  <key>y</key>
                  <integer>135</integer>
                </dict>
                <dict>
                  <key>segmentType</key>
                  <string>curve</string>
                  <key>smooth</key>
                  <true/>
                  <key>x</key>
                  <integer>247</integer>
                  <key>y</key>
                  <integer>107</integer>
                </dict>
                <dict>
                  <key>smooth</key>
                  <false/>
                  <key>x</key>
                  <integer>243</integer>
                  <key>y</key>
                  <integer>74</integer>
                </dict>
                <dict>
                  <key>smooth</key>
                  <false/>
                  <key>x</key>
                  <integer>210</integer>
                  <key>y</key>
                  <integer>11</integer>
                </dict>
                <dict>
                  <key>segmentType</key>
                  <string>curve</string>
                  <key>smooth</key>
                  <true/>
                  <key>x</key>
                  <integer>150</integer>
                  <key>y</key>
                  <integer>11</integer>
                </dict>
                <dict>
                  <key>smooth</key>
                  <false/>
                  <key>x</key>
                  <integer>117</integer>
                  <key>y</key>
                  <integer>11</integer>
                </dict>
                <dict>
                  <key>smooth</key>
                  <false/>
                  <key>x</key>
                  <integer>95</integer>
                  <key>y</key>
                  <integer>30</integer>
                </dict>
                <dict>
                  <key>segmentType</key>
                  <string>curve</string>
                  <key>smooth</key>
                  <true/>
                  <key>x</key>
                  <integer>102</integer>
                  <key>y</key>
                  <integer>71</integer>
                </dict>
                <dict>
                  <key>segmentType</key>
                  <string>line</string>
                  <key>smooth</key>
                  <true/>
                  <key>x</key>
                  <integer>135</integer>
                  <key>y</key>
                  <integer>254</integer>
                </dict>
                <dict>
                  <key>smooth</key>
                  <false/>
                  <key>x</key>
                  <integer>146</integer>
                  <key>y</key>
                  <integer>316</integer>
                </dict>
                <dict>
                  <key>smooth</key>
                  <false/>
                  <key>x</key>
                  <integer>140</integer>
                  <key>y</key>
                  <integer>338</integer>
                </dict>
                <dict>
                  <key>segmentType</key>
                  <string>curve</string>
                  <key>smooth</key>
                  <true/>
                  <key>x</key>
                  <integer>113</integer>
                  <key>y</key>
                  <integer>338</integer>
                </dict>
                <dict>
                  <key>smooth</key>
                  <false/>
                  <key>x</key>
                  <integer>84</integer>
                  <key>y</key>
                  <integer>338</integer>
                </dict>
                <dict>
                  <key>smooth</key>
                  <false/>
                  <key>x</key>
                  <integer>55</integer>
                  <key>y</key>
                  <integer>314</integer>
                </dict>
                <dict>
                  <key>segmentType</key>
                  <string>curve</string>
                  <key>smooth</key>
                  <true/>
                  <key>x</key>
                  <integer>17</integer>
                  <key>y</key>
                  <integer>271</integer>
                </dict>
                <dict>
                  <key>smooth</key>
                  <false/>
                  <key>x</key>
                  <integer>13</integer>
                  <key>y</key>
                  <integer>267</integer>
                </dict>
                <dict>
                  <key>smooth</key>
                  <false/>
                  <key>x</key>
                  <integer>20</integer>
                  <key>y</key>
                  <integer>260</integer>
                </dict>
                <dict>
                  <key>segmentType</key>
                  <string>curve</string>
                  <key>smooth</key>
                  <true/>
                  <key>x</key>
                  <integer>24</integer>
                  <key>y</key>
                  <integer>264</integer>
                </dict>
                <dict>
                  <key>smooth</key>
                  <false/>
                  <key>x</key>
                  <integer>49</integer>
                  <key>y</key>
                  <integer>290</integer>
                </dict>
                <dict>
                  <key>smooth</key>
                  <false/>
                  <key>x</key>
                  <integer>70</integer>
                  <key>y</key>
                  <integer>306</integer>
                </dict>
                <dict>
                  <key>segmentType</key>
                  <string>curve</string>
                  <key>smooth</key>
                  <true/>
                  <key>x</key>
                  <integer>83</integer>
                  <key>y</key>
                  <integer>306</integer>
                </dict>
                <dict>
                  <key>smooth</key>
                  <false/>
                  <key>x</key>
                  <integer>98</integer>
                  <key>y</key>
                  <integer>306</integer>
                </dict>
                <dict>
                  <key>smooth</key>
                  <false/>
                  <key>x</key>
                  <integer>105</integer>
                  <key>y</key>
                  <integer>289</integer>
                </dict>
                <dict>
                  <key>segmentType</key>
                  <string>curve</string>
                  <key>smooth</key>
                  <true/>
                  <key>x</key>
                  <integer>99</integer>
                  <key>y</key>
                  <integer>254</integer>
                </dict>
              </array>
            </dict>
          </array>
          <key>lib</key>
          <dict>
          </dict>
          <key>name</key>
          <string>softsign-cy</string>
          <key>unicodes</key>
          <array>
          </array>
          <key>width</key>
          <integer>318</integer>
        </dict>
        <key>background</key>
        <dict>
          <key>anchors</key>
          <array>
          </array>
          <key>components</key>
          <array>
            <dict>
              <key>baseGlyph</key>
              <string>o</string>
              <key>transformation</key>
              <array>
                <integer>1</integer>
                <integer>0</integer>
                <integer>0</integer>
                <integer>1</integer>
                <integer>2</integer>
                <integer>0</integer>
              </array>
            </dict>
          </array>
          <key>contours</key>
          <array>
          </array>
          <key>lib</key>
          <dict>
          </dict>
          <key>name</key>
          <string>softsign-cy</string>
          <key>unicodes</key>
          <array>
          </array>
          <key>width</key>
          <integer>320</integer>
        </dict>
      </dict>
    </dict>
  </lib>
</glyph>
