<?xml version="1.0" encoding="UTF-8"?>
<glyph name="abrevetilde.ss07" format="1">
  <advance width="345"/>
  <outline>
    <component base="a.ss07"/>
    <component base="brevecomb_tildecomb" xOffset="34"/>
  </outline>
  <lib>
    <dict>
      <key>com.schriftgestaltung.Glyphs.ColorIndex</key>
      <integer>9</integer>
      <key>public.markColor</key>
      <string>0.98,0.36,0.67,1</string>
    </dict>
  </lib>
</glyph>
