<?xml version="1.0" encoding="UTF-8"?>
<glyph name="bullet" format="1">
  <advance width="257"/>
  <unicode hex="2022"/>
  <outline>
    <contour>
      <point x="172" y="91"/>
      <point x="207" y="126"/>
      <point x="207" y="170" type="curve" smooth="yes"/>
      <point x="207" y="213"/>
      <point x="172" y="248"/>
      <point x="129" y="248" type="curve" smooth="yes"/>
      <point x="85" y="248"/>
      <point x="50" y="213"/>
      <point x="50" y="170" type="curve" smooth="yes"/>
      <point x="50" y="126"/>
      <point x="85" y="91"/>
      <point x="129" y="91" type="curve" smooth="yes"/>
    </contour>
  </outline>
</glyph>
