<?xml version="1.0" encoding="UTF-8"?>
<glyph name="eth" format="1">
  <advance width="369"/>
  <unicode hex="00F0"/>
  <outline>
    <contour>
      <point x="266" y="-11"/>
      <point x="343" y="53"/>
      <point x="343" y="188" type="curve" smooth="yes"/>
      <point x="343" y="353"/>
      <point x="228" y="547"/>
      <point x="83" y="620" type="curve" smooth="yes"/>
      <point x="74" y="624"/>
      <point x="41" y="613"/>
      <point x="50" y="609" type="curve" smooth="yes"/>
      <point x="186" y="540"/>
      <point x="302" y="343"/>
      <point x="297" y="174" type="curve"/>
      <point x="301" y="285" type="line"/>
      <point x="275" y="321"/>
      <point x="231" y="341"/>
      <point x="190" y="341" type="curve" smooth="yes"/>
      <point x="119" y="341"/>
      <point x="27" y="283"/>
      <point x="27" y="161" type="curve" smooth="yes"/>
      <point x="27" y="69"/>
      <point x="80" y="-11"/>
      <point x="178" y="-11" type="curve" smooth="yes"/>
    </contour>
    <contour>
      <point x="121" y="4"/>
      <point x="72" y="87"/>
      <point x="72" y="182" type="curve" smooth="yes"/>
      <point x="72" y="276"/>
      <point x="121" y="326"/>
      <point x="180" y="326" type="curve" smooth="yes"/>
      <point x="270" y="326"/>
      <point x="297" y="270"/>
      <point x="297" y="171" type="curve" smooth="yes"/>
      <point x="297" y="51"/>
      <point x="257" y="4"/>
      <point x="199" y="4" type="curve" smooth="yes"/>
    </contour>
    <contour>
      <point x="311" y="535" type="line" smooth="yes"/>
      <point x="315" y="537"/>
      <point x="307" y="552"/>
      <point x="303" y="550" type="curve" smooth="yes"/>
      <point x="68" y="439" type="line" smooth="yes"/>
      <point x="62" y="437"/>
      <point x="71" y="422"/>
      <point x="74" y="424" type="curve" smooth="yes"/>
    </contour>
    <contour>
      <point x="182" y="330" type="move" name="top"/>
    </contour>
  </outline>
  <lib>
    <dict>
      <key>com.schriftgestaltung.Glyphs.ColorIndex</key>
      <integer>3</integer>
      <key>com.schriftgestaltung.Glyphs.leftMetricsKey</key>
      <string>=o</string>
      <key>com.schriftgestaltung.Glyphs.rightMetricsKey</key>
      <string>=o</string>
      <key>com.typemytype.robofont.layerData</key>
      <dict>
        <key>Regular Jan 5 15, 13:00</key>
        <dict>
          <key>anchors</key>
          <array>
            <dict>
              <key>name</key>
              <string>top</string>
              <key>x</key>
              <integer>198</integer>
              <key>y</key>
              <integer>330</integer>
            </dict>
          </array>
          <key>components</key>
          <array>
          </array>
          <key>contours</key>
          <array>
            <dict>
              <key>points</key>
              <array>
                <dict>
                  <key>segmentType</key>
                  <string>line</string>
                  <key>smooth</key>
                  <false/>
                  <key>x</key>
                  <integer>314</integer>
                  <key>y</key>
                  <integer>297</integer>
                </dict>
                <dict>
                  <key>smooth</key>
                  <false/>
                  <key>x</key>
                  <integer>285</integer>
                  <key>y</key>
                  <integer>326</integer>
                </dict>
                <dict>
                  <key>smooth</key>
                  <false/>
                  <key>x</key>
                  <integer>245</integer>
                  <key>y</key>
                  <integer>341</integer>
                </dict>
                <dict>
                  <key>segmentType</key>
                  <string>curve</string>
                  <key>smooth</key>
                  <true/>
                  <key>x</key>
                  <integer>206</integer>
                  <key>y</key>
                  <integer>341</integer>
                </dict>
                <dict>
                  <key>smooth</key>
                  <false/>
                  <key>x</key>
                  <integer>130</integer>
                  <key>y</key>
                  <integer>341</integer>
                </dict>
                <dict>
                  <key>smooth</key>
                  <false/>
                  <key>x</key>
                  <integer>32</integer>
                  <key>y</key>
                  <integer>284</integer>
                </dict>
                <dict>
                  <key>segmentType</key>
                  <string>curve</string>
                  <key>smooth</key>
                  <true/>
                  <key>x</key>
                  <integer>32</integer>
                  <key>y</key>
                  <integer>159</integer>
                </dict>
                <dict>
                  <key>smooth</key>
                  <false/>
                  <key>x</key>
                  <integer>32</integer>
                  <key>y</key>
                  <integer>68</integer>
                </dict>
                <dict>
                  <key>smooth</key>
                  <false/>
                  <key>x</key>
                  <integer>92</integer>
                  <key>y</key>
                  <integer>-11</integer>
                </dict>
                <dict>
                  <key>segmentType</key>
                  <string>curve</string>
                  <key>smooth</key>
                  <true/>
                  <key>x</key>
                  <integer>191</integer>
                  <key>y</key>
                  <integer>-11</integer>
                </dict>
                <dict>
                  <key>smooth</key>
                  <false/>
                  <key>x</key>
                  <integer>287</integer>
                  <key>y</key>
                  <integer>-11</integer>
                </dict>
                <dict>
                  <key>smooth</key>
                  <false/>
                  <key>x</key>
                  <integer>370</integer>
                  <key>y</key>
                  <integer>54</integer>
                </dict>
                <dict>
                  <key>segmentType</key>
                  <string>curve</string>
                  <key>smooth</key>
                  <true/>
                  <key>x</key>
                  <integer>370</integer>
                  <key>y</key>
                  <integer>185</integer>
                </dict>
                <dict>
                  <key>smooth</key>
                  <false/>
                  <key>x</key>
                  <integer>370</integer>
                  <key>y</key>
                  <integer>365</integer>
                </dict>
                <dict>
                  <key>smooth</key>
                  <false/>
                  <key>x</key>
                  <integer>259</integer>
                  <key>y</key>
                  <integer>537</integer>
                </dict>
                <dict>
                  <key>segmentType</key>
                  <string>curve</string>
                  <key>smooth</key>
                  <true/>
                  <key>x</key>
                  <integer>82</integer>
                  <key>y</key>
                  <integer>620</integer>
                </dict>
                <dict>
                  <key>smooth</key>
                  <false/>
                  <key>x</key>
                  <integer>78</integer>
                  <key>y</key>
                  <integer>622</integer>
                </dict>
                <dict>
                  <key>smooth</key>
                  <false/>
                  <key>x</key>
                  <integer>73</integer>
                  <key>y</key>
                  <integer>614</integer>
                </dict>
                <dict>
                  <key>segmentType</key>
                  <string>curve</string>
                  <key>smooth</key>
                  <true/>
                  <key>x</key>
                  <integer>77</integer>
                  <key>y</key>
                  <integer>612</integer>
                </dict>
                <dict>
                  <key>smooth</key>
                  <false/>
                  <key>x</key>
                  <integer>210</integer>
                  <key>y</key>
                  <integer>530</integer>
                </dict>
                <dict>
                  <key>smooth</key>
                  <false/>
                  <key>x</key>
                  <integer>321</integer>
                  <key>y</key>
                  <integer>353</integer>
                </dict>
                <dict>
                  <key>segmentType</key>
                  <string>curve</string>
                  <key>smooth</key>
                  <true/>
                  <key>x</key>
                  <integer>321</integer>
                  <key>y</key>
                  <integer>163</integer>
                </dict>
                <dict>
                  <key>smooth</key>
                  <false/>
                  <key>x</key>
                  <integer>321</integer>
                  <key>y</key>
                  <integer>42</integer>
                </dict>
                <dict>
                  <key>smooth</key>
                  <false/>
                  <key>x</key>
                  <integer>278</integer>
                  <key>y</key>
                  <integer>4</integer>
                </dict>
                <dict>
                  <key>segmentType</key>
                  <string>curve</string>
                  <key>smooth</key>
                  <true/>
                  <key>x</key>
                  <integer>215</integer>
                  <key>y</key>
                  <integer>4</integer>
                </dict>
                <dict>
                  <key>smooth</key>
                  <false/>
                  <key>x</key>
                  <integer>133</integer>
                  <key>y</key>
                  <integer>4</integer>
                </dict>
                <dict>
                  <key>smooth</key>
                  <false/>
                  <key>x</key>
                  <integer>80</integer>
                  <key>y</key>
                  <integer>87</integer>
                </dict>
                <dict>
                  <key>segmentType</key>
                  <string>curve</string>
                  <key>smooth</key>
                  <true/>
                  <key>x</key>
                  <integer>80</integer>
                  <key>y</key>
                  <integer>184</integer>
                </dict>
                <dict>
                  <key>smooth</key>
                  <false/>
                  <key>x</key>
                  <integer>80</integer>
                  <key>y</key>
                  <integer>275</integer>
                </dict>
                <dict>
                  <key>smooth</key>
                  <false/>
                  <key>x</key>
                  <integer>132</integer>
                  <key>y</key>
                  <integer>326</integer>
                </dict>
                <dict>
                  <key>segmentType</key>
                  <string>curve</string>
                  <key>smooth</key>
                  <true/>
                  <key>x</key>
                  <integer>195</integer>
                  <key>y</key>
                  <integer>326</integer>
                </dict>
                <dict>
                  <key>smooth</key>
                  <false/>
                  <key>x</key>
                  <integer>257</integer>
                  <key>y</key>
                  <integer>326</integer>
                </dict>
                <dict>
                  <key>smooth</key>
                  <false/>
                  <key>x</key>
                  <integer>306</integer>
                  <key>y</key>
                  <integer>289</integer>
                </dict>
                <dict>
                  <key>segmentType</key>
                  <string>curve</string>
                  <key>smooth</key>
                  <false/>
                  <key>x</key>
                  <integer>323</integer>
                  <key>y</key>
                  <integer>229</integer>
                </dict>
              </array>
            </dict>
            <dict>
              <key>points</key>
              <array>
                <dict>
                  <key>segmentType</key>
                  <string>line</string>
                  <key>smooth</key>
                  <true/>
                  <key>x</key>
                  <integer>327</integer>
                  <key>y</key>
                  <integer>517</integer>
                </dict>
                <dict>
                  <key>smooth</key>
                  <false/>
                  <key>x</key>
                  <integer>332</integer>
                  <key>y</key>
                  <integer>519</integer>
                </dict>
                <dict>
                  <key>smooth</key>
                  <false/>
                  <key>x</key>
                  <integer>326</integer>
                  <key>y</key>
                  <integer>534</integer>
                </dict>
                <dict>
                  <key>segmentType</key>
                  <string>curve</string>
                  <key>smooth</key>
                  <true/>
                  <key>x</key>
                  <integer>322</integer>
                  <key>y</key>
                  <integer>532</integer>
                </dict>
                <dict>
                  <key>segmentType</key>
                  <string>line</string>
                  <key>smooth</key>
                  <true/>
                  <key>x</key>
                  <integer>88</integer>
                  <key>y</key>
                  <integer>421</integer>
                </dict>
                <dict>
                  <key>smooth</key>
                  <false/>
                  <key>x</key>
                  <integer>83</integer>
                  <key>y</key>
                  <integer>419</integer>
                </dict>
                <dict>
                  <key>smooth</key>
                  <false/>
                  <key>x</key>
                  <integer>89</integer>
                  <key>y</key>
                  <integer>404</integer>
                </dict>
                <dict>
                  <key>segmentType</key>
                  <string>curve</string>
                  <key>smooth</key>
                  <true/>
                  <key>x</key>
                  <integer>93</integer>
                  <key>y</key>
                  <integer>406</integer>
                </dict>
              </array>
            </dict>
          </array>
          <key>lib</key>
          <dict>
          </dict>
          <key>name</key>
          <string>eth</string>
          <key>unicodes</key>
          <array>
          </array>
          <key>width</key>
          <integer>402</integer>
        </dict>
        <key>background</key>
        <dict>
          <key>anchors</key>
          <array>
          </array>
          <key>components</key>
          <array>
          </array>
          <key>contours</key>
          <array>
            <dict>
              <key>points</key>
              <array>
                <dict>
                  <key>segmentType</key>
                  <string>move</string>
                  <key>smooth</key>
                  <true/>
                  <key>x</key>
                  <integer>77</integer>
                  <key>y</key>
                  <integer>424</integer>
                </dict>
                <dict>
                  <key>segmentType</key>
                  <string>line</string>
                  <key>smooth</key>
                  <true/>
                  <key>x</key>
                  <integer>314</integer>
                  <key>y</key>
                  <integer>535</integer>
                </dict>
              </array>
            </dict>
          </array>
          <key>lib</key>
          <dict>
          </dict>
          <key>name</key>
          <string>eth</string>
          <key>unicodes</key>
          <array>
          </array>
          <key>width</key>
          <integer>369</integer>
        </dict>
      </dict>
      <key>public.markColor</key>
      <string>0.97,1,0,1</string>
    </dict>
  </lib>
</glyph>
