<?xml version="1.0" encoding="UTF-8"?>
<glyph name="fivesuperior" format="1">
  <advance width="213"/>
  <unicode hex="2075"/>
  <outline>
    <contour>
      <point x="60" y="494" type="line"/>
      <point x="69" y="581" type="line" smooth="yes"/>
      <point x="69" y="585"/>
      <point x="71" y="587"/>
      <point x="75" y="587" type="curve" smooth="yes"/>
      <point x="156" y="585" type="line" smooth="yes"/>
      <point x="163" y="585"/>
      <point x="167" y="586"/>
      <point x="168" y="593" type="curve" smooth="yes"/>
      <point x="173" y="626" type="line" smooth="yes"/>
      <point x="173" y="628"/>
      <point x="169" y="628"/>
      <point x="168" y="627" type="curve" smooth="yes"/>
      <point x="163" y="614"/>
      <point x="162" y="614"/>
      <point x="60" y="614" type="curve" smooth="yes"/>
      <point x="56" y="614"/>
      <point x="55" y="613"/>
      <point x="55" y="609" type="curve" smooth="yes"/>
      <point x="42" y="493" type="line" smooth="yes"/>
      <point x="42" y="491"/>
      <point x="43" y="488"/>
      <point x="46" y="488" type="curve"/>
    </contour>
    <contour>
      <point x="38" y="379"/>
      <point x="31" y="372"/>
      <point x="33" y="370" type="curve" smooth="yes"/>
      <point x="50" y="349"/>
      <point x="70" y="339"/>
      <point x="96" y="339" type="curve" smooth="yes"/>
      <point x="142" y="339"/>
      <point x="183" y="369"/>
      <point x="183" y="427" type="curve" smooth="yes"/>
      <point x="183" y="481"/>
      <point x="147" y="510"/>
      <point x="99" y="510" type="curve" smooth="yes"/>
      <point x="76" y="510"/>
      <point x="54" y="503"/>
      <point x="47" y="501" type="curve" smooth="yes"/>
      <point x="46" y="500"/>
      <point x="45" y="488"/>
      <point x="46" y="488" type="curve" smooth="yes"/>
      <point x="56" y="492"/>
      <point x="72" y="494"/>
      <point x="85" y="494" type="curve" smooth="yes"/>
      <point x="132" y="494"/>
      <point x="147" y="467"/>
      <point x="147" y="425" type="curve" smooth="yes"/>
      <point x="147" y="385"/>
      <point x="134" y="353"/>
      <point x="94" y="353" type="curve" smooth="yes"/>
      <point x="71" y="353"/>
      <point x="54" y="364"/>
      <point x="40" y="377" type="curve" smooth="yes"/>
    </contour>
  </outline>
  <lib>
    <dict>
      <key>com.schriftgestaltung.Glyphs.ColorIndex</key>
      <integer>9</integer>
      <key>com.typemytype.robofont.layerData</key>
      <dict>
        <key>Regular Dec 13 14, 01:49</key>
        <dict>
          <key>anchors</key>
          <array>
          </array>
          <key>components</key>
          <array>
          </array>
          <key>contours</key>
          <array>
            <dict>
              <key>points</key>
              <array>
                <dict>
                  <key>smooth</key>
                  <false/>
                  <key>x</key>
                  <integer>138</integer>
                  <key>y</key>
                  <integer>187</integer>
                </dict>
                <dict>
                  <key>smooth</key>
                  <false/>
                  <key>x</key>
                  <integer>107</integer>
                  <key>y</key>
                  <integer>180</integer>
                </dict>
                <dict>
                  <key>segmentType</key>
                  <string>curve</string>
                  <key>smooth</key>
                  <false/>
                  <key>x</key>
                  <integer>87</integer>
                  <key>y</key>
                  <integer>171</integer>
                </dict>
                <dict>
                  <key>segmentType</key>
                  <string>line</string>
                  <key>smooth</key>
                  <false/>
                  <key>x</key>
                  <integer>110</integer>
                  <key>y</key>
                  <integer>171</integer>
                </dict>
                <dict>
                  <key>segmentType</key>
                  <string>line</string>
                  <key>smooth</key>
                  <true/>
                  <key>x</key>
                  <integer>111</integer>
                  <key>y</key>
                  <integer>379</integer>
                </dict>
                <dict>
                  <key>smooth</key>
                  <false/>
                  <key>x</key>
                  <integer>111</integer>
                  <key>y</key>
                  <integer>387</integer>
                </dict>
                <dict>
                  <key>smooth</key>
                  <false/>
                  <key>x</key>
                  <integer>116</integer>
                  <key>y</key>
                  <integer>391</integer>
                </dict>
                <dict>
                  <key>segmentType</key>
                  <string>curve</string>
                  <key>smooth</key>
                  <true/>
                  <key>x</key>
                  <integer>124</integer>
                  <key>y</key>
                  <integer>391</integer>
                </dict>
                <dict>
                  <key>segmentType</key>
                  <string>line</string>
                  <key>smooth</key>
                  <true/>
                  <key>x</key>
                  <integer>181</integer>
                  <key>y</key>
                  <integer>392</integer>
                </dict>
                <dict>
                  <key>smooth</key>
                  <false/>
                  <key>x</key>
                  <integer>279</integer>
                  <key>y</key>
                  <integer>393</integer>
                </dict>
                <dict>
                  <key>smooth</key>
                  <false/>
                  <key>x</key>
                  <integer>315</integer>
                  <key>y</key>
                  <integer>372</integer>
                </dict>
                <dict>
                  <key>segmentType</key>
                  <string>curve</string>
                  <key>smooth</key>
                  <true/>
                  <key>x</key>
                  <integer>316</integer>
                  <key>y</key>
                  <integer>310</integer>
                </dict>
                <dict>
                  <key>smooth</key>
                  <false/>
                  <key>x</key>
                  <integer>316</integer>
                  <key>y</key>
                  <integer>307</integer>
                </dict>
                <dict>
                  <key>smooth</key>
                  <false/>
                  <key>x</key>
                  <integer>326</integer>
                  <key>y</key>
                  <integer>307</integer>
                </dict>
                <dict>
                  <key>segmentType</key>
                  <string>curve</string>
                  <key>smooth</key>
                  <true/>
                  <key>x</key>
                  <integer>326</integer>
                  <key>y</key>
                  <integer>310</integer>
                </dict>
                <dict>
                  <key>smooth</key>
                  <false/>
                  <key>x</key>
                  <integer>326</integer>
                  <key>y</key>
                  <integer>346</integer>
                </dict>
                <dict>
                  <key>smooth</key>
                  <false/>
                  <key>x</key>
                  <integer>325</integer>
                  <key>y</key>
                  <integer>370</integer>
                </dict>
                <dict>
                  <key>segmentType</key>
                  <string>curve</string>
                  <key>smooth</key>
                  <true/>
                  <key>x</key>
                  <integer>325</integer>
                  <key>y</key>
                  <integer>395</integer>
                </dict>
                <dict>
                  <key>smooth</key>
                  <false/>
                  <key>x</key>
                  <integer>325</integer>
                  <key>y</key>
                  <integer>399</integer>
                </dict>
                <dict>
                  <key>smooth</key>
                  <false/>
                  <key>x</key>
                  <integer>322</integer>
                  <key>y</key>
                  <integer>404</integer>
                </dict>
                <dict>
                  <key>segmentType</key>
                  <string>curve</string>
                  <key>smooth</key>
                  <true/>
                  <key>x</key>
                  <integer>317</integer>
                  <key>y</key>
                  <integer>404</integer>
                </dict>
                <dict>
                  <key>smooth</key>
                  <false/>
                  <key>x</key>
                  <integer>294</integer>
                  <key>y</key>
                  <integer>404</integer>
                </dict>
                <dict>
                  <key>smooth</key>
                  <false/>
                  <key>x</key>
                  <integer>309</integer>
                  <key>y</key>
                  <integer>400</integer>
                </dict>
                <dict>
                  <key>segmentType</key>
                  <string>curve</string>
                  <key>smooth</key>
                  <true/>
                  <key>x</key>
                  <integer>78</integer>
                  <key>y</key>
                  <integer>400</integer>
                </dict>
                <dict>
                  <key>smooth</key>
                  <false/>
                  <key>x</key>
                  <integer>66</integer>
                  <key>y</key>
                  <integer>400</integer>
                </dict>
                <dict>
                  <key>smooth</key>
                  <false/>
                  <key>x</key>
                  <integer>67</integer>
                  <key>y</key>
                  <integer>398</integer>
                </dict>
                <dict>
                  <key>segmentType</key>
                  <string>curve</string>
                  <key>smooth</key>
                  <true/>
                  <key>x</key>
                  <integer>67</integer>
                  <key>y</key>
                  <integer>390</integer>
                </dict>
                <dict>
                  <key>segmentType</key>
                  <string>line</string>
                  <key>smooth</key>
                  <true/>
                  <key>x</key>
                  <integer>67</integer>
                  <key>y</key>
                  <integer>155</integer>
                </dict>
                <dict>
                  <key>smooth</key>
                  <false/>
                  <key>x</key>
                  <integer>67</integer>
                  <key>y</key>
                  <integer>153</integer>
                </dict>
                <dict>
                  <key>smooth</key>
                  <false/>
                  <key>x</key>
                  <integer>72</integer>
                  <key>y</key>
                  <integer>151</integer>
                </dict>
                <dict>
                  <key>segmentType</key>
                  <string>curve</string>
                  <key>smooth</key>
                  <true/>
                  <key>x</key>
                  <integer>74</integer>
                  <key>y</key>
                  <integer>152</integer>
                </dict>
                <dict>
                  <key>smooth</key>
                  <false/>
                  <key>x</key>
                  <integer>92</integer>
                  <key>y</key>
                  <integer>163</integer>
                </dict>
                <dict>
                  <key>smooth</key>
                  <false/>
                  <key>x</key>
                  <integer>120</integer>
                  <key>y</key>
                  <integer>169</integer>
                </dict>
                <dict>
                  <key>segmentType</key>
                  <string>curve</string>
                  <key>smooth</key>
                  <true/>
                  <key>x</key>
                  <integer>147</integer>
                  <key>y</key>
                  <integer>169</integer>
                </dict>
                <dict>
                  <key>smooth</key>
                  <false/>
                  <key>x</key>
                  <integer>242</integer>
                  <key>y</key>
                  <integer>169</integer>
                </dict>
                <dict>
                  <key>smooth</key>
                  <false/>
                  <key>x</key>
                  <integer>285</integer>
                  <key>y</key>
                  <integer>109</integer>
                </dict>
                <dict>
                  <key>segmentType</key>
                  <string>curve</string>
                  <key>smooth</key>
                  <true/>
                  <key>x</key>
                  <integer>285</integer>
                  <key>y</key>
                  <integer>27</integer>
                </dict>
                <dict>
                  <key>smooth</key>
                  <false/>
                  <key>x</key>
                  <integer>285</integer>
                  <key>y</key>
                  <integer>-59</integer>
                </dict>
                <dict>
                  <key>smooth</key>
                  <false/>
                  <key>x</key>
                  <integer>237</integer>
                  <key>y</key>
                  <integer>-141</integer>
                </dict>
                <dict>
                  <key>segmentType</key>
                  <string>curve</string>
                  <key>smooth</key>
                  <false/>
                  <key>x</key>
                  <integer>68</integer>
                  <key>y</key>
                  <integer>-224</integer>
                </dict>
                <dict>
                  <key>smooth</key>
                  <false/>
                  <key>x</key>
                  <integer>64</integer>
                  <key>y</key>
                  <integer>-226</integer>
                </dict>
                <dict>
                  <key>smooth</key>
                  <false/>
                  <key>x</key>
                  <integer>74</integer>
                  <key>y</key>
                  <integer>-237</integer>
                </dict>
                <dict>
                  <key>segmentType</key>
                  <string>curve</string>
                  <key>smooth</key>
                  <false/>
                  <key>x</key>
                  <integer>78</integer>
                  <key>y</key>
                  <integer>-235</integer>
                </dict>
                <dict>
                  <key>smooth</key>
                  <false/>
                  <key>x</key>
                  <integer>269</integer>
                  <key>y</key>
                  <integer>-144</integer>
                </dict>
                <dict>
                  <key>smooth</key>
                  <false/>
                  <key>x</key>
                  <integer>338</integer>
                  <key>y</key>
                  <integer>-62</integer>
                </dict>
                <dict>
                  <key>segmentType</key>
                  <string>curve</string>
                  <key>smooth</key>
                  <true/>
                  <key>x</key>
                  <integer>338</integer>
                  <key>y</key>
                  <integer>37</integer>
                </dict>
                <dict>
                  <key>smooth</key>
                  <false/>
                  <key>x</key>
                  <integer>338</integer>
                  <key>y</key>
                  <integer>131</integer>
                </dict>
                <dict>
                  <key>smooth</key>
                  <false/>
                  <key>x</key>
                  <integer>275</integer>
                  <key>y</key>
                  <integer>187</integer>
                </dict>
                <dict>
                  <key>segmentType</key>
                  <string>curve</string>
                  <key>smooth</key>
                  <true/>
                  <key>x</key>
                  <integer>171</integer>
                  <key>y</key>
                  <integer>187</integer>
                </dict>
              </array>
            </dict>
          </array>
          <key>lib</key>
          <dict>
          </dict>
          <key>name</key>
          <string>fivesuperior</string>
          <key>unicodes</key>
          <array>
          </array>
          <key>width</key>
          <integer>400</integer>
        </dict>
        <key>Regular Dec 13 14, 14:06</key>
        <dict>
          <key>anchors</key>
          <array>
          </array>
          <key>components</key>
          <array>
          </array>
          <key>contours</key>
          <array>
            <dict>
              <key>points</key>
              <array>
                <dict>
                  <key>smooth</key>
                  <false/>
                  <key>x</key>
                  <integer>128</integer>
                  <key>y</key>
                  <integer>151</integer>
                </dict>
                <dict>
                  <key>smooth</key>
                  <false/>
                  <key>x</key>
                  <integer>97</integer>
                  <key>y</key>
                  <integer>148</integer>
                </dict>
                <dict>
                  <key>segmentType</key>
                  <string>curve</string>
                  <key>smooth</key>
                  <false/>
                  <key>x</key>
                  <integer>77</integer>
                  <key>y</key>
                  <integer>145</integer>
                </dict>
                <dict>
                  <key>segmentType</key>
                  <string>line</string>
                  <key>smooth</key>
                  <false/>
                  <key>x</key>
                  <integer>98</integer>
                  <key>y</key>
                  <integer>140</integer>
                </dict>
                <dict>
                  <key>segmentType</key>
                  <string>line</string>
                  <key>smooth</key>
                  <true/>
                  <key>x</key>
                  <integer>99</integer>
                  <key>y</key>
                  <integer>308</integer>
                </dict>
                <dict>
                  <key>smooth</key>
                  <false/>
                  <key>x</key>
                  <integer>99</integer>
                  <key>y</key>
                  <integer>316</integer>
                </dict>
                <dict>
                  <key>smooth</key>
                  <false/>
                  <key>x</key>
                  <integer>104</integer>
                  <key>y</key>
                  <integer>320</integer>
                </dict>
                <dict>
                  <key>segmentType</key>
                  <string>curve</string>
                  <key>smooth</key>
                  <true/>
                  <key>x</key>
                  <integer>112</integer>
                  <key>y</key>
                  <integer>320</integer>
                </dict>
                <dict>
                  <key>segmentType</key>
                  <string>line</string>
                  <key>smooth</key>
                  <true/>
                  <key>x</key>
                  <integer>171</integer>
                  <key>y</key>
                  <integer>320</integer>
                </dict>
                <dict>
                  <key>smooth</key>
                  <false/>
                  <key>x</key>
                  <integer>259</integer>
                  <key>y</key>
                  <integer>320</integer>
                </dict>
                <dict>
                  <key>smooth</key>
                  <false/>
                  <key>x</key>
                  <integer>286</integer>
                  <key>y</key>
                  <integer>299</integer>
                </dict>
                <dict>
                  <key>segmentType</key>
                  <string>curve</string>
                  <key>smooth</key>
                  <true/>
                  <key>x</key>
                  <integer>275</integer>
                  <key>y</key>
                  <integer>238</integer>
                </dict>
                <dict>
                  <key>smooth</key>
                  <false/>
                  <key>x</key>
                  <integer>274</integer>
                  <key>y</key>
                  <integer>235</integer>
                </dict>
                <dict>
                  <key>smooth</key>
                  <false/>
                  <key>x</key>
                  <integer>284</integer>
                  <key>y</key>
                  <integer>233</integer>
                </dict>
                <dict>
                  <key>segmentType</key>
                  <string>curve</string>
                  <key>smooth</key>
                  <true/>
                  <key>x</key>
                  <integer>285</integer>
                  <key>y</key>
                  <integer>236</integer>
                </dict>
                <dict>
                  <key>segmentType</key>
                  <string>line</string>
                  <key>smooth</key>
                  <true/>
                  <key>x</key>
                  <integer>314</integer>
                  <key>y</key>
                  <integer>354</integer>
                </dict>
                <dict>
                  <key>smooth</key>
                  <false/>
                  <key>x</key>
                  <integer>315</integer>
                  <key>y</key>
                  <integer>358</integer>
                </dict>
                <dict>
                  <key>smooth</key>
                  <false/>
                  <key>x</key>
                  <integer>306</integer>
                  <key>y</key>
                  <integer>359</integer>
                </dict>
                <dict>
                  <key>segmentType</key>
                  <string>curve</string>
                  <key>smooth</key>
                  <true/>
                  <key>x</key>
                  <integer>305</integer>
                  <key>y</key>
                  <integer>356</integer>
                </dict>
                <dict>
                  <key>smooth</key>
                  <false/>
                  <key>x</key>
                  <integer>299</integer>
                  <key>y</key>
                  <integer>334</integer>
                </dict>
                <dict>
                  <key>smooth</key>
                  <false/>
                  <key>x</key>
                  <integer>287</integer>
                  <key>y</key>
                  <integer>332</integer>
                </dict>
                <dict>
                  <key>segmentType</key>
                  <string>curve</string>
                  <key>smooth</key>
                  <true/>
                  <key>x</key>
                  <integer>270</integer>
                  <key>y</key>
                  <integer>332</integer>
                </dict>
                <dict>
                  <key>segmentType</key>
                  <string>line</string>
                  <key>smooth</key>
                  <true/>
                  <key>x</key>
                  <integer>68</integer>
                  <key>y</key>
                  <integer>329</integer>
                </dict>
                <dict>
                  <key>smooth</key>
                  <false/>
                  <key>x</key>
                  <integer>59</integer>
                  <key>y</key>
                  <integer>329</integer>
                </dict>
                <dict>
                  <key>smooth</key>
                  <false/>
                  <key>x</key>
                  <integer>57</integer>
                  <key>y</key>
                  <integer>327</integer>
                </dict>
                <dict>
                  <key>segmentType</key>
                  <string>curve</string>
                  <key>smooth</key>
                  <true/>
                  <key>x</key>
                  <integer>57</integer>
                  <key>y</key>
                  <integer>319</integer>
                </dict>
                <dict>
                  <key>segmentType</key>
                  <string>line</string>
                  <key>smooth</key>
                  <true/>
                  <key>x</key>
                  <integer>57</integer>
                  <key>y</key>
                  <integer>129</integer>
                </dict>
                <dict>
                  <key>smooth</key>
                  <false/>
                  <key>x</key>
                  <integer>57</integer>
                  <key>y</key>
                  <integer>127</integer>
                </dict>
                <dict>
                  <key>smooth</key>
                  <false/>
                  <key>x</key>
                  <integer>62</integer>
                  <key>y</key>
                  <integer>125</integer>
                </dict>
                <dict>
                  <key>segmentType</key>
                  <string>curve</string>
                  <key>smooth</key>
                  <true/>
                  <key>x</key>
                  <integer>64</integer>
                  <key>y</key>
                  <integer>126</integer>
                </dict>
                <dict>
                  <key>smooth</key>
                  <false/>
                  <key>x</key>
                  <integer>82</integer>
                  <key>y</key>
                  <integer>131</integer>
                </dict>
                <dict>
                  <key>smooth</key>
                  <false/>
                  <key>x</key>
                  <integer>110</integer>
                  <key>y</key>
                  <integer>133</integer>
                </dict>
                <dict>
                  <key>segmentType</key>
                  <string>curve</string>
                  <key>smooth</key>
                  <true/>
                  <key>x</key>
                  <integer>137</integer>
                  <key>y</key>
                  <integer>133</integer>
                </dict>
                <dict>
                  <key>smooth</key>
                  <false/>
                  <key>x</key>
                  <integer>218</integer>
                  <key>y</key>
                  <integer>133</integer>
                </dict>
                <dict>
                  <key>smooth</key>
                  <false/>
                  <key>x</key>
                  <integer>257</integer>
                  <key>y</key>
                  <integer>77</integer>
                </dict>
                <dict>
                  <key>segmentType</key>
                  <string>curve</string>
                  <key>smooth</key>
                  <true/>
                  <key>x</key>
                  <integer>257</integer>
                  <key>y</key>
                  <integer>1</integer>
                </dict>
                <dict>
                  <key>smooth</key>
                  <false/>
                  <key>x</key>
                  <integer>257</integer>
                  <key>y</key>
                  <integer>-79</integer>
                </dict>
                <dict>
                  <key>smooth</key>
                  <false/>
                  <key>x</key>
                  <integer>216</integer>
                  <key>y</key>
                  <integer>-149</integer>
                </dict>
                <dict>
                  <key>segmentType</key>
                  <string>curve</string>
                  <key>smooth</key>
                  <true/>
                  <key>x</key>
                  <integer>63</integer>
                  <key>y</key>
                  <integer>-226</integer>
                </dict>
                <dict>
                  <key>smooth</key>
                  <false/>
                  <key>x</key>
                  <integer>59</integer>
                  <key>y</key>
                  <integer>-228</integer>
                </dict>
                <dict>
                  <key>smooth</key>
                  <false/>
                  <key>x</key>
                  <integer>64</integer>
                  <key>y</key>
                  <integer>-237</integer>
                </dict>
                <dict>
                  <key>segmentType</key>
                  <string>curve</string>
                  <key>smooth</key>
                  <true/>
                  <key>x</key>
                  <integer>68</integer>
                  <key>y</key>
                  <integer>-235</integer>
                </dict>
                <dict>
                  <key>smooth</key>
                  <false/>
                  <key>x</key>
                  <integer>245</integer>
                  <key>y</key>
                  <integer>-150</integer>
                </dict>
                <dict>
                  <key>smooth</key>
                  <false/>
                  <key>x</key>
                  <integer>308</integer>
                  <key>y</key>
                  <integer>-80</integer>
                </dict>
                <dict>
                  <key>segmentType</key>
                  <string>curve</string>
                  <key>smooth</key>
                  <true/>
                  <key>x</key>
                  <integer>308</integer>
                  <key>y</key>
                  <integer>11</integer>
                </dict>
                <dict>
                  <key>smooth</key>
                  <false/>
                  <key>x</key>
                  <integer>308</integer>
                  <key>y</key>
                  <integer>99</integer>
                </dict>
                <dict>
                  <key>smooth</key>
                  <false/>
                  <key>x</key>
                  <integer>253</integer>
                  <key>y</key>
                  <integer>151</integer>
                </dict>
                <dict>
                  <key>segmentType</key>
                  <string>curve</string>
                  <key>smooth</key>
                  <true/>
                  <key>x</key>
                  <integer>161</integer>
                  <key>y</key>
                  <integer>151</integer>
                </dict>
              </array>
            </dict>
          </array>
          <key>lib</key>
          <dict>
          </dict>
          <key>name</key>
          <string>fivesuperior</string>
          <key>unicodes</key>
          <array>
          </array>
          <key>width</key>
          <integer>370</integer>
        </dict>
        <key>background</key>
        <dict>
          <key>anchors</key>
          <array>
          </array>
          <key>components</key>
          <array>
          </array>
          <key>contours</key>
          <array>
            <dict>
              <key>points</key>
              <array>
                <dict>
                  <key>smooth</key>
                  <false/>
                  <key>x</key>
                  <integer>-56</integer>
                  <key>y</key>
                  <integer>7</integer>
                </dict>
                <dict>
                  <key>smooth</key>
                  <false/>
                  <key>x</key>
                  <integer>35</integer>
                  <key>y</key>
                  <integer>6</integer>
                </dict>
                <dict>
                  <key>segmentType</key>
                  <string>curve</string>
                  <key>smooth</key>
                  <true/>
                  <key>x</key>
                  <integer>127</integer>
                  <key>y</key>
                  <integer>1</integer>
                </dict>
                <dict>
                  <key>smooth</key>
                  <false/>
                  <key>x</key>
                  <integer>132</integer>
                  <key>y</key>
                  <integer>1</integer>
                </dict>
                <dict>
                  <key>smooth</key>
                  <false/>
                  <key>x</key>
                  <integer>132</integer>
                  <key>y</key>
                  <integer>37</integer>
                </dict>
                <dict>
                  <key>segmentType</key>
                  <string>curve</string>
                  <key>smooth</key>
                  <true/>
                  <key>x</key>
                  <integer>127</integer>
                  <key>y</key>
                  <integer>37</integer>
                </dict>
                <dict>
                  <key>smooth</key>
                  <false/>
                  <key>x</key>
                  <integer>29</integer>
                  <key>y</key>
                  <integer>34</integer>
                </dict>
                <dict>
                  <key>smooth</key>
                  <false/>
                  <key>x</key>
                  <integer>-49</integer>
                  <key>y</key>
                  <integer>32</integer>
                </dict>
                <dict>
                  <key>segmentType</key>
                  <string>curve</string>
                  <key>smooth</key>
                  <true/>
                  <key>x</key>
                  <integer>-182</integer>
                  <key>y</key>
                  <integer>32</integer>
                </dict>
                <dict>
                  <key>smooth</key>
                  <false/>
                  <key>x</key>
                  <integer>-187</integer>
                  <key>y</key>
                  <integer>32</integer>
                </dict>
                <dict>
                  <key>smooth</key>
                  <false/>
                  <key>x</key>
                  <integer>-189</integer>
                  <key>y</key>
                  <integer>34</integer>
                </dict>
                <dict>
                  <key>segmentType</key>
                  <string>curve</string>
                  <key>smooth</key>
                  <true/>
                  <key>x</key>
                  <integer>-186</integer>
                  <key>y</key>
                  <integer>38</integer>
                </dict>
                <dict>
                  <key>segmentType</key>
                  <string>line</string>
                  <key>smooth</key>
                  <false/>
                  <key>x</key>
                  <integer>26</integer>
                  <key>y</key>
                  <integer>360</integer>
                </dict>
                <dict>
                  <key>segmentType</key>
                  <string>line</string>
                  <key>smooth</key>
                  <false/>
                  <key>x</key>
                  <integer>9</integer>
                  <key>y</key>
                  <integer>349</integer>
                </dict>
                <dict>
                  <key>segmentType</key>
                  <string>line</string>
                  <key>smooth</key>
                  <true/>
                  <key>x</key>
                  <integer>9</integer>
                  <key>y</key>
                  <integer>-174</integer>
                </dict>
                <dict>
                  <key>smooth</key>
                  <false/>
                  <key>x</key>
                  <integer>9</integer>
                  <key>y</key>
                  <integer>-181</integer>
                </dict>
                <dict>
                  <key>smooth</key>
                  <false/>
                  <key>x</key>
                  <integer>11</integer>
                  <key>y</key>
                  <integer>-182</integer>
                </dict>
                <dict>
                  <key>segmentType</key>
                  <string>curve</string>
                  <key>smooth</key>
                  <true/>
                  <key>x</key>
                  <integer>17</integer>
                  <key>y</key>
                  <integer>-179</integer>
                </dict>
                <dict>
                  <key>segmentType</key>
                  <string>line</string>
                  <key>smooth</key>
                  <true/>
                  <key>x</key>
                  <integer>46</integer>
                  <key>y</key>
                  <integer>-165</integer>
                </dict>
                <dict>
                  <key>smooth</key>
                  <false/>
                  <key>x</key>
                  <integer>51</integer>
                  <key>y</key>
                  <integer>-163</integer>
                </dict>
                <dict>
                  <key>smooth</key>
                  <false/>
                  <key>x</key>
                  <integer>53</integer>
                  <key>y</key>
                  <integer>-159</integer>
                </dict>
                <dict>
                  <key>segmentType</key>
                  <string>curve</string>
                  <key>smooth</key>
                  <true/>
                  <key>x</key>
                  <integer>53</integer>
                  <key>y</key>
                  <integer>-153</integer>
                </dict>
                <dict>
                  <key>segmentType</key>
                  <string>line</string>
                  <key>smooth</key>
                  <true/>
                  <key>x</key>
                  <integer>53</integer>
                  <key>y</key>
                  <integer>406</integer>
                </dict>
                <dict>
                  <key>smooth</key>
                  <false/>
                  <key>x</key>
                  <integer>53</integer>
                  <key>y</key>
                  <integer>412</integer>
                </dict>
                <dict>
                  <key>smooth</key>
                  <false/>
                  <key>x</key>
                  <integer>42</integer>
                  <key>y</key>
                  <integer>415</integer>
                </dict>
                <dict>
                  <key>segmentType</key>
                  <string>curve</string>
                  <key>smooth</key>
                  <true/>
                  <key>x</key>
                  <integer>38</integer>
                  <key>y</key>
                  <integer>410</integer>
                </dict>
                <dict>
                  <key>segmentType</key>
                  <string>line</string>
                  <key>smooth</key>
                  <true/>
                  <key>x</key>
                  <integer>-227</integer>
                  <key>y</key>
                  <integer>17</integer>
                </dict>
                <dict>
                  <key>smooth</key>
                  <false/>
                  <key>x</key>
                  <integer>-231</integer>
                  <key>y</key>
                  <integer>12</integer>
                </dict>
                <dict>
                  <key>smooth</key>
                  <false/>
                  <key>x</key>
                  <integer>-226</integer>
                  <key>y</key>
                  <integer>7</integer>
                </dict>
                <dict>
                  <key>segmentType</key>
                  <string>curve</string>
                  <key>smooth</key>
                  <true/>
                  <key>x</key>
                  <integer>-221</integer>
                  <key>y</key>
                  <integer>7</integer>
                </dict>
              </array>
            </dict>
          </array>
          <key>lib</key>
          <dict>
          </dict>
          <key>name</key>
          <string>fivesuperior</string>
          <key>unicodes</key>
          <array>
          </array>
          <key>width</key>
          <integer>213</integer>
        </dict>
      </dict>
      <key>public.markColor</key>
      <string>0.98,0.36,0.67,1</string>
    </dict>
  </lib>
</glyph>
