<?xml version="1.0" encoding="UTF-8"?>
<glyph name="Iacute_J.dlig" format="1">
  <advance width="572"/>
  <outline>
    <component base="IJ"/>
    <component base="acute.case" xOffset="43" yOffset="204"/>
    <component base="acute.case" xOffset="339" yOffset="204"/>
  </outline>
  <lib>
    <dict>
      <key>com.schriftgestaltung.Glyphs.ColorIndex</key>
      <integer>6</integer>
      <key>com.typemytype.robofont.layerData</key>
      <dict>
        <key>background</key>
        <dict>
          <key>anchors</key>
          <array>
          </array>
          <key>components</key>
          <array>
            <dict>
              <key>baseGlyph</key>
              <string>IJ</string>
              <key>transformation</key>
              <array>
                <integer>1</integer>
                <integer>0</integer>
                <integer>0</integer>
                <integer>1</integer>
                <integer>0</integer>
                <integer>0</integer>
              </array>
            </dict>
            <dict>
              <key>baseGlyph</key>
              <string>acutecomb.case</string>
              <key>transformation</key>
              <array>
                <integer>1</integer>
                <integer>0</integer>
                <integer>0</integer>
                <integer>1</integer>
                <integer>393</integer>
                <integer>0</integer>
              </array>
            </dict>
            <dict>
              <key>baseGlyph</key>
              <string>acutecomb.case</string>
              <key>transformation</key>
              <array>
                <integer>1</integer>
                <integer>0</integer>
                <integer>0</integer>
                <integer>1</integer>
                <integer>106</integer>
                <integer>0</integer>
              </array>
            </dict>
          </array>
          <key>contours</key>
          <array>
          </array>
          <key>lib</key>
          <dict>
          </dict>
          <key>name</key>
          <string>Iacute_J.dlig</string>
          <key>unicodes</key>
          <array>
          </array>
          <key>width</key>
          <integer>572</integer>
        </dict>
      </dict>
      <key>public.markColor</key>
      <string>0,0.67,0.91,1</string>
    </dict>
  </lib>
</glyph>
