<?xml version="1.0" encoding="UTF-8"?>
<glyph name="lslash" format="1">
  <advance width="211"/>
  <unicode hex="0142"/>
  <outline>
    <contour>
      <point x="170" y="333" type="line" smooth="yes"/>
      <point x="174" y="335"/>
      <point x="165" y="349"/>
      <point x="161" y="347" type="curve" smooth="yes"/>
      <point x="24" y="259" type="line" smooth="yes"/>
      <point x="21" y="257"/>
      <point x="30" y="243"/>
      <point x="34" y="245" type="curve" smooth="yes"/>
    </contour>
    <component base="l" xOffset="5"/>
  </outline>
  <lib>
    <dict>
      <key>com.schriftgestaltung.Glyphs.leftMetricsKey</key>
      <string>=l+5</string>
      <key>com.schriftgestaltung.Glyphs.rightMetricsKey</key>
      <string>=l+5</string>
    </dict>
  </lib>
</glyph>
