<?xml version="1.0" encoding="UTF-8"?>
<glyph name="plus.case" format="1">
  <advance width="390"/>
  <outline>
    <component base="endash.case"/>
    <component base="endash.case" xOffset="473" yOffset="83" xScale="0" yScale="0" xyScale="1" yxScale="-1"/>
  </outline>
  <lib>
    <dict>
      <key>com.schriftgestaltung.Glyphs.rightMetricsKey</key>
      <string>dash</string>
    </dict>
  </lib>
</glyph>
