<?xml version="1.0" encoding="UTF-8"?>
<glyph name="trademark" format="1">
  <advance width="611"/>
  <unicode hex="2122"/>
  <outline>
    <contour>
      <point x="119" y="525"/>
      <point x="125" y="519"/>
      <point x="125" y="494" type="curve" smooth="yes"/>
      <point x="125" y="335" type="line" smooth="yes"/>
      <point x="125" y="310"/>
      <point x="118" y="304"/>
      <point x="82" y="304" type="curve" smooth="yes"/>
      <point x="80" y="304"/>
      <point x="80" y="294"/>
      <point x="82" y="294" type="curve" smooth="yes"/>
      <point x="98" y="294"/>
      <point x="119" y="295"/>
      <point x="140" y="295" type="curve" smooth="yes"/>
      <point x="164" y="295"/>
      <point x="184" y="294"/>
      <point x="200" y="294" type="curve" smooth="yes"/>
      <point x="202" y="294"/>
      <point x="202" y="304"/>
      <point x="200" y="304" type="curve" smooth="yes"/>
      <point x="163" y="304"/>
      <point x="157" y="310"/>
      <point x="157" y="335" type="curve" smooth="yes"/>
      <point x="157" y="493" type="line" smooth="yes"/>
      <point x="157" y="517"/>
      <point x="163" y="525"/>
      <point x="194" y="525" type="curve" smooth="yes"/>
      <point x="232" y="525"/>
      <point x="240" y="518"/>
      <point x="240" y="469" type="curve" smooth="yes"/>
      <point x="240" y="467"/>
      <point x="250" y="467"/>
      <point x="250" y="469" type="curve" smooth="yes"/>
      <point x="250" y="482"/>
      <point x="252" y="529"/>
      <point x="253" y="547" type="curve" smooth="yes"/>
      <point x="253" y="550"/>
      <point x="244" y="550"/>
      <point x="243" y="547" type="curve" smooth="yes"/>
      <point x="240" y="536"/>
      <point x="228" y="535"/>
      <point x="209" y="535" type="curve" smooth="yes"/>
      <point x="191" y="535"/>
      <point x="173" y="534"/>
      <point x="140" y="534" type="curve" smooth="yes"/>
      <point x="112" y="534"/>
      <point x="85" y="535"/>
      <point x="63" y="535" type="curve" smooth="yes"/>
      <point x="53" y="535"/>
      <point x="40" y="535"/>
      <point x="40" y="545" type="curve" smooth="yes"/>
      <point x="40" y="549"/>
      <point x="30" y="548"/>
      <point x="30" y="545" type="curve" smooth="yes"/>
      <point x="30" y="526"/>
      <point x="27" y="483"/>
      <point x="25" y="469" type="curve" smooth="yes"/>
      <point x="25" y="467"/>
      <point x="35" y="467"/>
      <point x="35" y="469" type="curve" smooth="yes"/>
      <point x="40" y="517"/>
      <point x="50" y="525"/>
      <point x="88" y="525" type="curve" smooth="yes"/>
    </contour>
    <contour>
      <point x="298" y="317"/>
      <point x="290" y="304"/>
      <point x="265" y="304" type="curve" smooth="yes"/>
      <point x="263" y="304"/>
      <point x="263" y="294"/>
      <point x="265" y="294" type="curve" smooth="yes"/>
      <point x="277" y="294"/>
      <point x="290" y="295"/>
      <point x="304" y="295" type="curve" smooth="yes"/>
      <point x="319" y="295"/>
      <point x="331" y="294"/>
      <point x="342" y="294" type="curve" smooth="yes"/>
      <point x="344" y="294"/>
      <point x="344" y="304"/>
      <point x="342" y="304" type="curve" smooth="yes"/>
      <point x="321" y="304"/>
      <point x="312" y="317"/>
      <point x="314" y="347" type="curve" smooth="yes"/>
      <point x="320" y="521" type="line"/>
      <point x="305" y="523" type="line"/>
      <point x="299" y="347" type="line" smooth="yes"/>
    </contour>
    <contour>
      <point x="553" y="304"/>
      <point x="548" y="310"/>
      <point x="547" y="335" type="curve" smooth="yes"/>
      <point x="542" y="489" type="line" smooth="yes"/>
      <point x="541" y="519"/>
      <point x="555" y="524"/>
      <point x="581" y="524" type="curve" smooth="yes"/>
      <point x="583" y="524"/>
      <point x="583" y="534"/>
      <point x="581" y="534" type="curve" smooth="yes"/>
      <point x="571" y="534"/>
      <point x="563" y="533"/>
      <point x="548" y="533" type="curve" smooth="yes"/>
      <point x="536" y="533"/>
      <point x="526" y="534"/>
      <point x="522" y="534" type="curve" smooth="yes"/>
      <point x="516" y="534"/>
      <point x="509" y="529"/>
      <point x="506" y="521" type="curve" smooth="yes"/>
      <point x="415" y="315" type="line"/>
      <point x="433" y="329" type="line"/>
      <point x="344" y="508" type="line" smooth="yes"/>
      <point x="332" y="530"/>
      <point x="326" y="534"/>
      <point x="317" y="534" type="curve" smooth="yes"/>
      <point x="313" y="534"/>
      <point x="304" y="533"/>
      <point x="295" y="533" type="curve" smooth="yes"/>
      <point x="289" y="533"/>
      <point x="278" y="534"/>
      <point x="270" y="534" type="curve" smooth="yes"/>
      <point x="268" y="534"/>
      <point x="268" y="524"/>
      <point x="270" y="524" type="curve" smooth="yes"/>
      <point x="284" y="524"/>
      <point x="302" y="519"/>
      <point x="317" y="491" type="curve" smooth="yes"/>
      <point x="415" y="298" type="line" smooth="yes"/>
      <point x="416" y="295"/>
      <point x="421" y="295"/>
      <point x="422" y="298" type="curve" smooth="yes"/>
      <point x="523" y="525" type="line"/>
      <point x="512" y="528" type="line"/>
      <point x="518" y="335" type="line" smooth="yes"/>
      <point x="520" y="310"/>
      <point x="512" y="304"/>
      <point x="473" y="304" type="curve" smooth="yes"/>
      <point x="471" y="304"/>
      <point x="471" y="294"/>
      <point x="473" y="294" type="curve" smooth="yes"/>
      <point x="489" y="294"/>
      <point x="508" y="295"/>
      <point x="532" y="295" type="curve" smooth="yes"/>
      <point x="551" y="295"/>
      <point x="570" y="294"/>
      <point x="584" y="294" type="curve" smooth="yes"/>
      <point x="586" y="294"/>
      <point x="586" y="304"/>
      <point x="584" y="304" type="curve" smooth="yes"/>
    </contour>
    <contour>
      <point x="139" y="393" type="move" name="center"/>
    </contour>
    <contour>
      <point x="143" y="294" type="move" name="bottom"/>
    </contour>
    <contour>
      <point x="142" y="534" type="move" name="topright"/>
    </contour>
  </outline>
</glyph>
